<?xml version="1.0" encoding="UTF-8" standalone="no"?>
<svg
   xmlns:dc="http://purl.org/dc/elements/1.1/"
   xmlns:cc="http://creativecommons.org/ns#"
   xmlns:rdf="http://www.w3.org/1999/02/22-rdf-syntax-ns#"
   xmlns:svg="http://www.w3.org/2000/svg"
   xmlns="http://www.w3.org/2000/svg"
   xmlns:sodipodi="http://sodipodi.sourceforge.net/DTD/sodipodi-0.dtd"
   xmlns:inkscape="http://www.inkscape.org/namespaces/inkscape"
   version="1.1"
   id="svg2"
   viewBox="0 0 744.09448819 1052.3622047"
   height="297mm"
   width="210mm"
   inkscape:version="0.91 r13725"
   sodipodi:docname="interval_az0.svg">
  <sodipodi:namedview
     pagecolor="#ffffff"
     bordercolor="#666666"
     borderopacity="1"
     objecttolerance="10"
     gridtolerance="10"
     guidetolerance="10"
     inkscape:pageopacity="0"
     inkscape:pageshadow="2"
     inkscape:window-width="960"
     inkscape:window-height="1079"
     id="namedview63"
     showgrid="true"
     inkscape:zoom="5.0743654"
     inkscape:cx="139.15973"
     inkscape:cy="284.13201"
     inkscape:window-x="0"
     inkscape:window-y="0"
     inkscape:window-maximized="0"
     inkscape:current-layer="layer1">
    <inkscape:grid
       type="xygrid"
       id="grid4191" />
  </sodipodi:namedview>
  <defs
     id="defs4" />
  <metadata
     id="metadata7">
    <rdf:RDF>
      <cc:Work
         rdf:about="">
        <dc:format>image/svg+xml</dc:format>
        <dc:type
           rdf:resource="http://purl.org/dc/dcmitype/StillImage" />
        <dc:title />
      </cc:Work>
    </rdf:RDF>
  </metadata>
  <g
     id="layer1">
    <rect
       style="opacity:1;fill:#90a9e9;fill-opacity:1;stroke:none;stroke-width:1;stroke-linecap:round;stroke-linejoin:round;stroke-miterlimit:4;stroke-dasharray:none;stroke-dashoffset:0;stroke-opacity:1"
       id="rect4359-3"
       width="119.36828"
       height="10"
       x="79.994286"
       y="682.22565" />
    <path
       id="path4138"
       d="m 79.494924,692.3622 120.992816,0"
       style="fill:none;fill-rule:evenodd;stroke:#000000;stroke-width:0.72529697px;stroke-linecap:butt;stroke-linejoin:miter;stroke-opacity:1" />
    <path
       id="path4140"
       d="m 80,682.3622 0,10"
       style="fill:none;fill-rule:evenodd;stroke:#000000;stroke-width:1px;stroke-linecap:butt;stroke-linejoin:miter;stroke-opacity:1" />
    <path
       id="path4142"
       d="m 90,682.3622 0,10"
       style="fill:none;fill-rule:evenodd;stroke:#000000;stroke-width:1px;stroke-linecap:butt;stroke-linejoin:miter;stroke-opacity:1" />
    <path
       id="path4144"
       d="m 100,682.3622 0,10"
       style="fill:none;fill-rule:evenodd;stroke:#000000;stroke-width:1px;stroke-linecap:butt;stroke-linejoin:miter;stroke-opacity:1" />
    <path
       id="path4146"
       d="m 110,682.3622 0,10"
       style="fill:none;fill-rule:evenodd;stroke:#000000;stroke-width:1px;stroke-linecap:butt;stroke-linejoin:miter;stroke-opacity:1" />
    <path
       id="path4148"
       d="m 120,682.3622 0,10"
       style="fill:none;fill-rule:evenodd;stroke:#000000;stroke-width:1px;stroke-linecap:butt;stroke-linejoin:miter;stroke-opacity:1" />
    <path
       id="path4150"
       d="m 130,682.3622 0,10"
       style="fill:none;fill-rule:evenodd;stroke:#000000;stroke-width:1px;stroke-linecap:butt;stroke-linejoin:miter;stroke-opacity:1" />
    <path
       id="path4152"
       d="m 140,682.3622 0,10"
       style="fill:none;fill-rule:evenodd;stroke:#000000;stroke-width:1px;stroke-linecap:butt;stroke-linejoin:miter;stroke-opacity:1" />
    <path
       id="path4154"
       d="m 150,682.3622 0,10"
       style="fill:none;fill-rule:evenodd;stroke:#000000;stroke-width:1px;stroke-linecap:butt;stroke-linejoin:miter;stroke-opacity:1" />
    <path
       id="path4156"
       d="m 160,682.3622 0,10"
       style="fill:none;fill-rule:evenodd;stroke:#000000;stroke-width:1px;stroke-linecap:butt;stroke-linejoin:miter;stroke-opacity:1" />
    <text
       id="text4158"
       y="700.36218"
       x="77.620605"
       style="font-style:normal;font-variant:normal;font-weight:600;font-stretch:condensed;font-size:6.25px;line-height:0%;font-family:'CMU Sans Serif Demi Condensed';-inkscape-font-specification:'CMU Sans Serif Demi Condensed, Semi-Bold Condensed';text-align:start;letter-spacing:0px;word-spacing:0px;writing-mode:lr-tb;text-anchor:start;fill:#000000;fill-opacity:1;stroke:none;stroke-width:1px;stroke-linecap:butt;stroke-linejoin:miter;stroke-opacity:1"
       xml:space="preserve"><tspan
         y="700.36218"
         x="77.620605"
         id="tspan4160">-6</tspan></text>
    <text
       id="text4158-3"
       y="700.3028"
       x="87.642479"
       style="font-style:normal;font-variant:normal;font-weight:600;font-stretch:condensed;font-size:6.25px;line-height:0%;font-family:'CMU Sans Serif Demi Condensed';-inkscape-font-specification:'CMU Sans Serif Demi Condensed, Semi-Bold Condensed';text-align:start;letter-spacing:0px;word-spacing:0px;writing-mode:lr-tb;text-anchor:start;fill:#000000;fill-opacity:1;stroke:none;stroke-width:1px;stroke-linecap:butt;stroke-linejoin:miter;stroke-opacity:1"
       xml:space="preserve"><tspan
         y="700.3028"
         x="87.642479"
         id="tspan4160-6">-5</tspan></text>
    <text
       id="text4158-7"
       y="700.36218"
       x="97.576859"
       style="font-style:normal;font-variant:normal;font-weight:600;font-stretch:condensed;font-size:6.25px;line-height:0%;font-family:'CMU Sans Serif Demi Condensed';-inkscape-font-specification:'CMU Sans Serif Demi Condensed, Semi-Bold Condensed';text-align:start;letter-spacing:0px;word-spacing:0px;writing-mode:lr-tb;text-anchor:start;fill:#000000;fill-opacity:1;stroke:none;stroke-width:1px;stroke-linecap:butt;stroke-linejoin:miter;stroke-opacity:1"
       xml:space="preserve"><tspan
         y="700.36218"
         x="97.576859"
         id="tspan4160-5">-4</tspan></text>
    <text
       id="text4158-35"
       y="700.36218"
       x="107.62061"
       style="font-style:normal;font-variant:normal;font-weight:600;font-stretch:condensed;font-size:6.25px;line-height:0%;font-family:'CMU Sans Serif Demi Condensed';-inkscape-font-specification:'CMU Sans Serif Demi Condensed, Semi-Bold Condensed';text-align:start;letter-spacing:0px;word-spacing:0px;writing-mode:lr-tb;text-anchor:start;fill:#000000;fill-opacity:1;stroke:none;stroke-width:1px;stroke-linecap:butt;stroke-linejoin:miter;stroke-opacity:1"
       xml:space="preserve"><tspan
         id="tspan4272"
         y="700.36218"
         x="107.62061">-3</tspan></text>
    <text
       id="text4158-9"
       y="700.42157"
       x="117.64248"
       style="font-style:normal;font-variant:normal;font-weight:600;font-stretch:condensed;font-size:6.25px;line-height:0%;font-family:'CMU Sans Serif Demi Condensed';-inkscape-font-specification:'CMU Sans Serif Demi Condensed, Semi-Bold Condensed';text-align:start;letter-spacing:0px;word-spacing:0px;writing-mode:lr-tb;text-anchor:start;fill:#000000;fill-opacity:1;stroke:none;stroke-width:1px;stroke-linecap:butt;stroke-linejoin:miter;stroke-opacity:1"
       xml:space="preserve"><tspan
         y="700.42157"
         x="117.64248"
         id="tspan4160-1">-2</tspan></text>
    <text
       id="text4158-2"
       y="700.42157"
       x="127.70186"
       style="font-style:normal;font-variant:normal;font-weight:600;font-stretch:condensed;font-size:6.25px;line-height:0%;font-family:'CMU Sans Serif Demi Condensed';-inkscape-font-specification:'CMU Sans Serif Demi Condensed, Semi-Bold Condensed';text-align:start;letter-spacing:0px;word-spacing:0px;writing-mode:lr-tb;text-anchor:start;fill:#000000;fill-opacity:1;stroke:none;stroke-width:1px;stroke-linecap:butt;stroke-linejoin:miter;stroke-opacity:1"
       xml:space="preserve"><tspan
         y="700.42157"
         x="127.70186"
         id="tspan4160-7">-1</tspan></text>
    <text
       id="text4158-0"
       y="700.36218"
       x="138.51875"
       style="font-style:normal;font-variant:normal;font-weight:600;font-stretch:condensed;font-size:6.25px;line-height:0%;font-family:'CMU Sans Serif Demi Condensed';-inkscape-font-specification:'CMU Sans Serif Demi Condensed, Semi-Bold Condensed';text-align:start;letter-spacing:0px;word-spacing:0px;writing-mode:lr-tb;text-anchor:start;fill:#000000;fill-opacity:1;stroke:none;stroke-width:1px;stroke-linecap:butt;stroke-linejoin:miter;stroke-opacity:1"
       xml:space="preserve"><tspan
         y="700.36218"
         x="138.51875"
         id="tspan4160-9">0</tspan></text>
    <text
       id="text4158-36"
       y="700.42157"
       x="148.51562"
       style="font-style:normal;font-variant:normal;font-weight:600;font-stretch:condensed;font-size:6.25px;line-height:0%;font-family:'CMU Sans Serif Demi Condensed';-inkscape-font-specification:'CMU Sans Serif Demi Condensed, Semi-Bold Condensed';text-align:start;letter-spacing:0px;word-spacing:0px;writing-mode:lr-tb;text-anchor:start;fill:#000000;fill-opacity:1;stroke:none;stroke-width:1px;stroke-linecap:butt;stroke-linejoin:miter;stroke-opacity:1"
       xml:space="preserve"><tspan
         y="700.42157"
         x="148.51562"
         id="tspan4160-0">1</tspan></text>
    <text
       id="text4158-6"
       y="700.42157"
       x="158.54062"
       style="font-style:normal;font-variant:normal;font-weight:600;font-stretch:condensed;font-size:6.25px;line-height:0%;font-family:'CMU Sans Serif Demi Condensed';-inkscape-font-specification:'CMU Sans Serif Demi Condensed, Semi-Bold Condensed';text-align:start;letter-spacing:0px;word-spacing:0px;writing-mode:lr-tb;text-anchor:start;fill:#000000;fill-opacity:1;stroke:none;stroke-width:1px;stroke-linecap:butt;stroke-linejoin:miter;stroke-opacity:1"
       xml:space="preserve"><tspan
         y="700.42157"
         x="158.54062"
         id="tspan4160-2">2</tspan><tspan
         id="tspan4270"
         y="700.42157"
         x="158.54062" /></text>
    <text
       id="text4158-61"
       y="700.36218"
       x="168.51875"
       style="font-style:normal;font-variant:normal;font-weight:600;font-stretch:condensed;font-size:6.25px;line-height:0%;font-family:'CMU Sans Serif Demi Condensed';-inkscape-font-specification:'CMU Sans Serif Demi Condensed, Semi-Bold Condensed';text-align:start;letter-spacing:0px;word-spacing:0px;writing-mode:lr-tb;text-anchor:start;fill:#000000;fill-opacity:1;stroke:none;stroke-width:1px;stroke-linecap:butt;stroke-linejoin:miter;stroke-opacity:1"
       xml:space="preserve"><tspan
         y="700.36218"
         x="168.51875"
         id="tspan4160-8">3</tspan></text>
    <text
       id="text4158-79"
       y="700.36218"
       x="178.51875"
       style="font-style:normal;font-variant:normal;font-weight:600;font-stretch:condensed;font-size:6.25px;line-height:0%;font-family:'CMU Sans Serif Demi Condensed';-inkscape-font-specification:'CMU Sans Serif Demi Condensed, Semi-Bold Condensed';text-align:start;letter-spacing:0px;word-spacing:0px;writing-mode:lr-tb;text-anchor:start;fill:#000000;fill-opacity:1;stroke:none;stroke-width:1px;stroke-linecap:butt;stroke-linejoin:miter;stroke-opacity:1"
       xml:space="preserve"><tspan
         y="700.36218"
         x="178.51875"
         id="tspan4160-20">4</tspan></text>
    <text
       id="text4158-23"
       y="700.3028"
       x="188.5625"
       style="font-style:normal;font-variant:normal;font-weight:600;font-stretch:condensed;font-size:6.25px;line-height:0%;font-family:'CMU Sans Serif Demi Condensed';-inkscape-font-specification:'CMU Sans Serif Demi Condensed, Semi-Bold Condensed';text-align:start;letter-spacing:0px;word-spacing:0px;writing-mode:lr-tb;text-anchor:start;fill:#000000;fill-opacity:1;stroke:none;stroke-width:1px;stroke-linecap:butt;stroke-linejoin:miter;stroke-opacity:1"
       xml:space="preserve"><tspan
         y="700.3028"
         x="188.5625"
         id="tspan4160-75">5</tspan><tspan
         id="tspan4268"
         y="700.3028"
         x="188.5625" /></text>
    <text
       id="text4158-92"
       y="700.36218"
       x="198.51875"
       style="font-style:normal;font-variant:normal;font-weight:600;font-stretch:condensed;font-size:6.25px;line-height:0%;font-family:'CMU Sans Serif Demi Condensed';-inkscape-font-specification:'CMU Sans Serif Demi Condensed, Semi-Bold Condensed';text-align:start;letter-spacing:0px;word-spacing:0px;writing-mode:lr-tb;text-anchor:start;fill:#000000;fill-opacity:1;stroke:none;stroke-width:1px;stroke-linecap:butt;stroke-linejoin:miter;stroke-opacity:1"
       xml:space="preserve"><tspan
         y="700.36218"
         x="198.51875"
         id="tspan4160-28">6</tspan></text>
    <path
       id="path4276"
       d="m 170,692.3622 0,-10"
       style="fill:none;fill-rule:evenodd;stroke:#000000;stroke-width:1px;stroke-linecap:butt;stroke-linejoin:miter;stroke-opacity:1" />
    <path
       id="path4278"
       d="m 180,692.3622 0,-10"
       style="fill:none;fill-rule:evenodd;stroke:#000000;stroke-width:1px;stroke-linecap:butt;stroke-linejoin:miter;stroke-opacity:1" />
    <path
       id="path4280"
       d="m 190,692.3622 0,-10"
       style="fill:none;fill-rule:evenodd;stroke:#000000;stroke-width:1px;stroke-linecap:butt;stroke-linejoin:miter;stroke-opacity:1" />
    <path
       id="path4282"
       d="m 200,692.3622 0,-10"
       style="fill:none;fill-rule:evenodd;stroke:#000000;stroke-width:1px;stroke-linecap:butt;stroke-linejoin:miter;stroke-opacity:1" />
    <circle
       r="3"
       cy="687.43365"
       cx="120"
       id="path4325"
       style="opacity:1;fill:#ff5600;fill-opacity:0.39719626;stroke:none;stroke-width:1;stroke-linecap:round;stroke-linejoin:round;stroke-miterlimit:4;stroke-dasharray:none;stroke-dashoffset:0;stroke-opacity:1" />
    <circle
       r="3"
       cy="687.43365"
       cx="130"
       id="path4325-3"
       style="opacity:1;fill:#ff5600;fill-opacity:0.39719626;stroke:none;stroke-width:1;stroke-linecap:round;stroke-linejoin:round;stroke-miterlimit:4;stroke-dasharray:none;stroke-dashoffset:0;stroke-opacity:1" />
    <circle
       r="3"
       cy="687.43365"
       cx="140"
       id="path4325-6"
       style="opacity:1;fill:#ff5600;fill-opacity:0.39719626;stroke:none;stroke-width:1;stroke-linecap:round;stroke-linejoin:round;stroke-miterlimit:4;stroke-dasharray:none;stroke-dashoffset:0;stroke-opacity:1" />
    <circle
       r="3"
       cy="687.43365"
       cx="150"
       id="path4325-7"
       style="opacity:1;fill:#ff5600;fill-opacity:0.39719626;stroke:none;stroke-width:1;stroke-linecap:round;stroke-linejoin:round;stroke-miterlimit:4;stroke-dasharray:none;stroke-dashoffset:0;stroke-opacity:1" />
    <circle
       r="3"
       cy="687.43365"
       cx="160"
       id="path4325-5"
       style="opacity:1;fill:#ff5600;fill-opacity:0.39719626;stroke:none;stroke-width:1;stroke-linecap:round;stroke-linejoin:round;stroke-miterlimit:4;stroke-dasharray:none;stroke-dashoffset:0;stroke-opacity:1" />
    <circle
       r="3"
       cy="687.43365"
       cx="80"
       id="path4325-35"
       style="opacity:1;fill:#ff5600;fill-opacity:0.39719626;stroke:none;stroke-width:1;stroke-linecap:round;stroke-linejoin:round;stroke-miterlimit:4;stroke-dasharray:none;stroke-dashoffset:0;stroke-opacity:1" />
    <circle
       r="3"
       cy="687.43365"
       cx="90"
       id="path4325-62"
       style="opacity:1;fill:#ff5600;fill-opacity:0.39719626;stroke:none;stroke-width:1;stroke-linecap:round;stroke-linejoin:round;stroke-miterlimit:4;stroke-dasharray:none;stroke-dashoffset:0;stroke-opacity:1" />
    <circle
       r="3"
       cy="687.43365"
       cx="100"
       id="path4325-9"
       style="opacity:1;fill:#ff5600;fill-opacity:0.39719626;stroke:none;stroke-width:1;stroke-linecap:round;stroke-linejoin:round;stroke-miterlimit:4;stroke-dasharray:none;stroke-dashoffset:0;stroke-opacity:1" />
    <circle
       r="3"
       cy="687.43365"
       cx="110"
       id="path4325-1"
       style="opacity:1;fill:#ff5600;fill-opacity:0.39719626;stroke:none;stroke-width:1;stroke-linecap:round;stroke-linejoin:round;stroke-miterlimit:4;stroke-dasharray:none;stroke-dashoffset:0;stroke-opacity:1" />
    <circle
       r="3"
       cy="687.43365"
       cx="170"
       id="path4325-2"
       style="opacity:1;fill:#ff5600;fill-opacity:0.39719626;stroke:none;stroke-width:1;stroke-linecap:round;stroke-linejoin:round;stroke-miterlimit:4;stroke-dasharray:none;stroke-dashoffset:0;stroke-opacity:1" />
    <circle
       r="3"
       cy="687.43365"
       cx="180"
       id="path4325-70"
       style="opacity:1;fill:#ff5600;fill-opacity:0.39719626;stroke:none;stroke-width:1;stroke-linecap:round;stroke-linejoin:round;stroke-miterlimit:4;stroke-dasharray:none;stroke-dashoffset:0;stroke-opacity:1" />
    <circle
       r="3"
       cy="687.43365"
       cx="190"
       id="path4325-93"
       style="opacity:1;fill:#ff5600;fill-opacity:0.39719626;stroke:none;stroke-width:1;stroke-linecap:round;stroke-linejoin:round;stroke-miterlimit:4;stroke-dasharray:none;stroke-dashoffset:0;stroke-opacity:1" />
    <circle
       r="3"
       cy="687.43365"
       cx="200"
       id="path4325-60"
       style="opacity:1;fill:#ff5600;fill-opacity:0.39719626;stroke:none;stroke-width:1;stroke-linecap:round;stroke-linejoin:round;stroke-miterlimit:4;stroke-dasharray:none;stroke-dashoffset:0;stroke-opacity:1" />
    <path
       sodipodi:type="star"
       style="opacity:1;fill:#113ead;fill-opacity:1;stroke:#000000;stroke-width:0.39356741;stroke-linecap:round;stroke-linejoin:round;stroke-miterlimit:4;stroke-dasharray:none;stroke-dashoffset:0;stroke-opacity:1"
       id="path4329-6"
       sodipodi:sides="3"
       sodipodi:cx="79.933868"
       sodipodi:cy="679.77588"
       sodipodi:r1="3.935674"
       sodipodi:r2="1.9678371"
       sodipodi:arg1="1.5707963"
       sodipodi:arg2="2.6179939"
       inkscape:flatsided="true"
       inkscape:rounded="0"
       inkscape:randomized="0"
       d="m 79.933869,683.71155 -3.408394,-5.90351 6.816787,0 z"
       inkscape:transform-center-y="0.98394922" />
    <path
       sodipodi:type="star"
       style="opacity:1;fill:#113ead;fill-opacity:1;stroke:#000000;stroke-width:0.39356741;stroke-linecap:round;stroke-linejoin:round;stroke-miterlimit:4;stroke-dasharray:none;stroke-dashoffset:0;stroke-opacity:1"
       id="path4329-6-3"
       sodipodi:sides="3"
       sodipodi:cx="199.94864"
       sodipodi:cy="679.77586"
       sodipodi:r1="3.935674"
       sodipodi:r2="1.9678371"
       sodipodi:arg1="1.5707963"
       sodipodi:arg2="2.6179939"
       inkscape:flatsided="true"
       inkscape:rounded="0"
       inkscape:randomized="0"
       d="m 199.94864,683.71155 -3.40839,-5.90351 6.81678,0 z"
       inkscape:transform-center-y="0.98394922" />
  </g>
</svg>
