<?xml version="1.0" encoding="UTF-8" standalone="no"?>
<!-- Generator: Adobe Illustrator 19.0.0, SVG Export Plug-In . SVG Version: 6.00 Build 0)  -->

<svg
   xmlns:dc="http://purl.org/dc/elements/1.1/"
   xmlns:cc="http://creativecommons.org/ns#"
   xmlns:rdf="http://www.w3.org/1999/02/22-rdf-syntax-ns#"
   xmlns:svg="http://www.w3.org/2000/svg"
   xmlns="http://www.w3.org/2000/svg"
   xmlns:sodipodi="http://sodipodi.sourceforge.net/DTD/sodipodi-0.dtd"
   xmlns:inkscape="http://www.inkscape.org/namespaces/inkscape"
   version="1.1"
   id="Layer_1"
   x="0px"
   y="0px"
   viewBox="0 0 426.667 426.667"
   style="enable-background:new 0 0 426.667 426.667;"
   xml:space="preserve"
   inkscape:version="0.91 r13725"
   sodipodi:docname="qmark.svg"><metadata
     id="metadata39"><rdf:RDF><cc:Work
         rdf:about=""><dc:format>image/svg+xml</dc:format><dc:type
           rdf:resource="http://purl.org/dc/dcmitype/StillImage" /><dc:title></dc:title></cc:Work></rdf:RDF></metadata><defs
     id="defs37" /><sodipodi:namedview
     pagecolor="#ffffff"
     bordercolor="#666666"
     borderopacity="1"
     objecttolerance="10"
     gridtolerance="10"
     guidetolerance="10"
     inkscape:pageopacity="0"
     inkscape:pageshadow="2"
     inkscape:window-width="960"
     inkscape:window-height="1079"
     id="namedview35"
     showgrid="false"
     inkscape:zoom="0.78223628"
     inkscape:cx="172.59399"
     inkscape:cy="6.9633288"
     inkscape:window-x="0"
     inkscape:window-y="0"
     inkscape:window-maximized="0"
     inkscape:current-layer="Layer_1" /><path
     style="fill:#90a9e9;fill-opacity:1"
     d="M 213.52539 10.853516 C 95.710388 10.853516 0.19335937 106.36655 0.19335938 224.18555 C 0.19335938 342.00455 95.710388 437.51953 213.52539 437.51953 C 331.35339 437.51953 426.85937 342.00455 426.85938 224.18555 C 426.85938 106.36655 331.34939 10.853516 213.52539 10.853516 z M 207.54688 84.855469 C 249.40391 84.855469 282.04288 93.669349 305.46289 111.29492 C 324.89651 126.80543 334.61328 146.19323 334.61328 169.45898 C 334.61328 190.60967 326.88865 208.41031 311.44141 222.86328 C 294.99757 239.07881 273.8197 247.1875 247.9082 247.1875 L 247.9082 263.57812 C 247.9082 278.38361 236.4471 285.78711 213.52539 285.78711 C 201.56624 285.78711 191.35193 283.49671 182.88086 278.91406 C 172.9149 273.62639 167.93164 266.92808 167.93164 258.82031 L 167.93164 220.74805 C 167.93164 212.64028 174.40949 206.64911 187.36523 202.77148 L 223.24219 195.36719 C 230.21836 193.60463 236.94595 190.78583 243.42383 186.9082 C 250.4 182.67807 254.13647 179.32891 254.63477 176.86133 C 258.62115 148.3079 250.40092 134.03125 229.9707 134.03125 C 213.02857 134.03125 199.07584 139.49402 188.11328 150.42188 C 181.63541 156.76708 171.91864 163.64218 158.96289 171.04492 C 146.50544 178.44766 136.78867 182.14844 129.8125 182.14844 C 118.35164 182.14844 109.13242 179.15285 102.15625 173.16016 C 95.678375 166.81495 92.439453 159.41145 92.439453 150.95117 C 92.439453 132.62058 105.89464 116.58193 132.80273 102.83398 C 156.22274 90.848595 181.13708 84.855469 207.54688 84.855469 z M 207.54688 296.36328 C 221.49922 296.36328 232.46083 299.71049 240.43359 306.4082 C 248.40636 313.81094 252.39258 321.91964 252.39258 330.73242 C 252.39258 339.54521 248.65611 347.12354 241.18164 353.46875 C 233.20887 360.16647 221.99752 363.51562 207.54688 363.51562 C 192.59793 363.51562 180.63929 360.16647 171.66992 353.46875 C 163.69715 346.06601 159.70898 338.13606 159.70898 329.67578 C 159.70898 320.86299 163.94495 312.93109 172.41602 305.88086 C 180.88708 299.53565 192.59793 296.36328 207.54688 296.36328 z "
     id="path3" /><g
     id="g5" /><g
     id="g7" /><g
     id="g9" /><g
     id="g11" /><g
     id="g13" /><g
     id="g15" /><g
     id="g17" /><g
     id="g19" /><g
     id="g21" /><g
     id="g23" /><g
     id="g25" /><g
     id="g27" /><g
     id="g29" /><g
     id="g31" /><g
     id="g33" /></svg>