<?xml version="1.0" encoding="UTF-8" standalone="no"?>
<!-- Created with Inkscape (http://www.inkscape.org/) -->

<svg
   xmlns:dc="http://purl.org/dc/elements/1.1/"
   xmlns:cc="http://creativecommons.org/ns#"
   xmlns:rdf="http://www.w3.org/1999/02/22-rdf-syntax-ns#"
   xmlns:svg="http://www.w3.org/2000/svg"
   xmlns="http://www.w3.org/2000/svg"
   xmlns:xlink="http://www.w3.org/1999/xlink"
   xmlns:sodipodi="http://sodipodi.sourceforge.net/DTD/sodipodi-0.dtd"
   xmlns:inkscape="http://www.inkscape.org/namespaces/inkscape"
   width="210mm"
   height="297mm"
   viewBox="0 0 744.09448819 1052.3622047"
   id="svg2"
   version="1.1"
   inkscape:version="0.91 r13725"
   sodipodi:docname="stamps.svg">
  <defs
     id="defs4">
    <linearGradient
       inkscape:collect="always"
       id="linearGradient4220">
      <stop
         style="stop-color:#990000;stop-opacity:1;"
         offset="0"
         id="stop4222" />
      <stop
         style="stop-color:#990000;stop-opacity:0;"
         offset="1"
         id="stop4224" />
    </linearGradient>
    <linearGradient
       inkscape:collect="always"
       xlink:href="#linearGradient4220"
       id="linearGradient4226"
       x1="385.61166"
       y1="339.00848"
       x2="19.413885"
       y2="107.01556"
       gradientUnits="userSpaceOnUse"
       gradientTransform="translate(2.121831,400.04206)" />
    <filter
       height="1"
       width="1"
       y="0"
       x="0"
       style="color-interpolation-filters:sRGB;"
       inkscape:label="Blur"
       id="filter4260">
      <feGaussianBlur
         stdDeviation="1 1"
         result="blur"
         id="feGaussianBlur4262" />
      <feColorMatrix
         values="1 0 0 0 0 0 1 0 0 0 0 0 1 0 0 0 0 0 50 0 "
         result="colormatrix"
         id="feColorMatrix4264" />
      <feComposite
         in="colormatrix"
         in2="SourceGraphic"
         operator="in"
         id="feComposite4266"
         result="fbSourceGraphic" />
      <feColorMatrix
         result="fbSourceGraphicAlpha"
         in="fbSourceGraphic"
         values="0 0 0 -1 0 0 0 0 -1 0 0 0 0 -1 0 0 0 0 1 0"
         id="feColorMatrix4284" />
      <feGaussianBlur
         id="feGaussianBlur4286"
         stdDeviation="1 1"
         result="blur"
         in="fbSourceGraphic" />
      <feColorMatrix
         id="feColorMatrix4288"
         values="1 0 0 0 0 0 1 0 0 0 0 0 1 0 0 0 0 0 50 0 "
         result="colormatrix" />
      <feComposite
         id="feComposite4290"
         in2="fbSourceGraphic"
         in="colormatrix"
         operator="in"
         result="fbSourceGraphic" />
      <feColorMatrix
         result="fbSourceGraphicAlpha"
         in="fbSourceGraphic"
         values="0 0 0 -1 0 0 0 0 -1 0 0 0 0 -1 0 0 0 0 1 0"
         id="feColorMatrix4308" />
      <feGaussianBlur
         id="feGaussianBlur4310"
         stdDeviation="1 1"
         result="blur"
         in="fbSourceGraphic" />
      <feColorMatrix
         id="feColorMatrix4312"
         values="1 0 0 0 0 0 1 0 0 0 0 0 1 0 0 0 0 0 50 0 "
         result="colormatrix" />
      <feComposite
         id="feComposite4314"
         in2="fbSourceGraphic"
         in="colormatrix"
         operator="in"
         result="fbSourceGraphic" />
      <feColorMatrix
         result="fbSourceGraphicAlpha"
         in="fbSourceGraphic"
         values="0 0 0 -1 0 0 0 0 -1 0 0 0 0 -1 0 0 0 0 1 0"
         id="feColorMatrix4332" />
      <feGaussianBlur
         id="feGaussianBlur4334"
         stdDeviation="1 1"
         result="blur"
         in="fbSourceGraphic" />
      <feColorMatrix
         id="feColorMatrix4336"
         values="1 0 0 0 0 0 1 0 0 0 0 0 1 0 0 0 0 0 50 0 "
         result="colormatrix" />
      <feComposite
         id="feComposite4338"
         in2="fbSourceGraphic"
         in="colormatrix"
         operator="in"
         result="fbSourceGraphic" />
      <feColorMatrix
         result="fbSourceGraphicAlpha"
         in="fbSourceGraphic"
         values="0 0 0 -1 0 0 0 0 -1 0 0 0 0 -1 0 0 0 0 1 0"
         id="feColorMatrix4376" />
      <feGaussianBlur
         id="feGaussianBlur4378"
         stdDeviation="0.8 0.8"
         result="blur"
         in="fbSourceGraphic" />
    </filter>
    <filter
       height="1"
       width="1"
       y="0"
       x="0"
       style="color-interpolation-filters:sRGB;"
       inkscape:label="Blur"
       id="filter4268">
      <feGaussianBlur
         stdDeviation="1 1"
         result="blur"
         id="feGaussianBlur4270" />
      <feColorMatrix
         values="1 0 0 0 0 0 1 0 0 0 0 0 1 0 0 0 0 0 50 0 "
         result="colormatrix"
         id="feColorMatrix4272" />
      <feComposite
         in="colormatrix"
         in2="SourceGraphic"
         operator="in"
         id="feComposite4274"
         result="fbSourceGraphic" />
      <feColorMatrix
         result="fbSourceGraphicAlpha"
         in="fbSourceGraphic"
         values="0 0 0 -1 0 0 0 0 -1 0 0 0 0 -1 0 0 0 0 1 0"
         id="feColorMatrix4292" />
      <feGaussianBlur
         id="feGaussianBlur4294"
         stdDeviation="1 1"
         result="blur"
         in="fbSourceGraphic" />
      <feColorMatrix
         id="feColorMatrix4296"
         values="1 0 0 0 0 0 1 0 0 0 0 0 1 0 0 0 0 0 50 0 "
         result="colormatrix" />
      <feComposite
         id="feComposite4298"
         in2="fbSourceGraphic"
         in="colormatrix"
         operator="in"
         result="fbSourceGraphic" />
      <feColorMatrix
         result="fbSourceGraphicAlpha"
         in="fbSourceGraphic"
         values="0 0 0 -1 0 0 0 0 -1 0 0 0 0 -1 0 0 0 0 1 0"
         id="feColorMatrix4316" />
      <feGaussianBlur
         id="feGaussianBlur4318"
         stdDeviation="1 1"
         result="blur"
         in="fbSourceGraphic" />
      <feColorMatrix
         id="feColorMatrix4320"
         values="1 0 0 0 0 0 1 0 0 0 0 0 1 0 0 0 0 0 50 0 "
         result="colormatrix" />
      <feComposite
         id="feComposite4322"
         in2="fbSourceGraphic"
         in="colormatrix"
         operator="in"
         result="fbSourceGraphic" />
      <feColorMatrix
         result="fbSourceGraphicAlpha"
         in="fbSourceGraphic"
         values="0 0 0 -1 0 0 0 0 -1 0 0 0 0 -1 0 0 0 0 1 0"
         id="feColorMatrix4340" />
      <feGaussianBlur
         id="feGaussianBlur4342"
         stdDeviation="1 1"
         result="blur"
         in="fbSourceGraphic" />
      <feColorMatrix
         id="feColorMatrix4344"
         values="1 0 0 0 0 0 1 0 0 0 0 0 1 0 0 0 0 0 50 0 "
         result="colormatrix" />
      <feComposite
         id="feComposite4346"
         in2="fbSourceGraphic"
         in="colormatrix"
         operator="in" />
    </filter>
    <filter
       height="1"
       width="1"
       y="0"
       x="0"
       style="color-interpolation-filters:sRGB;"
       inkscape:label="Blur"
       id="filter4276">
      <feGaussianBlur
         stdDeviation="1 1"
         result="blur"
         id="feGaussianBlur4278" />
      <feColorMatrix
         values="1 0 0 0 0 0 1 0 0 0 0 0 1 0 0 0 0 0 50 0 "
         result="colormatrix"
         id="feColorMatrix4280" />
      <feComposite
         in="colormatrix"
         in2="SourceGraphic"
         operator="in"
         id="feComposite4282"
         result="fbSourceGraphic" />
      <feColorMatrix
         result="fbSourceGraphicAlpha"
         in="fbSourceGraphic"
         values="0 0 0 -1 0 0 0 0 -1 0 0 0 0 -1 0 0 0 0 1 0"
         id="feColorMatrix4300" />
      <feGaussianBlur
         id="feGaussianBlur4302"
         stdDeviation="1 1"
         result="blur"
         in="fbSourceGraphic" />
      <feColorMatrix
         id="feColorMatrix4304"
         values="1 0 0 0 0 0 1 0 0 0 0 0 1 0 0 0 0 0 50 0 "
         result="colormatrix" />
      <feComposite
         id="feComposite4306"
         in2="fbSourceGraphic"
         in="colormatrix"
         operator="in"
         result="fbSourceGraphic" />
      <feColorMatrix
         result="fbSourceGraphicAlpha"
         in="fbSourceGraphic"
         values="0 0 0 -1 0 0 0 0 -1 0 0 0 0 -1 0 0 0 0 1 0"
         id="feColorMatrix4324" />
      <feGaussianBlur
         id="feGaussianBlur4326"
         stdDeviation="1 1"
         result="blur"
         in="fbSourceGraphic" />
      <feColorMatrix
         id="feColorMatrix4328"
         values="1 0 0 0 0 0 1 0 0 0 0 0 1 0 0 0 0 0 50 0 "
         result="colormatrix" />
      <feComposite
         id="feComposite4330"
         in2="fbSourceGraphic"
         in="colormatrix"
         operator="in"
         result="fbSourceGraphic" />
      <feColorMatrix
         result="fbSourceGraphicAlpha"
         in="fbSourceGraphic"
         values="0 0 0 -1 0 0 0 0 -1 0 0 0 0 -1 0 0 0 0 1 0"
         id="feColorMatrix4348" />
      <feGaussianBlur
         id="feGaussianBlur4350"
         stdDeviation="1 1"
         result="blur"
         in="fbSourceGraphic" />
      <feColorMatrix
         id="feColorMatrix4352"
         values="1 0 0 0 0 0 1 0 0 0 0 0 1 0 0 0 0 0 50 0 "
         result="colormatrix" />
      <feComposite
         id="feComposite4354"
         in2="fbSourceGraphic"
         in="colormatrix"
         operator="in" />
    </filter>
    <filter
       style="color-interpolation-filters:sRGB;"
       inkscape:label="Blur"
       id="filter4597">
      <feGaussianBlur
         stdDeviation="0.8 0.8"
         result="blur"
         id="feGaussianBlur4599" />
    </filter>
  </defs>
  <sodipodi:namedview
     id="base"
     pagecolor="#ffffff"
     bordercolor="#666666"
     borderopacity="1.0"
     inkscape:pageopacity="0.0"
     inkscape:pageshadow="2"
     inkscape:zoom="0.45254834"
     inkscape:cx="350.189"
     inkscape:cy="258.18472"
     inkscape:document-units="px"
     inkscape:current-layer="layer1"
     showgrid="false"
     inkscape:window-width="960"
     inkscape:window-height="1079"
     inkscape:window-x="960"
     inkscape:window-y="0"
     inkscape:window-maximized="0" />
  <metadata
     id="metadata7">
    <rdf:RDF>
      <cc:Work
         rdf:about="">
        <dc:format>image/svg+xml</dc:format>
        <dc:type
           rdf:resource="http://purl.org/dc/dcmitype/StillImage" />
        <dc:title />
      </cc:Work>
    </rdf:RDF>
  </metadata>
  <g
     inkscape:label="Layer 1"
     inkscape:groupmode="layer"
     id="layer1">
    <path
       style="color:#000000;font-style:normal;font-variant:normal;font-weight:normal;font-stretch:normal;font-size:medium;line-height:normal;font-family:sans-serif;text-indent:0;text-align:start;text-decoration:none;text-decoration-line:none;text-decoration-style:solid;text-decoration-color:#000000;letter-spacing:normal;word-spacing:normal;text-transform:none;direction:ltr;block-progression:tb;writing-mode:lr-tb;baseline-shift:baseline;text-anchor:start;white-space:normal;clip-rule:nonzero;display:inline;overflow:visible;visibility:visible;opacity:1;isolation:auto;mix-blend-mode:normal;color-interpolation:sRGB;color-interpolation-filters:linearRGB;solid-color:#000000;solid-opacity:1;fill:url(#linearGradient4226);fill-opacity:1;fill-rule:nonzero;stroke:none;stroke-width:2;stroke-linecap:round;stroke-linejoin:miter;stroke-miterlimit:4;stroke-dasharray:none;stroke-dashoffset:0;stroke-opacity:1;filter:url(#filter4260);color-rendering:auto;image-rendering:auto;shape-rendering:auto;text-rendering:auto;enable-background:accumulate"
       d="m 156.69605,615.00886 c -0.80896,2.96142 3.01503,-0.98311 0,0 z m 2.59375,0 c -5.46598,1.74948 -0.87792,11.41601 -2.59375,10.72461 0.42263,3.26094 -0.19617,5.61446 0,10.5804 0,15.31044 0,30.62087 0,45.93131 3.96761,-1.70762 1.1599,-7.81878 2,-11.55908 0,-16.79737 0,-33.59473 0,-50.39209 -4.08453,-0.37544 5.60382,-6.82664 4.26562,-3.28515 14.55534,0 29.11068,0 43.66602,0 -1.43726,-3.99335 -7.71859,-1.1427 -11.37549,-2 -11.98747,0 -23.97493,0 -35.9624,0 z m 47.9375,0 c 0.003,4.03954 7.28667,1.11163 10.58252,2 18.72705,0 37.4541,0 56.18115,0 0.1742,-3.992 -6.39555,-1.14142 -9.46723,-2 -19.09882,0 -38.19763,0 -57.29644,0 z m 67.64844,0 c 0.0933,4.01876 6.93288,1.12475 10.11862,2 10.69939,0 21.39878,0 32.09817,0 0.0892,-0.70146 7.20833,0.46845 11.0405,0 9.9474,-0.0144 19.95223,0.0287 29.8638,-0.0215 -0.20307,-4.00532 -7.33698,-1.09348 -10.6665,-1.97851 -24.15153,0 -48.30306,0 -72.45459,0 z m 89.82421,0 c -4.59549,3.65334 5.60548,1.36464 8.21043,2 2.98957,0.67085 11.95517,-0.43958 5.434,-2 -4.01557,0.20806 -9.78731,-0.41383 -12.71864,0.30664 -0.62207,1.52659 -1.60458,0.0157 -0.92579,-0.30664 z m 23.50782,0 c -6.88434,3.43378 4.13884,1.49919 7.0405,2 6.00213,0 12.00425,0 18.00637,0 0,17.19336 0,34.38672 0,51.58008 3.70269,-2.76372 1.33214,-8.04836 2,-12.07176 0,-7.3576 0,-14.71519 0,-22.07278 -2.36248,1.97905 1.34741,-8.00047 0,-11.60685 -0.71314,-2.88443 2.11101,-9.30614 -2.964,-7.82869 -4.29736,0.0657 -3.03207,1.747 -6.00776,0 -6.02504,0 -12.05007,0 -18.07511,0 z m -220.14649,12.91797 c 0.21798,4.03413 0.0175,5.60039 0,10.22778 0,36.28344 0,72.56689 0,108.85034 21.75651,0 43.51302,0 65.26953,0 -1.14822,-5.19308 -7.16879,-2.22366 -11.04145,-3 -17.07603,0 -34.15205,0 -51.22808,0 0,-21.76888 0,-43.53776 0,-65.30664 -3.29686,7.65972 1.54565,-4.86964 0,-8.70741 0,-4.03243 0,-8.06485 0,-12.09728 -2.62026,4.82214 1.12036,-8.50587 0,-12.49938 0,-4.82247 0,-9.64494 0,-14.46741 3.8763,0 7.75261,0 11.62891,0 5.20624,-4.64113 -4.55996,-2.56937 -7.31584,-3 -2.43769,0 -4.87538,0 -7.31307,0 z m 16.40821,0 c -3.16829,5.15835 5.05872,2.23393 9.02878,3 30.43507,0 60.87013,0 91.3052,0 1.84723,-5.459 -5.76696,-2.05972 -9.18012,-3 -30.38462,0 -60.76924,0 -91.15386,0 z m 101.91406,0 c -2.49314,5.51261 5.81024,2.0311 8.89301,3 6.27206,-1.87809 -1.84079,-4.15235 -5.35919,-3 -1.17794,0 -2.35588,0 -3.53382,0 z m 13.54687,0 c -0.43775,5.35025 6.51566,2.12694 9.93599,3 5.76273,1.91753 6.90151,-4.72584 0.6009,-3 -3.51229,0 -7.02459,0 -10.53689,0 z m 23.22266,0 c -0.85751,5.45792 6.75489,2.05923 10.21433,3 22.50668,0 45.01336,0 67.52004,0 0,22.09831 0,44.19661 0,66.29492 1.29406,-2.3952 -2.07155,13.90821 2.01563,4.26758 0.40905,3.76813 -4.13005,10.72274 0.98437,5.19721 0,-26.25324 0,-52.50647 0,-78.75971 -5.62643,0.15936 -6.45095,0.35218 -11.8635,0 -22.95695,0 -45.91391,0 -68.87087,0 z m -154.37305,6.0039 c 0.39379,0.25413 -0.52299,0.54596 0,0 z m 16.36524,10.38477 c 0,15.77083 0,31.54167 0,47.3125 0.80041,-0.27723 0.50187,-8.02949 6.42383,-7.85547 2.07607,4.50508 -10.80214,9.98034 -4.41797,8.42578 -3.69355,3.51292 -1.34849,9.16166 -2.00586,13.74759 0,8.22411 0,16.44822 0,24.67233 7.24021,3.75261 8.9457,-14.49304 7.71685,-1.93023 1.94415,5.97456 3.53835,-2.55033 2.6601,-5.77618 0,-8.14344 0,-16.28687 0,-24.43031 -2.32658,4.00252 1.36027,-6.17355 0,-9.01991 7.44554,-0.13571 15.14302,-0.0195 22.68555,-0.0582 3.64834,-1.45964 0.10706,-3.56163 -2.36524,-1.10547 4.36445,-4.39381 11.11629,-10.6413 1.10224,-8.72266 -7.14085,0 -14.2817,0 -21.42255,0 0,-8.47786 0,-16.95573 0,-25.43359 6.62891,0 13.25781,0 19.88672,0 6.1616,-6.34353 4.18443,-3.84206 3.29888,0 3.30181,-0.40229 8.20905,0.80086 10.51948,-0.5928 -0.89314,-2.77745 1.96746,-9.30864 -1.7784,-9.23337 -5.12751,0.0429 -10.49342,-0.84294 -14.73509,2.92124 -4.25636,2.77332 3.46702,-5.0503 -3.08433,-2.92124 -8.16141,0 -16.32281,0 -24.48421,0 z m 34.49414,44.73633 c -0.55763,0.60972 1.08139,0.414 0,0 z m 36.2539,-44.73633 c -1.96253,4.37993 -1.65682,6.77533 -1.71679,11.43554 -2.7857,4.42786 -5.23489,7.33927 -6.52618,12.8535 -7.01471,20.67123 -14.02942,41.34246 -21.04413,62.01369 7.32135,2.00367 8.40606,-3.26516 8.54988,-9.69745 -0.1761,-1.93414 0.88379,17.04916 3.64403,5.74015 1.8937,-6.00186 3.78739,-12.00373 5.68109,-18.00559 -3.22761,-5.20498 2.09954,-12.33535 1.55078,-3.19531 -0.74949,5.41137 6.16234,2.11825 9.68598,3.01758 4.44192,0 8.88383,0 13.32574,0 -2.52861,-4.12076 2.88878,2.21397 7.19368,0 4.63213,-1.23618 3.72185,5.08828 5.37596,7.91454 1.49632,4.74203 2.99263,9.48405 4.48895,14.22608 4.49197,0.31638 7.06091,0.43081 5.79302,-3.74795 1.99949,-2.4399 3.24313,7.63957 4.61764,2.62501 -1.92335,-5.67842 -3.84669,-11.35684 -5.77004,-17.03526 -5.52054,3.07056 -3.01723,0.91427 -0.45613,-1.34455 -2.52344,0.10336 -4.69271,1.1805 -4.05785,-4.39788 2.81107,-4.09407 -0.97149,-8.44518 -1.76043,-12.77687 -5.60319,-16.54174 -11.20638,-33.08349 -16.80957,-49.62523 -3.92188,0 -7.84375,0 -11.76563,0 z m -4.83593,15.6914 c -0.49459,-0.68877 -0.86856,0.80229 0,0 z m 56.98437,-15.6914 c -0.54059,1.9848 2.68946,-0.90438 0,0 z m 7.58203,0 c -8.05595,-0.61014 -8.19008,4.92216 -7.58203,10.95255 0.0247,22.51019 -0.0495,45.14874 0.0371,67.5787 -1.63424,8.21107 3.73739,8.42923 9.89592,7.77148 1.04059,-2.66485 0.1485,-7.26236 0.44588,-10.67041 0,-19.6626 0,-39.32519 0,-58.98779 -0.4522,-1.09133 0.31834,-6.98464 0,-10.20356 -0.99224,-2.78812 2.0716,-6.80588 -2.3712,-6.44097 l -0.42568,0 z m 26.66016,0 c -5.40497,-0.10173 -2.48457,5.89819 -3.20899,9.27186 0,5.22904 0,10.45808 0,15.68712 7.06847,-1.97612 -6.03446,6.52091 3.42969,3.04492 -4.47726,0.24212 -4.2084,8.86349 -2.27943,8.13571 7.19512,-4.22771 0.8764,2.02535 -1.15026,4.2706 1.3275,1.3619 7.33529,-6.1553 5.86329,1.71088 -5.14705,-0.25549 -6.75764,0.76239 -5.86329,6.17801 0,12.66788 0,25.33575 0,38.00363 15.91016,0 31.82031,0 47.73047,0 -0.7306,-2.94064 1.50268,-8.84516 -1.1856,-9.82812 -12.05597,0 -24.11194,0 -36.16791,0 0,-20.54492 0,-41.08985 0,-61.63477 -1.15883,-1.12481 1.93219,-8.17601 -2.43728,-8.70511 0.53563,-5.04098 3.29561,-7.14237 -3.73487,-6.13473 l -0.5928,0 -0.40302,0 z m 60.74219,5.65429 c -0.39502,3.32089 -1.95378,2.00267 0,0 z m -138.46094,0.041 c 0.31016,4.40084 -1.40132,4.30061 0,0 z m -50.71094,0.7168 c -0.24149,0.62804 -1.06625,0.48542 0,0 z m 47.89649,5.08984 c 4.70963,14.31641 9.41927,28.63281 14.1289,42.94922 -9.40234,0 -18.80469,0 -28.20703,0 4.69271,-14.31641 9.38542,-28.63281 14.07813,-42.94922 z m -92.02149,7.03125 c -0.91773,1.9475 -0.86915,-0.27532 0,0 z m 25.64258,2.80078 c -1.33255,4.62122 -9.09088,12.09743 -3.23059,3.67258 0.6966,-1.53868 2.11867,-2.48088 3.23059,-3.67258 z m 56.79297,2.70117 c 1.2297,2.82478 -2.33107,3.17877 0,0 z m 58.52344,3.5918 c 3.93547,2.40394 -3.40461,9.32567 -0.31233,1.68498 l 0.31233,-1.68498 z m 1.77343,0.7168 c 1.34998,-0.0837 -0.86402,2.41386 0,0 z m 102.79297,1.79883 c -5.38952,2.95581 0.67269,10.43232 0,1.81624 0,-0.60542 0,-1.21083 0,-1.81624 z m -162.36523,2.4746 c 0.24003,5.29842 -1.4744,2.4307 0,0 z m -28.16406,2.64258 c 0.79167,4.51364 -5.69561,12.5411 1.21289,9.23533 -0.74403,-2.49591 1.53189,-8.87277 -1.21289,-9.23533 z m 190.52929,2.00586 c -5.4427,3.03243 0.49557,8.37533 0,0 z m -170.62304,0.69922 c 2.08701,8.14855 -4.3766,7.76951 0,0 z m -85.93555,1.85547 c -5.55469,3.56201 0.93706,6.34348 0,0 z m 155.42187,0.55078 c 0.97621,0.4482 -0.78347,1.549 0,0 z m -155.42187,2.76367 c -3.67804,2.12018 -1.26922,5.45976 -2,10.04425 0,4.49567 0,8.99133 0,13.487 3.76935,-2.50973 1.28944,-7.88264 2,-11.79636 0,-3.91163 0,-7.82326 0,-11.73489 z m 156.14062,0.95118 c 1.50985,4.64546 -1.83998,2.32003 0,0 z m 100.41797,0.27343 c -3.99384,1.43126 -1.14237,7.71647 -2,11.37158 -0.96005,7.11906 4.87642,-2.43127 0.375,-1.15087 3.05789,-2.38998 1.05093,-6.86638 1.625,-10.22071 z m -169.87109,1.08789 c 3.00308,7.73252 -5.8623,1.68979 0,0 z m 70.92187,8.94922 c -1.36836,3.27138 -2.17759,-1.35049 0,0 z m 0.75782,3.96485 c -1.5315,4.85859 -2.95331,-1.34399 0,0 z m 0.45703,5.91015 c 0.18235,3.12791 -3.59779,1.15021 0,0 z m 86.36718,0.48242 c -1.69213,7.60016 -3.74478,7.8319 -3,15.27963 0,6.55197 0,13.10395 0,19.65592 -14.52913,0.10259 -29.33722,-0.2045 -43.69335,0.15234 -2.26344,-0.35684 -7.13062,-0.0497 -10.39112,-0.15234 -24.4419,0 -48.88379,0 -73.32568,0 1.1525,5.28538 7.56435,2.16721 11.51706,3 11.952,0 23.90399,0 35.85599,0 -3.25385,-5.57032 12.18018,-1.7056 3.46289,0 5.60221,0 11.20443,0 16.80664,0 -0.17644,-2.06798 5.56321,-0.52616 3.35842,0 19.66197,-0.0253 39.53401,0.0153 59.40915,0 0,-12.64518 0,-25.29037 0,-37.93555 z m 9.36719,1.72657 c 0,6.62174 0,13.24349 0,19.86523 1.89102,2.90174 -0.96005,2.88642 0,7.99832 0,6.42178 0,12.84357 0,19.26535 -18.38216,0 -36.76432,0 -55.14648,0 -1.99326,0.7557 -6.85188,-0.51407 -10.39006,0 -40.43769,0 -80.87538,0 -121.31307,0 0.55403,4.03676 7.4399,1.11351 10.85987,2 10.98487,0 21.96973,0 32.95459,0 -1.28777,-1.0616 6.53927,0.68146 10.25043,0 16.80259,0 33.60518,0 50.40777,0 3.00656,-2.31307 6.3079,1.3417 11.22304,0 23.66003,0 47.32005,0 70.98008,0 3.89839,-2.44832 1.45454,-5.61921 2.17383,-10.50619 0,-12.48947 0,-24.97895 0,-37.46842 -1.37703,3.61666 -1.89343,0.55312 -2,-1.15429 z m -94.84179,1.08593 c 0.26863,5.30249 -4.09376,1.83633 0,0 z m -27.84375,2.57618 c 3.33939,2.00149 -7.55885,5.303 -1.64672,0.84959 l 1.64672,-0.84959 z m 27.38476,1.14453 c -0.0262,0.4751 -1.48731,0.47808 0,0 z m -159.25781,1.4082 c -3.60399,4.33968 -1.39506,10.36793 -2,15.58359 0,9.11015 0,18.22031 0,27.33047 19.73989,-0.10168 39.69059,0.20328 59.29883,-0.15234 2.6477,0.33106 7.20017,0.0689 10.58398,0.15234 -1.41851,-4.10961 -7.48116,-1.06879 -10.96628,-2 -18.35499,0 -36.70998,0 -55.06497,0 -3.02299,1.22978 -1.50864,-5.53152 -1.85156,-8.29921 0,-10.87162 0,-21.74323 0,-32.61485 z m 187.5,2.11523 c 2.25841,3.44478 1.27825,15.94973 -0.16331,7.82018 0.18846,-2.60233 0.15104,-5.21312 0.16331,-7.82018 z m 24.96484,3.10938 c 6.24625,-1.67796 2.1847,13.12222 1.28231,3.76329 l -0.64096,-1.88219 -0.64135,-1.8811 z m -81.18164,0.42383 c -0.84185,2.03303 -2.03241,-0.36201 0,0 z m -54.19336,21.3457 c 2.06783,5.04967 8.01097,2.31352 12.29441,3 8.77361,0 17.54722,0 26.32083,0 -1.42102,-4.67251 -5.82521,-2.52807 -10.45647,-3 -9.38626,0 -18.77251,0 -28.15877,0 z m 93.92188,14.48047 c -0.65193,0.89854 -4.4037,2.11837 0,0 z"
       id="rect4155"
       inkscape:connector-curvature="0"
       transform="matrix(0.99070358,-0.13603831,0.13603831,0.99070358,-65.15481,-378.98863)" />
    <g
       transform="scale(0.94277301,1.0607007)"
       style="font-style:normal;font-weight:normal;font-size:111.61003876px;line-height:0%;font-family:sans-serif;letter-spacing:0px;word-spacing:0px;fill:#000000;fill-opacity:1;stroke:none;stroke-width:1px;stroke-linecap:butt;stroke-linejoin:miter;stroke-opacity:1;filter:url(#filter4268)"
       id="text4172" />
    <g
       style="font-style:normal;font-weight:normal;font-size:40px;line-height:0%;font-family:sans-serif;letter-spacing:0px;word-spacing:0px;fill:#000000;fill-opacity:1;stroke:none;stroke-width:1px;stroke-linecap:butt;stroke-linejoin:miter;stroke-opacity:1;filter:url(#filter4276)"
       id="text4198" />
    <path
       style="color:#000000;font-style:normal;font-variant:normal;font-weight:normal;font-stretch:normal;font-size:medium;line-height:normal;font-family:sans-serif;text-indent:0;text-align:start;text-decoration:none;text-decoration-line:none;text-decoration-style:solid;text-decoration-color:#000000;letter-spacing:normal;word-spacing:normal;text-transform:none;direction:ltr;block-progression:tb;writing-mode:lr-tb;baseline-shift:baseline;text-anchor:start;white-space:normal;clip-rule:nonzero;display:inline;overflow:visible;visibility:visible;opacity:1;isolation:auto;mix-blend-mode:normal;color-interpolation:sRGB;color-interpolation-filters:linearRGB;solid-color:#000000;solid-opacity:1;fill:#009900;fill-opacity:1;fill-rule:nonzero;stroke:none;stroke-width:2;stroke-linecap:round;stroke-linejoin:miter;stroke-miterlimit:4;stroke-dasharray:none;stroke-dashoffset:0;stroke-opacity:1;filter:url(#filter4597);color-rendering:auto;image-rendering:auto;shape-rendering:auto;text-rendering:auto;enable-background:accumulate"
       d="m 190.14453,195.66016 c -0.32688,0.13995 -0.65199,0.28318 -0.98047,0.41992 -0.99012,0.39687 -1.95719,0.85118 -2.95117,1.23828 -0.32603,0.12697 -0.65766,0.23813 -0.99023,0.34766 l 0,21.65234 c 0.13213,-0.0709 0.26501,-0.14195 0.39648,-0.21289 0.19323,0.074 0.39139,0.1251 0.59961,0.11328 0.34471,-0.0196 0.67708,-0.10657 1.00391,-0.2168 l 0,-21.34179 39.59961,0 c 0.17097,-0.0951 0.34229,-0.19032 0.51367,-0.28516 0.003,0.095 0.006,0.19012 0.01,0.28516 l 61.04883,0 c 0.006,-0.0319 0.0116,-0.0638 0.0176,-0.0957 0.28453,-0.63233 0.55965,-1.26918 0.83789,-1.90429 l -20.60742,0 c -0.0967,0.13648 -0.1929,0.2733 -0.28906,0.41015 0.0476,-0.13664 0.092,-0.27433 0.14257,-0.41015 l -6.92773,0 c -0.0869,0.15071 -0.16559,0.26487 -0.25586,0.42773 -0.0485,0.0874 -0.0857,0.17785 -0.13281,0.26563 -0.54793,0.20375 -1.10948,0.41381 -1.52735,0.59179 -0.17316,-0.43148 -0.34642,-0.86193 -0.53125,-1.28515 l -64.63476,0 c -0.028,0.0144 -0.0561,0.0285 -0.084,0.043 0.0247,-0.0144 0.0496,-0.0285 0.0742,-0.043 l -4.33203,0 z m 104.95703,0 c -0.52715,0.40662 -1.03951,0.80293 -1.70117,1.27734 -1.18119,0.31052 -2.01206,0.53508 -2.41211,0.72266 l 14.09375,0 c 0.27135,-0.59523 0.54321,-1.19083 0.82031,-1.78321 0.0474,-0.0722 0.0953,-0.14461 0.14258,-0.21679 l -10.94336,0 z m 13.71875,0 c -0.1499,0.41025 -0.30304,0.81884 -0.44531,1.23242 -0.27635,0.23862 -0.56928,0.49698 -0.86914,0.76758 l 134.98047,0 0,12.74023 c 0.29907,-0.76055 0.5983,-1.52121 0.91406,-2.27539 0.82535,-2.01006 0.83495,-2.02959 1.08594,-2.64258 l 0,-9.82226 -36.65625,0 c 0.006,0.17711 0.0161,0.35412 0.0215,0.53125 -0.19489,0.0795 -0.38888,0.16119 -0.58398,0.24023 0.0792,-0.25738 0.15856,-0.51395 0.23828,-0.77148 l -72.77148,0 c -0.0204,0.0981 -0.0337,0.19778 -0.0586,0.29492 -0.78586,0.32086 -1.56154,0.66624 -2.34375,0.99609 0.0675,-0.43057 0.13132,-0.86167 0.20703,-1.29101 l -23.71875,0 z m -111.73047,12.7832 0,1.5 0,27.04687 c 0.10638,0.0755 0.2077,0.15355 0.28125,0.25977 0.44757,0.64634 0.70551,2.0884 0.78321,2.75391 0.10965,0.93952 0.0922,1.80908 -0.0117,2.65234 -0.35071,0.20391 -0.7035,0.4052 -1.05274,0.61133 l 0,39.33789 c 0.0417,-0.27768 0.0689,-0.54519 0.0879,-0.80664 0.58721,-0.88458 1.17984,-1.76492 1.75977,-2.6543 0.38678,-0.62678 0.76745,-1.25577 1.15234,-1.88281 l 0,-8.60547 c -0.17171,0.0826 -0.34384,0.16366 -0.51562,0.24609 0.1758,-0.38932 0.34365,-0.78255 0.51562,-1.17382 l 0,-36.26368 c -0.10495,0.0487 -0.25512,0.10869 -0.32812,0.14844 -0.59284,0.32281 -1.17632,0.65875 -1.76563,0.98633 0.69945,-2.56137 1.39818,-5.12304 2.09375,-7.68555 l 0,-13.4707 40.97266,0 c -0.53289,-0.27628 -1.06363,-0.55585 -1.59766,-0.83008 0.0283,-0.001 0.0557,0.004 0.0859,-0.006 1.98177,-0.65147 3.52333,-1.10383 4.82617,-1.50195 0.46218,0.77478 0.92024,1.55156 1.36133,2.33789 l 92.57227,0 c 0.0855,-0.12662 0.17229,-0.2523 0.25781,-0.37891 0.005,0.12631 0.0192,0.25256 0.0273,0.37891 l 61.08789,0 c 1.14687,-0.63986 2.29257,-1.28228 3.46289,-1.86524 0.22043,-0.37036 0.39931,-0.7499 0.5625,-1.13476 l -26.2207,0 c -0.92963,0.20391 -1.87353,0.41952 -2.82812,0.6543 0.0622,-0.053 0.13382,-0.12293 0.22656,-0.23438 0.59105,-0.15277 1.06665,-0.28446 1.56445,-0.41992 l -138.66015,0 c 0.27146,0.40317 0.53717,0.81152 0.83984,1.19141 0.18278,0.22941 0.3444,0.61874 0.55078,0.83203 -0.96131,-0.49273 -1.92298,-0.9845 -2.88867,-1.46875 -9.8e-4,-0.18497 3e-5,-0.36972 -0.002,-0.55469 l -39.20118,0 z m 211.05664,0 c 0.0138,0.49425 0.0348,0.98824 0.0508,1.48242 -0.31147,0.34118 -0.63799,0.70122 -0.95508,1.07227 -0.15722,0.13516 -0.30019,0.28664 -0.43555,0.44531 l 22.8125,0 0,112.51172 -63.37305,0 c -0.006,0.053 -0.007,0.10698 -0.0117,0.16015 -0.25845,0.29325 -0.46495,0.5896 -0.62891,0.88672 -1.9182,0.0316 -3.88369,0.64284 -5.60156,1.66993 -0.21644,-0.90833 -0.44091,-1.81385 -0.67774,-2.7168 l -85.04492,0 c 0.006,0.3971 0.01,0.7943 0.0156,1.1914 -0.0434,-0.0986 -0.0774,-0.21701 -0.12305,-0.31054 -0.15489,-0.31755 -0.36662,-0.60145 -0.58594,-0.88086 l -1.50586,0 c -1.30215,0.73762 -2.61642,1.45897 -3.92187,2.1914 -0.48329,-0.73892 -0.98155,-1.46961 -1.4961,-2.1914 l -66.57422,0 0,-29.37305 c -0.0892,0.59772 -0.20939,1.1865 -0.35351,1.76758 -0.76063,0.30157 -1.52146,0.60952 -2.23828,0.93164 0.95848,-1.34165 1.84502,-2.73037 2.59179,-4.1875 l 0,-10.66211 c -1.09774,0.40777 -2.09644,0.78757 -3,1.15625 l 0,43.36719 233.22852,0 c 1.3e-4,-0.001 -1.3e-4,-0.003 0,-0.004 0.76704,-0.16844 1.5339,-0.33868 2.30078,-0.50781 l 0,-118 -24.47266,0 z m -167.2871,0.80469 c -0.0929,0.21239 -0.19278,0.39753 -0.30469,0.50976 -0.18654,0.18711 -1.00085,0.29041 -0.7793,0.14649 0.354,-0.22995 0.72222,-0.43817 1.08399,-0.65625 z m 201.62695,6.80859 0,94.62305 c 0.0565,-0.10257 0.10976,-0.21263 0.16406,-0.32031 0.31813,-0.19382 0.63528,-0.38957 0.94727,-0.59376 0.25615,-0.16763 0.57942,-0.91368 0.88867,-1.72851 l 0,-84.26563 c -0.0228,-0.006 -0.0456,-0.0116 -0.0684,-0.0176 -0.13866,-0.6996 -0.26982,-1.38484 -0.44141,-2.15625 -0.32682,-1.4693 -0.76546,-2.90957 -1.14844,-4.36524 -0.12506,-0.38747 -0.23136,-0.78262 -0.34179,-1.17578 z m -255.26367,2.94922 c -0.66973,0.35782 -1.33347,0.72794 -2,1.0918 l 0,2.72656 c 0.23313,-0.0687 0.46761,-0.13402 0.69922,-0.20703 0.43362,-0.15552 0.86579,-0.31491 1.30078,-0.4668 l 0,-3.14453 z m 0,3.3418 c -0.66561,0.3025 -1.33324,0.59848 -2,0.89843 l 0,2.77735 c 0.41653,-0.158 0.82588,-0.31121 1.26562,-0.44336 -0.42216,0.43471 -0.84468,0.86878 -1.26562,1.30469 l 0,12.35546 c 0.0901,0.146 0.19341,0.39318 0.31054,0.75196 -0.10374,0.0653 -0.20686,0.13188 -0.31054,0.19726 l 0,0.40821 c 0.0884,-0.0452 0.18903,-0.105 0.27539,-0.14844 0.13891,-0.0699 -0.0305,0.0251 -0.27539,0.17773 l 0,1.76563 c 0.0194,-0.0118 0.0432,-0.0273 0.0625,-0.0391 -0.0219,0.0742 -0.041,0.14474 -0.0625,0.21875 l 0,51.86718 c 0.12626,-0.0564 0.29689,-0.12941 0.42773,-0.1875 -0.13924,0.3179 -0.28547,0.63261 -0.42773,0.94922 l 0,44.53711 62.49414,0 c 0.0246,-0.0779 0.0464,-0.15635 0.0703,-0.23437 0.0322,0.0783 0.0654,0.15604 0.0977,0.23437 l 34.92773,0 c 0.009,-0.23054 0.0215,-0.46079 0.0293,-0.6914 0.38988,-0.0947 0.79312,-0.19806 1.14258,-0.28321 0.0539,0.32455 0.10684,0.64966 0.1582,0.97461 l 37.10742,0 c -0.1005,-0.66783 -0.1973,-1.33357 -0.29688,-2 l -133.73046,0 0,-115.39062 z m 151.58203,0.93945 c -0.14448,0 -0.28455,0.006 -0.42774,0.008 -0.48884,0.60272 -0.97638,1.20747 -1.46679,1.8086 -0.59136,0.75993 -1.17897,1.52523 -1.76954,2.2871 -0.90867,-0.48427 -2.53274,0.0996 -4.24414,1.04493 -0.34417,-1.2074 -0.68357,-2.41609 -1.02929,-3.62305 -2.73054,1.04916 -5.09191,2.6417 -7.08594,4.77734 0.39122,1.28911 0.77756,2.58072 1.1582,3.87305 -0.33982,0.42989 -0.61149,0.93552 -0.94531,1.36914 -0.68268,0.88677 -1.34527,1.78893 -2.01758,2.68359 -0.37941,0.56616 -0.75473,1.13576 -1.13281,1.70313 -0.0218,0.0155 -0.0446,0.0294 -0.0664,0.0449 -0.39766,0.28269 -1.76805,2.38331 -2.82226,4.03321 -0.16312,1.41163 -0.26563,2.87241 -0.26563,4.41796 0,6.53718 1.42205,11.64055 4.26367,15.31055 2.84164,3.67 7.44036,6.36563 13.79883,8.08594 l 5.19141,1.37695 c 4.33277,1.1851 7.44113,2.96183 9.32617,5.33203 1.91317,2.37021 2.87111,5.65808 2.87109,9.86328 0,4.81687 -1.32212,8.52542 -3.96679,11.125 -2.64468,2.59958 -6.40221,3.89844 -11.26953,3.89844 -3.20738,0 -6.47111,-0.66784 -9.79102,-2.00586 -1.7925,-0.72243 -3.60616,-1.65031 -5.43945,-2.75195 0.0312,0.12564 0.0627,0.25127 0.0937,0.37695 -0.10304,0.0923 -0.17822,0.16583 -0.28711,0.26172 -0.069,-0.29829 -0.14629,-0.59597 -0.21289,-0.89453 -1.4297,-0.8794 -2.86949,-1.84818 -4.32422,-2.95703 l 0,11.92773 c 3.60126,1.79677 7.07578,3.15476 10.42383,4.07227 3.37617,0.9175 6.55481,1.375 9.53711,1.375 2.22206,0 4.28719,-0.1755 6.20703,-0.51367 -0.0268,-0.12811 -0.0494,-0.21105 -0.0781,-0.33594 2.48255,-1.02566 5.71451,-1.88834 7.66602,-3.65234 0.0823,0.40021 0.1623,0.80085 0.24414,1.20117 1.46541,-0.87004 2.78206,-1.90636 3.93945,-3.1211 4.10768,-4.28166 6.16211,-10.56951 6.16211,-18.86523 0,-6.9577 -1.52003,-12.50212 -4.55859,-16.63086 -1.19804,-1.65831 -2.67222,-3.10838 -4.40039,-4.36719 -0.36185,0.2726 -0.71557,0.55663 -1.05664,0.85742 -0.1833,0.16165 -0.26647,0.37027 -0.29688,0.60352 -0.032,-0.21878 -0.0917,-0.37718 -0.24609,-0.30273 -0.17804,0.0858 -0.29516,0.13155 -0.4668,0.21289 -0.0211,-0.91108 -0.0468,-1.82127 -0.0586,-2.73243 -2.17857,-1.24538 -4.67482,-2.25082 -7.52735,-2.98828 l -5.14843,-1.43359 c -4.67038,-1.1851 -7.84902,-2.73308 -9.53711,-4.64453 -1.65996,-1.94968 -2.49024,-4.81688 -2.49024,-8.60156 0,-4.51105 1.25186,-7.98888 3.75586,-10.43555 2.28763,-2.21041 5.44516,-3.41352 9.45508,-3.62695 -0.017,-0.0728 -0.0376,-0.13906 -0.0527,-0.2168 0.13264,-0.21486 0.26972,-0.42655 0.40039,-0.64258 0.36759,-0.60774 0.83884,-1.1861 1.01171,-1.875 0.0757,-0.30168 -0.21496,-0.58501 -0.32226,-0.87695 -0.36103,0.20311 -0.72818,0.39684 -1.0918,0.5957 1.47438,-1.94067 2.96402,-3.86037 4.45508,-5.77148 0.56127,0.31644 1.12156,0.61929 1.69141,0.91992 -0.55343,1.10993 -1.11011,2.21801 -1.65039,3.33398 -0.82182,1.69748 -1.50545,3.15316 -2.14258,4.53711 2.36609,0.11076 4.80235,0.59435 7.32031,1.5 2.86975,1.03219 5.9227,2.60053 9.1582,4.70313 l 0,-11.29688 c -3.20737,-1.4527 -6.34346,-2.54123 -9.41015,-3.26758 -3.0667,-0.72636 -6.0771,-1.08984 -9.03125,-1.08984 z m 54.86328,0 c -0.0251,0 -0.0492,0.002 -0.0742,0.002 -0.23838,1.27906 -0.60289,2.50621 -1.04883,3.70313 -0.39505,0.33964 -0.78931,0.67976 -1.17578,1.02734 -2.89296,1.42767 -5.80791,2.81178 -8.72656,4.1875 0.72969,-1.31316 1.47104,-2.62186 2.21875,-3.92969 1.0143,-1.47336 2.03553,-2.95765 3.09179,-4.41601 -3.27343,0.69943 -6.10951,2.04562 -8.50976,4.0332 -0.90258,1.32393 -1.78807,2.65793 -2.66406,3.99024 -0.77386,1.38164 -1.54039,2.76557 -2.29492,4.15429 -0.3687,0.1722 -0.73688,0.34519 -1.10547,0.51758 -0.31154,0.82574 -0.58081,1.68683 -0.8125,2.57813 0.12049,-0.0578 0.24082,-0.11604 0.36132,-0.17383 -0.21289,0.4117 -0.40938,0.82876 -0.61718,1.24218 -0.50193,2.29918 -0.75782,4.80044 -0.75782,7.51172 0,6.53718 1.42206,11.64055 4.26368,15.31055 0.51228,0.66162 1.102,1.28063 1.72851,1.87891 2.12896,-1.76683 3.70419,-3.88894 5.71485,-6.84375 -0.019,0.6317 -0.0474,1.26208 -0.041,1.89648 -0.0362,4.17282 -0.13177,4.28192 0.17773,8.27149 0.0158,0.20361 0.0351,0.43086 0.0508,0.64257 1.83167,0.87095 3.8812,1.62154 6.16796,2.24024 l 5.19141,1.37695 c 4.33277,1.1851 7.44114,2.96183 9.32617,5.33203 1.91317,2.37021 2.8711,5.65808 2.8711,9.86328 0,4.81687 -1.32408,8.52542 -3.96875,11.125 -2.64468,2.59958 -6.40026,3.89844 -11.26758,3.89844 -1.74347,0 -3.5045,-0.20456 -5.28125,-0.59961 -0.0684,0.26676 -0.13476,0.51202 -0.20508,0.7832 -0.0197,0.0761 -0.0182,0.0677 -0.0371,0.14063 -0.37618,-0.32549 -0.75849,-0.65617 -1.16016,-0.99023 -0.0307,-0.10415 -0.0611,-0.20837 -0.0918,-0.3125 -1.0004,-0.2832 -2.00482,-0.61996 -3.01563,-1.02735 -3.31991,-1.33802 -6.70933,-3.32704 -10.16992,-5.96484 l 0,9.6582 c 0.0404,0.20714 0.32497,1.65352 0.49024,2.50195 3.42526,1.67614 6.73887,2.96436 9.93359,3.83985 3.37618,0.9175 6.55482,1.375 9.53711,1.375 7.90589,0 13.89896,-2.14021 17.97851,-6.42188 4.10769,-4.28166 6.16211,-10.56951 6.16211,-18.86523 0,-6.9577 -1.52003,-12.50212 -4.55859,-16.63086 -1.1136,-1.54142 -2.45767,-2.90921 -4.0293,-4.10547 -0.18266,1.65793 -0.38699,3.31146 -0.61523,4.96289 -1.28293,0.62113 -2.52097,1.34645 -3.75391,2.08203 1.23482,-1.46889 1.8874,-3.35702 2.93555,-6.35351 0.13711,-0.4261 0.29869,-0.92581 0.44336,-1.37696 -2.49999,-1.69387 -5.49825,-3.01189 -9.0332,-3.92578 l -5.14844,-1.43359 c -4.67039,-1.1851 -7.85099,-2.73308 -9.53906,-4.64453 -1.65997,-1.94968 -2.49024,-4.81688 -2.49024,-8.60156 0,-4.51105 1.25381,-7.98888 3.75781,-10.43555 2.53214,-2.44666 6.11752,-3.66992 10.75977,-3.66992 0.98297,0 1.98443,0.0931 2.99414,0.23242 0.0305,-0.47536 0.0455,-0.94967 0.01,-1.42383 -0.0148,-0.19618 -0.0191,-0.49054 -0.0195,-0.76172 0.3368,-0.59107 0.67738,-1.18047 1.00782,-1.77539 0.54267,-1.11106 1.21613,-2.46328 1.87109,-3.91992 0.0341,-0.0415 0.0674,-0.0836 0.10156,-0.125 0.35126,-0.20034 0.6935,-0.40308 1.04102,-0.60352 -0.56387,1.78358 -1.11694,3.60887 -1.4043,4.53711 -0.43835,1.41717 -0.87699,2.84756 -1.31836,4.27149 1.32222,0.25713 2.66451,0.62365 4.03125,1.11523 1.72858,0.62173 3.53121,1.46229 5.39258,2.47266 0.46364,-1.48669 0.92697,-2.97398 1.36914,-4.4668 0.80084,-0.56729 1.60377,-1.13236 2.39649,-1.71094 l 0,-2.88867 c -0.0334,-0.0151 -0.0662,-0.0279 -0.0996,-0.043 -0.42335,0.34881 -0.84253,0.70279 -1.26954,1.04688 0.13075,-0.47421 0.26039,-0.94843 0.38672,-1.42383 -2.86495,-1.23647 -5.67589,-2.19588 -8.42773,-2.84766 -3.06669,-0.72636 -6.07709,-1.08984 -9.03125,-1.08984 z m -179.86719,1.54687 0,85.61524 6.11524,0 c -0.006,-8.02889 0.001,-16.05995 0.0898,-24.08984 0.004,0.008 0.006,0.0156 0.01,0.0234 0.0463,0.3651 0.10345,0.72846 0.14844,1.09375 0.1798,1.2253 0.33966,2.45132 0.50586,3.67774 0.0528,0.49602 0.0745,0.70973 0.13477,1.28711 0.25537,2.41289 0.58527,4.8172 0.9375,7.21679 0.20663,1.7805 0.39075,3.56513 0.58398,5.34766 l 0,-28.96289 10.71875,0 c 7.06185,0 12.39288,-2.16057 15.99414,-6.48047 3.62939,-4.31989 5.4453,-10.70371 5.44532,-19.15234 -1e-5,-0.5612 -0.0306,-1.08982 -0.0469,-1.63282 -0.7869,0.16531 -1.57423,0.32399 -2.36523,0.46875 -1.17909,-2.52308 -2.32519,-5.06191 -3.4375,-7.61523 0.2965,-0.79956 0.59199,-1.60025 0.90234,-2.39453 0.98888,-2.53087 1.41304,-3.57325 1.77344,-4.44922 -0.65635,-1.25131 -1.41144,-2.39234 -2.27149,-3.41602 -0.78459,-0.94948 -1.65665,-1.78862 -2.60547,-2.53125 -0.39942,1.43384 -0.85262,2.85298 -1.34765,4.26172 -0.39283,-0.99187 -0.77424,-1.98755 -1.1543,-2.98437 0.61082,-0.59125 1.2218,-1.1813 1.82227,-1.78321 -3.31302,-2.32928 -7.54623,-3.5 -12.70899,-3.5 l -2.26953,0 c 0.0645,0.33362 0.13535,0.69542 0.19922,1.01563 0.0473,0.26221 0.0915,0.52487 0.13867,0.78711 -1.49594,0.86125 -2.99286,1.7397 -4.49805,2.63867 -0.8122,0.48509 -1.69745,1.05146 -2.48437,1.71875 -0.29015,-1.89624 -0.61016,-3.78745 -0.95508,-5.67383 0.39118,-0.15557 0.76886,-0.31864 1.14844,-0.48633 l -10.52344,0 z m 62.83984,0 -19.42773,69.14063 c 0.41034,-0.35566 1.06728,-0.98672 1.72852,-1.62305 0.0443,-0.0155 0.10075,-0.0334 0.14453,-0.0488 0.009,0.25561 0.0177,0.51617 0.0371,0.76954 -0.7107,0.52708 -1.41507,1.06502 -2.11133,1.61914 l -2.55078,9.07617 c 0.94186,-0.58319 1.8047,-1.08317 2.52734,-1.45703 -0.47981,0.329 -0.96301,0.65428 -1.45312,0.96875 -0.24595,0.1578 -0.71463,0.43121 -1.12696,0.67773 l -0.80273,2.85742 c 0.99105,-0.60958 2.4512,-2.29864 8.38867,-5.50976 0.80373,-0.43468 1.57803,-0.91768 2.33984,-1.41797 l 2.98047,-11.40039 1.83399,0 c 1.24353,-0.88895 2.4975,-1.74613 3.76172,-2.58399 0.24147,0.60147 0.48448,1.20191 0.72656,1.80274 -0.29574,0.25859 -0.58836,0.52118 -0.88281,0.78125 l 22.96093,0 3.56055,13.62305 c 0.33311,0.19132 0.65829,0.39223 0.98828,0.58789 -0.13604,0.16414 -0.46516,0.56815 -0.63281,0.77148 l 1.42969,5.47266 c 0.86269,-1.33829 1.93548,-2.75606 2.86133,-3.9375 0.41549,0.28448 0.83502,0.5624 1.24609,0.85351 -1.28794,1.27929 -2.58968,2.54915 -3.92383,3.78711 l 0.21094,0.80469 3.67383,0 c 0.85752,-0.74324 1.7017,-1.4978 2.03125,-1.78906 0.268,-0.23687 0.53093,-0.47965 0.79882,-0.7168 0.0846,0.0661 0.1752,0.13616 0.26172,0.20312 -0.13066,0.75894 -0.22917,1.52835 -0.30273,2.30274 l 2.40039,0 -5.51563,-19.66406 c -0.0986,-0.0662 -0.20498,-0.11764 -0.30468,-0.18164 l -2.71289,-11.45508 -1.39063,1.8164 0,-0.61132 -6.42383,0 c 0.0882,-0.0306 0.24143,-0.0741 0.30664,-0.0977 2.23339,-0.80676 4.4917,-2.04146 6.64258,-3.31641 l -0.67187,-2.39257 c -0.44261,0.0713 -0.82331,0.0777 -1.0586,-0.0527 -0.20787,-0.11528 -0.33034,-0.33528 -0.47461,-0.5293 0.15198,-0.17035 0.27525,-0.35457 0.29493,-0.58007 0.009,-0.10739 -0.0235,-0.19996 -0.0723,-0.28711 0.006,-0.005 0.0117,-0.0105 0.0176,-0.0156 0.2355,-0.20493 0.4734,-0.40669 0.71094,-0.60937 l -6.72852,-23.98828 c -0.57448,0.31589 -1.1558,0.63857 -1.66992,0.92187 -0.0153,-0.33934 -0.0291,-0.64124 -0.0469,-1.03906 0.41637,-0.51561 0.83411,-1.03047 1.25196,-1.54492 l -3.00391,-10.70704 c -0.15325,-0.15273 -0.33771,-0.23959 -0.58203,-0.19726 -0.41882,0.0726 -0.81029,0.15489 -1.20117,0.23828 0.4592,-0.58924 0.85213,-1.09106 1.32031,-1.69531 l -2.70117,-9.62696 -9.66407,0 z m -45.11523,4.14649 c 0.3188,1.79066 0.63484,3.5813 0.94727,5.37305 l 0.57226,0 c 3.96701,0 7.03479,1.39482 9.20117,4.18554 2.16639,2.79073 3.24805,6.7484 3.24805,11.8711 0,5.16092 -1.08166,9.137 -3.24805,11.92773 -2.16638,2.79073 -5.23416,4.18555 -9.20117,4.18555 l -10.71875,0 0,-32.16992 9.94336,0 c -0.43518,-1.03031 -0.97496,-2.34024 -1.09375,-2.85352 -0.11861,-0.51242 -0.0884,-1.04818 -0.13281,-1.57227 0.17266,-0.30752 0.30842,-0.64067 0.48242,-0.94726 z m 155.75586,3.00195 c -0.12182,0.12619 -0.24607,0.25007 -0.36719,0.37696 -1.69834,1.0142 -3.36124,2.10227 -5.08789,3.05468 -0.5989,0.52911 -1.169,1.07963 -1.73437,1.63282 0.3399,-0.67974 0.67118,-1.36255 1.02734,-2.03711 2.05906,-0.99935 4.11531,-2.00322 6.16211,-3.02735 z m -102.56445,0.26367 c -1.02775,1.50969 -2.0691,3.01063 -3.12891,4.49805 l 11.46875,42.10938 -23.16797,0 11.25781,-41.48243 c -0.96087,1.34094 -1.93426,2.67185 -2.91601,3.99805 -0.10674,0.12504 -0.21435,0.24998 -0.31836,0.37891 -0.50682,0.2767 -1.01486,0.55116 -1.51953,0.83203 1.66674,-2.04921 3.34432,-4.09134 5.00586,-6.14258 l 0.0527,-0.19141 0.0254,0.0957 c 1.09648,-1.35463 2.17862,-2.71796 3.24024,-4.09571 z m 127.39258,3.33008 c -0.43159,0.8563 -0.85374,1.71667 -1.27344,2.57813 0.42423,0.26095 0.84272,0.50721 1.27344,0.78711 l 0,-3.36524 z m -225.8086,3.53125 c -0.045,0.13673 -0.10902,0.34497 -0.1582,0.4961 -0.14305,0.0895 -0.28482,0.18173 -0.42774,0.27148 0.19307,-0.2576 0.3918,-0.51081 0.58594,-0.76758 z m 88.58399,6.00586 c -0.0176,0.0884 -0.0269,0.18083 -0.0254,0.2793 0.002,0.15716 0.0417,0.26154 0.10156,0.33398 -1.32738,1.74383 -2.6806,3.46803 -4.02735,5.19727 0.86661,-1.67845 1.90412,-3.47508 2.76563,-4.90821 0.3868,-0.31472 0.78347,-0.6142 1.18555,-0.90234 z m 16.93945,5.83984 c -0.17143,0.11617 -0.3395,0.23611 -0.50977,0.35352 -9e-5,-0.0313 1.1e-4,-0.0625 0,-0.0937 0.1697,-0.0875 0.33893,-0.172 0.50977,-0.25977 z m 32.6582,0.61915 c -0.38655,2.86504 -0.70566,5.73557 -0.85547,8.62109 -0.37925,0.17627 -0.73621,0.35298 -1.02343,0.51367 -0.60231,0.33696 -1.19403,0.6923 -1.79297,1.03516 0.13805,-1.45052 0.3474,-2.88376 0.62304,-4.30078 0.63038,-1.26872 1.29006,-2.59482 1.40625,-2.81836 0.53268,-1.02486 1.09008,-2.03642 1.64258,-3.05078 z m 51.50196,0.47265 c -0.5082,1.05988 -0.98097,2.0983 -1.34571,3.20703 0.0504,-0.91834 0.14145,-1.82303 0.26172,-2.71875 0.3619,-0.16444 0.72381,-0.32192 1.08399,-0.48828 z m -83.02735,2.03125 c -0.55936,0.80989 -1.11488,1.62272 -1.66406,2.43945 0.005,-0.45965 0.006,-0.91922 0.01,-1.3789 0.55268,-0.35146 1.10207,-0.70837 1.6543,-1.06055 z m 6.98242,19.3711 c -0.0755,0.29495 -0.0882,0.51463 0.12891,0.45703 l -0.12891,-0.45703 z m -31.84179,6.21289 c 0.17671,0.25207 0.36042,0.49893 0.54101,0.74804 -0.25635,0.21498 -0.51331,0.42936 -0.76953,0.64453 0.0694,-0.46595 0.14848,-0.92951 0.22852,-1.39257 z m 2.29687,3.04492 c 0.48683,0.60192 0.98144,1.19609 1.49414,1.77344 0.018,0.0202 0.0291,0.0308 0.0469,0.0508 -0.31797,0.19838 -0.64003,0.38996 -0.95703,0.58984 -1.10989,0.72424 -2.21948,1.43752 -3.32618,2.15234 -0.0424,-0.63679 -0.085,-1.3308 -0.11718,-2.07031 0.93522,-0.77383 1.88628,-1.60966 2.85937,-2.49609 z m 19.87305,3.58203 6.05078,0 -0.96094,1.25391 0.5586,0.30078 c -1.0814,-0.15518 -2.1596,-0.32247 -3.21875,-0.58594 -0.83091,-0.20669 -1.63998,-0.46952 -2.4375,-0.75977 0.003,-0.0696 0.005,-0.13934 0.008,-0.20898 z m -30.32227,10.32227 c 0.0325,0.078 0.0529,0.15383 0.0879,0.23242 0.34252,0.76995 0.70856,2.20483 1.5293,2.01367 0.0287,-0.007 0.079,-0.0237 0.10938,-0.0312 -0.7539,0.59671 -1.5177,1.17831 -2.28711,1.7539 -0.23989,-0.0324 -0.5039,-0.0657 -0.87891,-0.11328 -0.0859,-1.26196 0.5278,-2.59243 1.43945,-3.85546 z m 4.41602,0.0391 c -0.22691,0.18553 -0.45429,0.36966 -0.68164,0.55468 -0.84088,0.52968 -1.347,0.82484 -0.85352,0.46485 0.49466,-0.36085 1.01134,-0.69495 1.53516,-1.01953 z m -0.0352,3.27539 c -0.0634,0.0673 -0.17975,0.17441 -0.23633,0.23633 -0.72152,0.7896 -2.99924,2.71289 -1.9414,2.55468 0.0368,-0.005 0.0631,-0.0121 0.0996,-0.0176 -0.32481,0.20848 -0.50772,0.33408 -0.24805,0.21093 0.18537,-0.0879 0.37099,-0.17616 0.55664,-0.26367 0.39515,-0.0616 0.74696,-0.12573 1.10742,-0.18945 l 0.66211,-2.53125 z m 147.72461,2.62695 c 0.0343,0.0199 0.0148,0.064 -0.041,0.1211 -0.0156,-0.0387 -0.0332,-0.0765 -0.0488,-0.11524 0.0225,0.001 0.0785,-0.0125 0.0898,-0.006 z m -19.41406,5.0918 c 0.0554,0.2314 0.11378,0.46213 0.16992,0.69336 -0.0936,-0.0746 -0.18775,-0.14795 -0.28125,-0.22266 0.0382,-0.15663 0.0726,-0.31422 0.11133,-0.4707 z m -139.60547,1.21875 -0.44727,1.58789 1.20899,0 c -0.14495,-0.32649 -0.40308,-0.86229 -0.76172,-1.58789 z m 191.45508,1.88672 c -0.67207,0.18837 -1.33897,0.3947 -2,0.62109 l 0,26.36914 -3.26953,0 c -0.60857,0.18142 -1.21723,0.36385 -1.82618,0.54492 0.22277,-0.17648 0.42901,-0.3401 0.70508,-0.54492 l -74.02539,0 c 0.205,0.66006 0.38879,1.32623 0.53321,2 l 79.88281,0 0,-23.01367 c -0.0773,-0.21779 -0.1463,-0.43833 -0.23828,-0.65039 -0.11335,-0.26131 -0.24267,-0.52046 -0.375,-0.7793 0.20408,-0.12233 0.40971,-0.2418 0.61328,-0.36523 l 0,-1.83008 c -0.0291,0.0153 -0.0588,0.0297 -0.0879,0.0449 0.0292,-0.0165 0.0587,-0.0323 0.0879,-0.0488 l 0,-2.34765 z M 221.51754,325.4141 c 0.001,-0.0277 0.0114,-0.0312 0.0351,0.004 0.008,0.0124 0.017,0.0497 0.0254,0.0644 -0.0157,0.0117 -0.0312,0.0235 -0.0469,0.0352 -0.006,-0.0408 -0.0145,-0.0831 -0.0137,-0.10352 z m 100.23437,12.32422 c 0.0678,0.66672 0.13493,1.33333 0.20313,2 l 41.52344,0 c -0.0234,-0.6665 -0.0353,-1.33294 -0.0352,-2 l -41.69141,0 z"
       id="rect4411"
       inkscape:connector-curvature="0"
       transform="matrix(0.9902257,-0.13947423,0.13947423,0.9902257,-11.402517,273.67352)" />
    <g
       transform="scale(0.85787713,1.1656681)"
       style="font-style:normal;font-weight:normal;font-size:100.74893951px;line-height:0%;font-family:sans-serif;letter-spacing:0px;word-spacing:0px;fill:#000000;fill-opacity:1;stroke:none;stroke-width:1px;stroke-linecap:butt;stroke-linejoin:miter;stroke-opacity:1"
       id="text4446" />
  </g>
</svg>
