<?xml version="1.0" encoding="UTF-8" standalone="no"?>
<!-- Generator: Adobe Illustrator 19.1.0, SVG Export Plug-In . SVG Version: 6.00 Build 0)  -->

<svg
   xmlns:dc="http://purl.org/dc/elements/1.1/"
   xmlns:cc="http://creativecommons.org/ns#"
   xmlns:rdf="http://www.w3.org/1999/02/22-rdf-syntax-ns#"
   xmlns:svg="http://www.w3.org/2000/svg"
   xmlns="http://www.w3.org/2000/svg"
   xmlns:sodipodi="http://sodipodi.sourceforge.net/DTD/sodipodi-0.dtd"
   xmlns:inkscape="http://www.inkscape.org/namespaces/inkscape"
   version="1.1"
   id="Capa_1"
   x="0px"
   y="0px"
   viewBox="0 0 488.878 488.878"
   style="enable-background:new 0 0 488.878 488.878;"
   xml:space="preserve"
   inkscape:version="0.91 r13725"
   sodipodi:docname="tick.svg"><metadata
     id="metadata73"><rdf:RDF><cc:Work
         rdf:about=""><dc:format>image/svg+xml</dc:format><dc:type
           rdf:resource="http://purl.org/dc/dcmitype/StillImage" /></cc:Work></rdf:RDF></metadata><defs
     id="defs71" /><sodipodi:namedview
     pagecolor="#ffffff"
     bordercolor="#666666"
     borderopacity="1"
     objecttolerance="10"
     gridtolerance="10"
     guidetolerance="10"
     inkscape:pageopacity="0"
     inkscape:pageshadow="2"
     inkscape:window-width="1920"
     inkscape:window-height="1079"
     id="namedview69"
     showgrid="false"
     inkscape:zoom="0.48273803"
     inkscape:cx="248.58203"
     inkscape:cy="227.86686"
     inkscape:window-x="0"
     inkscape:window-y="0"
     inkscape:window-maximized="1"
     inkscape:current-layer="Capa_1" /><g
     id="g3"><g
       id="g5"><polygon
         style="fill:#020202;"
         points="143.294,340.058 50.837,247.602 0,298.439 122.009,420.447 122.149,420.306     144.423,442.58 488.878,98.123 437.055,46.298   "
         id="polygon7" /></g><g
       id="g9" /><g
       id="g11" /><g
       id="g13" /><g
       id="g15" /><g
       id="g17" /><g
       id="g19" /><g
       id="g21" /><g
       id="g23" /><g
       id="g25" /><g
       id="g27" /><g
       id="g29" /><g
       id="g31" /><g
       id="g33" /><g
       id="g35" /><g
       id="g37" /></g><g
     id="g39" /><g
     id="g41" /><g
     id="g43" /><g
     id="g45" /><g
     id="g47" /><g
     id="g49" /><g
     id="g51" /><g
     id="g53" /><g
     id="g55" /><g
     id="g57" /><g
     id="g59" /><g
     id="g61" /><g
     id="g63" /><g
     id="g65" /><g
     id="g67" /><path
     style="fill:#009900;fill-opacity:1;stroke:none;stroke-linecap:round"
     d="M 437.5 47.867188 L 437.47656 47.890625 L 290.42969 194.92578 L 290.41797 194.9375 L 143.36133 341.98438 L 96.830078 295.48828 L 50.298828 248.99219 L 50.173828 249.12305 L 49.837891 248.78906 L 26.019531 273.49414 L 2.1992188 298.19727 L 73.285156 369.30469 L 144.36914 440.41016 L 315.79102 268.99805 L 487.21484 97.583984 L 464.82422 75.193359 C 463.66902 74.026054 462.51417 72.858422 461.3125 71.660156 L 453.8418 64.208984 L 437.5 47.867188 z "
     id="path4201" /></svg>