<?xml version="1.0" encoding="UTF-8" standalone="no"?>
<!-- Created with Inkscape (http://www.inkscape.org/) -->

<svg
   xmlns:dc="http://purl.org/dc/elements/1.1/"
   xmlns:cc="http://creativecommons.org/ns#"
   xmlns:rdf="http://www.w3.org/1999/02/22-rdf-syntax-ns#"
   xmlns:svg="http://www.w3.org/2000/svg"
   xmlns="http://www.w3.org/2000/svg"
   xmlns:xlink="http://www.w3.org/1999/xlink"
   xmlns:sodipodi="http://sodipodi.sourceforge.net/DTD/sodipodi-0.dtd"
   xmlns:inkscape="http://www.inkscape.org/namespaces/inkscape"
   width="141.01015mm"
   height="67.731857mm"
   viewBox="0 0 499.64225 239.99477"
   id="svg2"
   version="1.1"
   inkscape:version="0.91 r13725"
   sodipodi:docname="tree2.svg"
   inkscape:export-filename="/home/lesly/Downloads/tree2.png"
   inkscape:export-xdpi="90"
   inkscape:export-ydpi="90">
  <defs
     id="defs4">
    <marker
       inkscape:stockid="TriangleOutL"
       orient="auto"
       refY="0"
       refX="0"
       id="TriangleOutL-9"
       style="overflow:visible"
       inkscape:isstock="true"
       inkscape:collect="always">
      <path
         inkscape:connector-curvature="0"
         id="path4534-7"
         d="M 5.77,0 -2.88,5 V -5 Z"
         style="fill:#000000;fill-opacity:1;fill-rule:evenodd;stroke:#000000;stroke-width:1.00000003pt;stroke-opacity:1"
         transform="scale(0.8)" />
    </marker>
    <marker
       inkscape:stockid="TriangleOutL"
       orient="auto"
       refY="0"
       refX="0"
       id="TriangleOutL-9-3"
       style="overflow:visible"
       inkscape:isstock="true"
       inkscape:collect="always">
      <path
         inkscape:connector-curvature="0"
         id="path4534-7-5"
         d="M 5.77,0 -2.88,5 V -5 Z"
         style="fill:#000000;fill-opacity:1;fill-rule:evenodd;stroke:#000000;stroke-width:1.00000003pt;stroke-opacity:1"
         transform="scale(0.8)" />
    </marker>
    <marker
       inkscape:stockid="TriangleOutL"
       orient="auto"
       refY="0"
       refX="0"
       id="TriangleOutL-9-9"
       style="overflow:visible"
       inkscape:isstock="true"
       inkscape:collect="always">
      <path
         inkscape:connector-curvature="0"
         id="path4534-7-1"
         d="M 5.77,0 -2.88,5 V -5 Z"
         style="fill:#000000;fill-opacity:1;fill-rule:evenodd;stroke:#000000;stroke-width:1.00000003pt;stroke-opacity:1"
         transform="scale(0.8)" />
    </marker>
    <marker
       inkscape:stockid="TriangleOutL"
       orient="auto"
       refY="0"
       refX="0"
       id="TriangleOutL"
       style="overflow:visible"
       inkscape:isstock="true">
      <path
         id="path4534"
         d="M 5.77,0 -2.88,5 V -5 Z"
         style="fill:#000000;fill-opacity:1;fill-rule:evenodd;stroke:#000000;stroke-width:1.00000003pt;stroke-opacity:1"
         transform="scale(0.8)"
         inkscape:connector-curvature="0" />
    </marker>
    <marker
       inkscape:stockid="TriangleOutL"
       orient="auto"
       refY="0"
       refX="0"
       id="TriangleOutL-0"
       style="overflow:visible"
       inkscape:isstock="true">
      <path
         id="path4534-9"
         d="M 5.77,0 -2.88,5 V -5 Z"
         style="fill:#000000;fill-opacity:1;fill-rule:evenodd;stroke:#000000;stroke-width:1.00000003pt;stroke-opacity:1"
         transform="scale(0.8)"
         inkscape:connector-curvature="0" />
    </marker>
    <marker
       inkscape:stockid="TriangleOutL"
       orient="auto"
       refY="0"
       refX="0"
       id="TriangleOutL-8"
       style="overflow:visible"
       inkscape:isstock="true">
      <path
         id="path4534-1"
         d="M 5.77,0 -2.88,5 V -5 Z"
         style="fill:#000000;fill-opacity:1;fill-rule:evenodd;stroke:#000000;stroke-width:1.00000003pt;stroke-opacity:1"
         transform="scale(0.8)"
         inkscape:connector-curvature="0" />
    </marker>
    <marker
       inkscape:stockid="TriangleOutL"
       orient="auto"
       refY="0"
       refX="0"
       id="TriangleOutL-8-3"
       style="overflow:visible"
       inkscape:isstock="true">
      <path
         id="path4534-1-6"
         d="M 5.77,0 -2.88,5 V -5 Z"
         style="fill:#000000;fill-opacity:1;fill-rule:evenodd;stroke:#000000;stroke-width:1.00000003pt;stroke-opacity:1"
         transform="scale(0.8)"
         inkscape:connector-curvature="0" />
    </marker>
  </defs>
  <sodipodi:namedview
     id="base"
     pagecolor="#ffffff"
     bordercolor="#666666"
     borderopacity="1.0"
     inkscape:pageopacity="0.0"
     inkscape:pageshadow="2"
     inkscape:zoom="1.2550781"
     inkscape:cx="-2.9458985"
     inkscape:cy="59.939598"
     inkscape:document-units="px"
     inkscape:current-layer="layer1"
     showgrid="true"
     inkscape:window-width="1916"
     inkscape:window-height="1079"
     inkscape:window-x="0"
     inkscape:window-y="0"
     inkscape:window-maximized="0"
     fit-margin-top="0"
     fit-margin-left="0"
     fit-margin-right="0"
     fit-margin-bottom="0">
    <inkscape:grid
       type="xygrid"
       id="grid4163"
       empcolor="#3f3fff"
       empopacity="0.16862745"
       empspacing="12"
       color="#ff3f3f"
       opacity="0.1254902"
       dotted="false"
       originx="-90.000002"
       originy="-527.84809" />
  </sodipodi:namedview>
  <metadata
     id="metadata7">
    <rdf:RDF>
      <cc:Work
         rdf:about="">
        <dc:format>image/svg+xml</dc:format>
        <dc:type
           rdf:resource="http://purl.org/dc/dcmitype/StillImage" />
        <dc:title />
      </cc:Work>
    </rdf:RDF>
  </metadata>
  <g
     inkscape:label="Layer 1"
     inkscape:groupmode="layer"
     id="layer1"
     transform="translate(-90,-284.51936)">
    <path
       style="fill:none;fill-rule:evenodd;stroke:#000000;stroke-width:4;stroke-linecap:butt;stroke-linejoin:miter;stroke-miterlimit:4;stroke-dasharray:none;stroke-opacity:1"
       d="m 384,312.3622 -48,96"
       id="path4186"
       inkscape:connector-curvature="0" />
    <path
       style="fill:none;fill-rule:evenodd;stroke:#000000;stroke-width:4;stroke-linecap:butt;stroke-linejoin:miter;stroke-miterlimit:4;stroke-dasharray:none;stroke-opacity:1"
       d="m 396,312.3622 48,96 -48,96"
       id="path4188"
       inkscape:connector-curvature="0" />
    <path
       style="fill:none;fill-rule:evenodd;stroke:#000000;stroke-width:4;stroke-linecap:butt;stroke-linejoin:miter;stroke-miterlimit:4;stroke-dasharray:none;stroke-opacity:1"
       d="m 444,408.3622 48,96"
       id="path4190"
       inkscape:connector-curvature="0" />
    <ellipse
       style="opacity:1;fill:#ff5600;fill-opacity:1;stroke:none;stroke-width:4;stroke-linecap:round;stroke-linejoin:round;stroke-miterlimit:4;stroke-dasharray:none;stroke-dashoffset:2.79999995;stroke-opacity:0.77647059"
       id="path4138"
       cx="389.28571"
       cy="307.28989"
       rx="18.651947"
       ry="18.651949" />
    <ellipse
       style="opacity:1;fill:#90a9e9;fill-opacity:1;stroke:none;stroke-width:4;stroke-linecap:round;stroke-linejoin:round;stroke-miterlimit:4;stroke-dasharray:none;stroke-dashoffset:2.79999995;stroke-opacity:0.77647059"
       id="path4138-3"
       cx="336.07141"
       cy="406.2908"
       rx="18.651947"
       ry="18.651949" />
    <ellipse
       style="opacity:1;fill:#90a9e9;fill-opacity:1;stroke:none;stroke-width:4;stroke-linecap:round;stroke-linejoin:round;stroke-miterlimit:4;stroke-dasharray:none;stroke-dashoffset:2.79999995;stroke-opacity:0.77647059"
       id="path4138-6"
       cx="442.42856"
       cy="406.2908"
       rx="18.651947"
       ry="18.651949"
       inkscape:transform-center-x="0.35714286"
       inkscape:transform-center-y="13.214286" />
    <ellipse
       style="opacity:1;fill:#90a9e9;fill-opacity:1;stroke:none;stroke-width:4;stroke-linecap:round;stroke-linejoin:round;stroke-miterlimit:4;stroke-dasharray:none;stroke-dashoffset:2.79999995;stroke-opacity:0.77647059"
       id="path4138-3-5"
       cx="389.21426"
       cy="505.86218"
       rx="18.651947"
       ry="18.651949" />
    <ellipse
       style="opacity:1;fill:#90a9e9;fill-opacity:1;stroke:none;stroke-width:4;stroke-linecap:round;stroke-linejoin:round;stroke-miterlimit:4;stroke-dasharray:none;stroke-dashoffset:2.79999995;stroke-opacity:0.77647059"
       id="path4138-6-3"
       cx="495.64285"
       cy="505.86218"
       rx="18.651947"
       ry="18.651949"
       inkscape:transform-center-x="0.35714286"
       inkscape:transform-center-y="13.214286" />
    <g
       id="g4152"
       transform="matrix(0.11607142,0,0,0.11607142,190,348.64792)">
      <path
         style="fill:#ed5000;fill-opacity:0.98376626;stroke:none;stroke-width:0.80000001;stroke-linecap:round"
         d="m 343.90039,202.75781 c -28.6614,3.89425 -59.50425,8.21048 -82.4375,27.4668 -25.92477,20.07793 -35.34135,55.86704 -29.2261,87.22198 3.31511,18.21293 12.50093,35.28346 25.90383,48.00263 4.55547,10.3231 2.05117,21.99905 3.20989,32.92965 0.24115,26.0588 -0.11123,52.1188 0.10066,78.17777 20.01803,4.09566 40.27611,10.58579 61.12058,9.03877 5.13752,0.0706 10.27417,0.18893 15.41067,0.31084 0.0664,-32.30078 0.13423,-64.60156 0.20117,-96.90234 24.26148,-10.72353 50.06414,-24.40196 62.21436,-49.30761 8.15571,-16.2043 11.24226,-34.7427 11.22119,-52.69435 -0.30026,-3.6266 -4.67636,-8.94891 -8.06445,-4.92383 -17.11705,16.82586 -34.33173,33.56494 -51.48633,50.35743 -18.35735,-3.28256 -37.44638,-3.43067 -55.0625,-8.88672 -6.85187,-9.08166 -4.49928,-21.24199 -7.44625,-31.70648 -1.16465,-7.99374 -2.3102,-15.99021 -3.52055,-23.97712 21.26799,-22.02562 42.53805,-44.04924 63.80469,-66.07617 -1.98112,0.32292 -3.96224,0.64584 -5.94336,0.96875 z"
         id="path4171"
         inkscape:connector-curvature="0" />
      <path
         style="fill:#113ead;fill-opacity:1;stroke:none;stroke-width:0.80000001;stroke-linecap:round"
         d="m 261.43359,16.154297 c 0,20.040364 0,40.080729 0,60.121094 -25.71339,5.407584 -48.93244,18.212476 -72.82617,28.589839 -6.25764,-6.071412 -12.10733,-12.558352 -18.6392,-18.393266 -7.91255,-7.812954 -15.82536,-15.625642 -23.73775,-23.438761 -27.8304,27.711258 -55.659203,55.424127 -83.486329,83.138677 14.367572,14.5159 28.732903,29.03402 43.099609,43.55078 -13.152493,21.10165 -20.814174,44.93811 -29.224609,68.16601 -20.211607,0.77361 -40.423067,1.55109 -60.634766,2.32227 0,39.17903 0,78.35807 0,117.53711 20.084092,0.76603 40.167951,1.53822 60.251953,2.30664 7.026997,25.01609 17.070652,49.38603 30.222652,71.69531 -12.109942,10.89886 -22.796987,23.38584 -34.586801,34.70888 -6.45444,4.50014 -8.114376,8.99287 -0.671057,13.46408 25.581065,25.68682 51.159568,51.37619 76.742238,77.06142 14.50017,-14.04733 28.99856,-28.0965 43.49805,-42.14454 21.67002,13.65751 46.40897,21.92517 70.16797,30.40625 -0.79462,19.48732 0.19872,39.03589 -0.17579,58.55664 39.37956,0 78.75912,0 118.13868,0 0.77379,-20.00652 1.54822,-40.01301 2.32226,-60.01953 23.43597,-8.16275 47.47129,-15.85164 68.37891,-29.58789 14.45002,14.2798 28.89881,28.56084 43.34961,42.83985 27.71193,-27.82454 55.42221,-55.65072 83.13086,-83.47852 -13.98835,-14.16984 -27.98078,-28.33563 -41.97071,-42.50391 10.67009,-23.54149 24.56786,-46.58673 28.70118,-72.36914 1.01797,-1.52098 5.56993,0.55018 7.5664,-0.33007 18.19401,0 36.38802,0 54.58203,0 0,-39.58269 0,-79.16537 0,-118.74805 -20.63541,0 -41.27083,0 -61.90625,0 -7.07342,-23.84567 -16.28097,-47.16408 -28.75976,-68.72461 13.55778,-14.57631 28.01386,-28.27672 41.77148,-42.66016 C 549.03812,120.40069 521.33631,92.582312 493.63281,64.765625 479.76652,78.457931 465.8997,92.149699 452.0332,105.8418 428.80375,94.336038 405.27986,82.947787 380.18359,76.087891 c 0,-20.644532 0,-41.289063 0,-61.933594 -39.58333,0 -79.16666,0 -118.75,0 v 1 z M 321.625,145.22266 c 70.55231,-0.45214 138.96338,47.25648 162.59686,113.89311 19.71741,52.10705 13.06821,113.82884 -19.89827,159.3185 -33.30391,48.50144 -91.63144,80.34266 -150.9857,75.93096 -52.52404,-2.41807 -103.879,-29.03922 -134.9668,-71.85156 -21.33502,-27.44314 -32.40404,-62.44557 -31.64648,-96.83594 -0.65933,-25.83828 1.27964,-52.61245 13.4082,-75.96484 17.74453,-38.93036 49.02087,-72.57218 88.59766,-89.53125 22.84556,-10.19553 47.92531,-15.24204 72.89453,-14.95898 z"
         id="path4169"
         inkscape:connector-curvature="0" />
      <g
         id="surface1">
        <path
           id="path5"
           style="fill:#000000;fill-opacity:1;fill-rule:nonzero;stroke:none"
           d="M 640,394.66797 V 245.33203 h -64 c -5.41797,-18.58984 -12.87109,-36.52344 -22.21875,-53.48047 L 599.07031,146.55859 493.47266,40.957031 448.18359,86.25 C 431.21484,76.890625 413.27344,69.421875 394.66797,64 V 0 H 245.33203 v 64 c -18.58984,5.417969 -36.52344,12.871094 -53.48047,22.21875 L 146.55859,40.917969 40.957031,146.51953 86.25,191.80469 C 76.882812,208.78125 69.421875,226.72656 64,245.33203 H 0 v 149.33594 h 64 c 5.417969,18.58984 12.871094,36.52344 22.21875,53.48047 L 40.917969,493.4375 146.51953,599.03906 191.80469,553.75 c 16.97656,9.35937 34.92187,16.82031 53.52734,22.25 v 64 h 149.33594 v -64 c 18.58984,-5.41797 36.52344,-12.87109 53.48047,-22.21875 L 493.4375,599.07031 599.03906,493.47266 553.75,448.17969 c 9.35937,-16.96485 16.82031,-34.91407 22.25,-53.51172 z m -82.42969,-13.34375 c -5.73437,22.18359 -14.57031,43.4375 -26.25,63.14453 l -4.26953,7.12891 41.84766,41.84375 -75.45703,75.47265 -41.84375,-41.84375 -7.12891,4.26563 c -19.70313,11.6914 -40.96094,20.53125 -63.14453,26.25 l -7.98828,2.05468 v 59.02735 H 266.66406 v -59.02735 l -7.98828,-2.07031 c -22.18359,-5.73047 -43.44141,-14.5664 -63.14453,-26.25 l -7.12891,-4.26953 -41.84375,41.86328 -75.472652,-75.47656 41.843752,-41.84375 -4.26563,-7.125 C 96.976562,424.76172 88.140625,403.5 82.414062,381.32422 l -2.054687,-7.9961 H 21.332031 V 266.66406 h 59.027344 l 2.070313,-7.98828 c 5.730468,-22.18359 14.566406,-43.44141 26.250002,-63.14453 l 4.26953,-7.12891 -41.863282,-41.84375 75.472652,-75.472652 41.84375,41.843752 7.12891,-4.26563 c 19.70312,-11.691404 40.96094,-20.531248 63.14453,-26.249998 l 7.98828,-2.054687 V 21.332031 h 106.67188 v 59.027344 l 7.98828,2.070313 c 22.18359,5.730468 43.4414,14.566406 63.14453,26.250002 l 7.12891,4.26953 41.84375,-41.863282 75.47265,75.472652 -41.84375,41.84375 4.26563,7.12891 c 11.6914,19.70312 20.53125,40.96094 26.25,63.14453 l 2.07031,7.98828 h 59.01172 v 106.67188 h -59.02735 z m 0,0"
           inkscape:connector-curvature="0" />
        <path
           id="path7"
           style="fill:#000000;fill-opacity:1;fill-rule:nonzero;stroke:none"
           d="m 320,138.66797 c -100.09375,-0.0547 -181.28125,81.05078 -181.33203,181.14062 -0.0352,71.27735 41.70312,135.95313 106.66406,165.27735 v 0.24609 l 6.60156,2.71875 h 0.0664 l 14.66406,5.94141 v -0.72657 c 17.27344,5.35938 35.25391,8.07813 53.33594,8.06641 3.60156,0 7.14844,-0.11719 10.66797,-0.32031 v 0.45703 l 11.95312,-1.50391 9.37891,-1.13281 v -0.47656 C 450.54687,480.74219 516.15625,386.58203 498.54687,288.03906 483.08984,201.5625 407.84766,138.61328 320,138.66797 Z m -53.33594,332.1914 v -105.5039 l -3.55859,-3.20313 c -35.10156,-31.39453 -38.10156,-85.30078 -6.70313,-120.39843 16.1836,-18.09766 39.32032,-28.4336 63.59766,-28.41797 3.12891,0 6.25781,0.16406 9.375,0.49609 l -49.60156,49.63672 9.47656,65.99219 65.99219,9.46875 49.59375,-49.59766 c 0.32812,3.09766 0.49609,6.21484 0.49609,9.33594 -0.19141,39.76172 -27.64062,74.1914 -66.35547,83.25 l -8.30859,1.8789 v 95.8711 c -21.70703,1.39453 -43.47656,-1.60156 -64.00391,-8.8086 z M 352,476.83203 v -76.36328 c 44.28906,-14.21484 74.41406,-55.29297 74.66406,-101.80078 0.0469,-11.59375 -1.84375,-23.11328 -5.58594,-34.08203 l -5.55468,-16.14844 -67.78907,67.81641 -39.61718,-5.67188 -5.70313,-39.64844 67.81641,-67.82812 -16.15235,-5.54688 C 343.10547,193.82812 331.58594,191.94922 320,192 c -58.88281,-0.0273 -106.63672,47.68359 -106.66406,106.5625 -0.0156,28.66797 11.51562,56.13281 31.99609,76.19922 v 86.7539 c -78.09766,-41.25781 -107.96875,-138.0039 -66.71875,-216.10546 41.25,-78.10157 138.00781,-107.96875 216.10547,-66.71875 78.09766,41.25 107.97266,138.0039 66.71875,216.10546 C 439.07031,437.13281 398.91406,467.22656 352,476.80078 Z m 0,0"
           inkscape:connector-curvature="0" />
      </g>
      <path
         style="fill:#90a9e9;fill-opacity:1;stroke:none;stroke-width:0.80000001;stroke-linecap:round"
         d="m 318.47852,155.94141 c -65.39423,0.93041 -129.12803,43.71966 -151.37305,105.80859 -20.98823,56.14283 -9.93062,124.28602 31.87732,168.13308 14.52824,15.46755 30.84556,30.00711 50.44299,38.66575 0,-31.42188 0,-62.84375 0,-94.26563 -16.32056,-19.35402 -30.59984,-42.55197 -31.46289,-68.40429 -2.70372,-40.82802 21.23963,-81.48882 58.05469,-99.29493 14.52034,-8.00302 31.41786,-10.085 47.6582,-9.01171 12.96791,0.37381 25.95249,2.08495 38.10352,6.75781 -21.52306,21.56939 -43.04395,43.14094 -64.56836,64.70898 2.67202,14.44326 4.04374,29.13272 7.70312,43.40235 11.50204,5.70249 24.88549,4.38941 37.06641,7.73632 7.26534,2.15237 11.15486,-5.7066 15.92965,-9.63299 18.43505,-18.2659 36.5336,-36.85433 55.70316,-54.32013 20.46567,45.9618 1.84477,105.83344 -42.30078,130.67383 -7.17184,4.69042 -15.71465,7.22293 -22.70117,11.84375 -4.37618,6.59281 -0.49285,14.78086 -1.91016,22.02148 0,20.46094 0,40.92188 0,61.38281 29.25507,-4.0176 55.14936,-20.02501 78.67383,-36.94336 51.67817,-41.47425 71.37938,-116.68027 49.21419,-178.75111 -15.31406,-45.71962 -52.52761,-82.70445 -97.46046,-99.62559 -18.64722,-7.21565 -38.6341,-11.11098 -58.65021,-10.88501 z"
         id="path4175"
         inkscape:connector-curvature="0" />
    </g>
    <g
       id="g4231"
       transform="matrix(2.3364192,0,0,2.3364192,190.38397,448.46163)">
      <g
         id="g4161">
        <g
           id="g4163">
          <path
             id="path4165"
             d="M 30.221,7.011 V 5.029 L 29.936,4.917 c -0.1,-0.039 -2.429,-0.943 -5.535,-0.943 -3.328,0 -6.194,1.014 -8.527,3.014 -2.332,-2 -5.199,-3.014 -8.527,-3.014 -3.107,0 -5.436,0.904 -5.533,0.943 L 1.526,5.029 V 6.865 C 0.586,7.041 0,7.356 0,7.87 0,10.546 0,26.788 0,26.788 h 13.934 c 0.482,0.431 1.187,0.703 1.975,0.703 0.789,0 1.493,-0.272 1.975,-0.703 h 13.582 c 0,0 0,-17.979 0,-18.918 C 31.465,7.452 30.99,7.179 30.221,7.011 Z M 15.723,25.296 c -1.156,-0.479 -5.14,-1.992 -9.13,-1.992 -1.577,0 -2.974,0.242 -4.163,0.72 V 5.655 C 3.124,5.423 5.016,4.876 7.346,4.876 c 3.064,0 5.697,0.927 7.847,2.733 v 10.965 l 0.53,-0.584 z m 13.593,-1.267 c -1.277,-0.514 -2.744,-0.772 -4.369,-0.772 -3.988,0 -7.783,1.528 -8.926,2.03 v -7.299 l 0.533,0.586 V 7.609 c 2.149,-1.807 4.782,-2.733 7.846,-2.733 2.322,0 4.221,0.548 4.916,0.779 z"
             inkscape:connector-curvature="0" />
          <path
             id="path4167"
             d="M 4.217,8.071 4.404,8.778 C 9.109,7.53 13.342,9.84 13.385,9.863 L 13.74,9.224 C 13.559,9.123 9.212,6.747 4.217,8.071 Z"
             inkscape:connector-curvature="0" />
          <path
             id="path4169-6"
             d="m 4.217,10.141 0.187,0.707 c 4.705,-1.249 8.938,1.061 8.981,1.084 L 13.74,11.294 C 13.559,11.192 9.212,8.817 4.217,10.141 Z"
             inkscape:connector-curvature="0" />
          <path
             id="path4171-7"
             d="m 4.217,12.086 0.187,0.707 c 4.705,-1.247 8.938,1.062 8.981,1.085 L 13.74,13.239 C 13.559,13.138 9.212,10.763 4.217,12.086 Z"
             inkscape:connector-curvature="0" />
          <path
             id="path4173"
             d="m 4.217,14.218 0.187,0.707 c 4.705,-1.248 8.938,1.062 8.981,1.085 L 13.74,15.372 C 13.559,15.269 9.212,12.893 4.217,14.218 Z"
             inkscape:connector-curvature="0" />
          <path
             id="path4175-5"
             d="M 4.217,16.193 4.404,16.9 c 4.705,-1.247 8.938,1.062 8.981,1.086 l 0.355,-0.64 C 13.559,17.246 9.212,14.87 4.217,16.193 Z"
             inkscape:connector-curvature="0" />
          <path
             id="path4177"
             d="m 4.217,18.222 0.187,0.707 c 4.705,-1.248 8.938,1.061 8.981,1.084 L 13.74,19.374 C 13.559,19.273 9.212,16.899 4.217,18.222 Z"
             inkscape:connector-curvature="0" />
          <path
             id="path4179"
             d="m 4.217,20.257 0.187,0.706 c 4.705,-1.248 8.938,1.062 8.981,1.085 L 13.74,21.411 C 13.559,21.308 9.212,18.932 4.217,20.257 Z"
             inkscape:connector-curvature="0" />
          <path
             id="path4181"
             d="m 18.578,9.917 c 0.043,-0.023 4.275,-2.332 8.98,-1.085 L 27.746,8.125 C 22.75,6.802 18.404,9.178 18.223,9.279 Z"
             inkscape:connector-curvature="0" />
          <path
             id="path4183"
             d="m 18.223,11.349 0.355,0.638 c 0.043,-0.023 4.275,-2.333 8.98,-1.084 l 0.188,-0.708 c -4.996,-1.324 -9.342,1.051 -9.523,1.154 z"
             inkscape:connector-curvature="0" />
          <path
             id="path4185"
             d="m 18.223,13.293 0.355,0.639 c 0.043,-0.024 4.275,-2.333 8.98,-1.086 l 0.188,-0.707 c -4.996,-1.322 -9.342,1.053 -9.523,1.154 z"
             inkscape:connector-curvature="0" />
          <path
             id="path4187"
             d="m 18.223,15.426 0.355,0.638 c 0.043,-0.023 4.275,-2.332 8.98,-1.084 l 0.188,-0.707 c -4.996,-1.326 -9.342,1.05 -9.523,1.153 z"
             inkscape:connector-curvature="0" />
          <path
             id="path4189"
             d="m 18.223,17.401 0.355,0.64 c 0.043,-0.023 4.275,-2.333 8.98,-1.086 l 0.188,-0.707 c -4.996,-1.323 -9.342,1.051 -9.523,1.153 z"
             inkscape:connector-curvature="0" />
          <path
             id="path4191"
             d="m 18.223,19.43 0.355,0.638 c 0.043,-0.023 4.275,-2.332 8.98,-1.084 l 0.188,-0.707 c -4.996,-1.324 -9.342,1.051 -9.523,1.153 z"
             inkscape:connector-curvature="0" />
          <path
             id="path4193"
             d="m 18.223,21.464 0.355,0.637 c 0.043,-0.021 4.275,-2.333 8.98,-1.084 l 0.188,-0.707 c -4.996,-1.324 -9.342,1.053 -9.523,1.154 z"
             inkscape:connector-curvature="0" />
        </g>
      </g>
      <g
         id="g4195" />
      <g
         id="g4197" />
      <g
         id="g4199" />
      <g
         id="g4201" />
      <g
         id="g4203" />
      <g
         id="g4205" />
      <g
         id="g4207" />
      <g
         id="g4209" />
      <g
         id="g4211" />
      <g
         id="g4213" />
      <g
         id="g4215" />
      <g
         id="g4217" />
      <g
         id="g4219" />
      <g
         id="g4221" />
      <g
         id="g4223" />
    </g>
    <image
       y="355.79077"
       x="90"
       id="image4273"
       xlink:href="data:image/png;base64,iVBORw0KGgoAAAANSUhEUgAAAdcAAAHXCAYAAADuhBDBAAAgAElEQVR4nOydeZgdRdX/mwAJS0hI mJs7uXPv7a5zTp2ame6qU2NAZUdfQQRkkUVUQEBQBATckBdBQBGVxQUUEF83NpHNBQFBFtkXARUF FJB9XwKEJSv+fn/0nWQSwpKQYebOnM/zfB5QAnPT6e7vre6qbyWJoiiKoiiKoiiKoiiKoiiKoiiK oiiKoiiKoiiKoiiKoiiKoiiKoiiKoiiKoiiKoiiKoiiKoiiKoiiKoiiKoiiKoiiKoiiKoiiKoiiK oiiKoiiKoiiKoiiKoiiKoiiKoowylkuSZPkkSVZIkmRspZKPbzb9pGo1TGk0XK2GRSPLurM65lSH HmtccBn7bmuLHqK8d4G9uaq2q03Ke/tNbdFjTHB1zCnLYgaQN40pqgDTJtbr9ZVb18qY1rWjKIqy WMYkSTI2SZKVk46O1TrSnqnNpodGIxQNyNdqYr5uivn7Mhc2TW2xuXFhS+RiG9sdtiUXtiPnty8t dlDVdtWQ395Q2M5Q2A5s2NZQ2DLDsGmK8j4AWc+YPjGmL63X88lJkq2UJNNWTMovpYqiKItlhSRJ Vk4mT56wWq3W0dXVzY1GsWaahvdn6LfOMOyYWb9byn7fzIUD0PkDiYuDrfOHEvuvEReHEYfDif0R qtquAofDgcJhQPI1Y+WQDOOBBuVzALI7QPx4lskHjemTrq5Qr1Ty8QMCVlGUUcxySTlCXT5JkhWJ aFytVlulUsnH1+v1yR2NRm31zixbY2raU8+6N0zTYhtjik8ZDF/KKByW2nB05sJJmfM/BedPQxfO IhfORfbnI/vfIPvfog2/U9W2lcNvkeU3YOU8Y+M5huQ0QDnZYDwGIB6eQd9eaRo3S9Pwrq6uUO/s 7KtMnkwTEn1ErCijluWIaFwZpPnkLqI6QI8lCu8ClvWA/Qcy6t2qgT07NqB395T8FzIKhyGFY42V HxsKvzQsvzYcLjAuXAwc/oROrkQXrkYXrkEn16KT61S1rWW5DlmuBZZrwMrVYOOfwMoFSPFsJDkV KH4vA/mKMeFTTZAtms183TQterq6utdYMJLVx8SKMpoYAwAT07Rnah1zyqjnvWCLzYnDHsByELpw pLH++Iz8zzIqzjIUfgdWLkEb/oxWbkCOfwGWvyHLHeDkLnRyN3G4l5zcR07uQyf3q+qIkOV+YrkP Wf6DNt6NHO8kjn9DjreglSvByvmGwi+B/LdTCHs3m8UWXV3ClUreOXGin5QkNG6oL3ZFUd45lu8k qtQxp5R63mVcviVw2BtYjkMnZyGHi8CGG8H6O4DCA2jDI8DhcWR5kjg+Q06eRZbnkOML6OIL5GQG OXmRnLykqiPUF4llBnJ8ATk+h06mI8ujaOUeoPAPQ/6SDML3s8x/prMzX6ta9VCp5J21Wm2Vob7Y FUVZ9iyXzH+3SuM6Otxq9Xo+udFwNcO5ZFRshFxsg7bYD104mpycS91yI7LcASyPIYcXwYZXwYZX keW/yPJfcvH/qaoa/x+yzEaWF4HCdEPhzgzDeQbDN+upfKTZzNdrNnvzajVMSZJ8bKLvYRVlxNBa q5qPTZJspTTtmWpMLoj5+wCKj4At9iIOB6MLxyCHU4nlAnRyM3K8F1keKUemYebAYNVwVdWFnIss M4HlJbTyCNhwI1A412A4OsOwXwph264sj52dVFl99Wz1JJm/HlZRlDZmTJJMW7FeX3vljg63Wpb5 bgC/GaL/NEBxGFE4EVnOIpZL0YW/EMsd6OKD5OLTyPF55PgKsswZGKwarqq6QGR5lcprZDZaeQ45 /Ac53AIULgIbTjJYfLFpio2r1WA6OnqmljOJ87FDfWNQFOXtsXz/o+CJE/2kLAvvQfSfRgzHEBXn IoVricOdyPIkOXkJOb5CTmaTi3OR4zxkeXXRYNVwVdUFDrguXiUnc8p3svI0cngYrb/SWH98Cv7j 1ar31aqHWo07WjOIFUVpM1qPgesrd3b2Ver1nIyRdxsTNzbo9wTyxyGG88iGm9DKPcjyJLLMHOqb lKq2u62AnY0sryCHGcjhTrThdwbDkVnmd03TYvOuLI/1unRVq2HV1ixifUSsKG3Acv0j1dVW616j Vgsuy4qNMgyfBJKDEMP30cr5aMP1rWB9HDk+Ty7OGeobk6q2u2W4xrkDAvYh4HCjoXAWUPheRv7z TSi2qNeLUK2GKZMmwcTWO1id4KQow5zlqtWw6mqrda8xeXLR6Er92sYUOwH5byHJ2WTlUrLy19a6 vWeJ5UVkmYkc5w31jUlV293+x8Pl9SRzygmB8gDacCtyuAJsOClD/5muNH9fteqhWg1TOjrcakk5 g1hRlGHKckmSrNDZSZXy3U54V7Ppt88gHAbo/4A23I/lOtUXiGX2UN+IVHUUOBc5zEQOM9CF6WDD VQbD0U0Tdunq8mvXasFVKnlna4KTLtFRlGHGmKS1LVxHh1ut2cx701Te1zRhF4NyKJD8FG24Hjk8 ThyeJZaXyIk+BlbVQbY1gp2NTl5GDjOA5W9gw5kGwzebxu+Zpv5DaSp9nZ1U0apERRl+LJ8kyUpJ Ul21WsUpWVZslIHfzdh4NFg5HWz8E7L8C608TywvEsssfQysqoPvwu9gw0xkeQA4XAM2nGusP96Q 3yeFYvMpjQIXvIPVZTqKMlxYMUkq4ydMqE+uVpuQgv8EWPkOsFyNHO9EFx9ElueonLQ0t395zVDf eFR1pDtwmU5rFDsDy9aze4H9zUDhRymEvTsbWpWoKMOOSqUyvl7nrq4u4FrTrWuw+DKwPw053ksu PkNl56++Y1XVIVfmDlim8why+G1G/lupViUqyrBiuSRJlms0XC1Ni3VSyLfNoNgfKZyCHC5DJ4+T kxfLYog4d+hvLKo6up3/DpblFXLhWWC5GWw4T6sSFWX40L/J+RgAYYCwLYD/CqA/GW34I3L4e1lf KLPIxTn6jlVVh94B72DnkJOXym3swi3AWpWoKMOF/nBdnii8C1H2RQo/ARuuRit3EMujrW/IupON qg4TF64RjfPKJ0talagow4UVK3k+nogqRKEOttgcKXyTrFyAJP8mlkdb+6zqaFVVh6nlF96lqkrU d7CKMhjUarVVjCmqGftu4HwtsH43tHISslzTCtbpZQm/vDrUNxBVVRdv62nS0lQl6jpYRRkMiGhC kz1gd7GOcfmW4PxXkOVsZLm93JGj3NlGHwWr6vD1bVQl6gQnRRkMOokqmc0j2HxbcMX+yP4EdOHP xPLIUN8wVFVdat9SVWJrHawu0VGUZchySZKM6aJQz8hvaNjvA9Z/D5w/B1luQ5anhsENQlXVpfCN qhKN8XtmWdg0TaWv0XC1SiUfn2Valagoy4LW7OCNVqhjThn5rYwrjgQufgMcrkEO9yLL80N9g1BV del8s6pEoLB3Cn6zZjPv7ezsq2hVoqIsG8YkyUYrJEk+1pgiABW7G/anGfZ3gfMPggvP6obnqtq+ vmlVIocfAYW9s8xv2Gx6mDKlqGpVoqK8PcYkST62Vpu2CsC0iSn5tcGG/YHDBcD+KeDwHDp5mZwM WgvTwuvz5q/Rm92aPDUDOT6PTqaTi88Qx6dwgU+q6lBITp4llhnE5eS+gQ51kL41X1uVCBSOMiQ7 NTFft9nMe6uoVYmK8nZYoVLJx3d29lWyLGaIYVO0/hDgcBlweB5deBEHeaebhb9Vy6tlfZs8SyyP oJN/I8s/0cmtxHIDslwNHK9CG/+MNl6JHK9Q1Xda4HgzWrkbWaa3Y7gix3nIMgudvEwsTyPLtWDD GWXAhk8B+M2a1JvX6/nkchYxjUv0HayiLAk0rrOTKo1GgQDFmoaKndCGY5DDDchhJpal/HMHc13r gGCdR07mogvTicN9xOE2YrkUOfwW2J+GVk5GG74PLN81JMcaG48GjN9R1XdcKz8HK5cBywNgw6vt F66vV5Uol4INJwL5LxhTbJymwWRZ3qlViYqyhNTr9ZXrde4ypgjGFBsT+X3QysnE8rcBI8lBvWm0 /vvzykfPYQ5yeBJt+AdyuBw5nIrkT0Drv45cfBFssZdBv2cKsnsT4yebpm8XVX2nTVEOMSSng5U7 wIZXBwbsUAfnElxz/x1YlViOYMMjaP2VaP3xAP7j9br3aRpMV1f3Gq0ZxIqivBUqlXw8Yk7GhPWB /CeAwmHI4UxiuesduLjLyRUss5DDE8hyD3K4DW3xR2B/GrD/LtrwZaDis0D+E0R+K0PFJk3wH0gx vL+exY3qWd+GqvpOm4LsbtAfDxRuBSvz2i1cF70WB+ym82J/VSJa+UaG4ZMp+M0yrUpUlCWDiCYg hgLRfwht2I9s+B7Z+Dsq92sdzAv6VeI4l1hmE8cX0Mo/wIY/GQqnAvtvo/UHGsr3IApbGio2AcjX A8jXMiaXOnjfwFA0m329qjoUpijbZBSOMjbcMCBcX23fcB24TKesSkQOZwHLd4HCAQDF5sYsqEqs 17UqUVHekGbTT0L004iKHYj9Ecjyc2S5HF18cHAv6DiPWGajja+QlaeR5ApD/pQM8q9kkH8shZ7N UizWMSa4BhUIkDcbDVczpqhWMUypYpjS2dlXUdWhMKO4kaFwMFi5ugxXaetwHbBEZ26rKvF+5HAL crgcbDgJrf9MRsVGaRqMViUqylugxtwBLOsh+z3RhZOA5QJkubncDH0QL2qW2cQyg2x8Bq38B8if ZrD4ciPr/mBHzbk16txVLmRXlOGHMblkNuwHVi5DjnPBxnntGq6LceGqRA5XgZXvGJKdsyy8twuE s0yrEhXlDUEMU9CF96MN+4ELZ6CTK9HJ7cTx6cH9thxfKL8dy+1IcrnBcHQGfreurOe9k2vYWK3G HdVqddWhPj6KsjiMyQVHaLjiIlWJ1KpKRBuONOj3zHCxVYk6ilWUgRhTVDOSD4KTrwDLBcDxL8jx HmR5bnAvYHkCndyKLBeDlZ8ChQOaUGxRy7h7Qr0+uVKpjG9NnFCUYYfhVrhyGa6tdaMjJFxfU5V4 P3K4Gmw4B1tVibBIVaLOJFaURWg0XM1Q2NJY+QZwvA5cvBs5PkpOXhzci1juQ44XAYcfZc4fmLHf uol+WidRJUmSFZNyssSYIT48irJYynCVz+HIDNf/LvIedga6sioRX6cqsfUOVlGUfuosXWDDtsaG ow3LX4HlYeT4DHJ8ZZDD9S7gcGbG4bCmK3ZqcFi/jjlVKvn4oT4mivJmDAxXciMrXBdzrb5pVWKj 4WpalagoA+iiUDfktwcbvmdsuBNYngSW55Fl1qB+O3Zyu+FwSmaL/RqUf7CLc+kiqrem+CvKsGY0 hetbqUpMU+nTqkRFGUANi0Zmw8cM+R8aG+4H618AKy+jkzmDe8GGvxgbjmlgvuMU48JUY9IJ9frk JEm0Yk0Z9oyucH0LVYkUttSqREUZAEDeBPKfMNb/2NjwKFg/EznMLusIB/GCteH6jIrDGqZ7k1U6 OmoTJ06clJRT+/UbrzLsGWXh+qZViQb9nlqVqCgDMKYnNVTsbKj4CVj/RCtYB7Wov3XBXmOoOLhh ejZIJk6clJTLbsYlOolJaQMWCdc5IzlcFw3agct0kMPt5SzicCRA2DajuFGaFj1VDFPKgJ3WPzlR 38EqowtjelLDYRfg8H9Yvk+ZiyzzBvsmgSxXo/UHptS9dpIkqyRlsGpfqdIWGFeEMlzjn8jFOdTa OWp0hOuiVYlyI7KcX1YlxgMAolYlKooxPSly2IWs/IxYnh24E84gX6h/BpYvNKBYM9GlN0qbsfhw jYP+pXSofU1VopPpyHJ/axety8HGE5Hjp8sRrFYlKqMYY/pS5PhJ5Phz5DioxRGLeCW4uL/hPhnq Y6AoS8poDdfFOBdZZpKTGeTkWXThz1qVqCiJhquiLA0arqXzqxI5voIcXyirEuMZWpWojHo0XBVl ydFw7Q/XgVWJ8ZVWX3irKlF+sKAqsU+rEpXRhYaroiw5Gq7zw/W/C+Zp9FclxseQ473EchOw/BAo fFarEpVRh4aroiw5C4erzB6t4boY56CLL7d2vXoYWX4DFFtViXHdZrNv0apEXaajjEw0XBVlyVkQ rqEVrjK/SGIYBNyQuXBVYhxQlRgXW5Woy3SUEYuGq6IsOWW4Fp8jlkvJhVa4iobrYqsSY6sqMZ4I JAtVJWZZXF2rEpURiYaroiw5xhUB2e9L7PvDdY6G68JVia2QndEawT6MLFeglR8MrEqsVvubnBRl hKHhqihLzmvDNWi4LiZoF1QlxheQ5TVVicYUQasSlRGJhquiLDkarm81XBdapvPaqkQbttWqRGVE ouGqKEuOhutbC9cFS3TinMVVJQLFA7QqURmRaLgqypKj4bpUzp3f5OTiM8hyObB8FyBsW697X6vl zXo9n6wTnJQRQau4/5Pk5Gfk5hf3909IWNbfYv87/9uskyvAhv0N5xquStuxULhymEWs4frm94DX ViUiy/low5GGwh4Zhk1TKqsSq9WwqlYlKm3N/F1xnPy09W1yUHbFWShYy7Vwl6MN+2m4Ku2IMa1w tf5Sshqub/Ee8JqqRGC5caGqRPabEfX1EvVViGiCziRW2pb+cAUrP0WOTw/Wps+LvH+ZiyyXabgq 7YoxRUBcOFyp3AtZw/VN7wEDqhJZnli0KtFav0GaBmNMUa1U8vFD/WetKEsFQN4EGz+OVk5CloeJ 5aVyC6k4d9leWHEescwuq9FkBnK8ECh8FsD7oT4GirKkvCZcrYbrUjin/xFxf1UicvwmUfwEYlyH qL8qcdqKSfl4WLesU9qHLgp1Q2E7JDkWWW5Hjo+1Nk2fuUwvJJbZxPEFtPIEcnwAWc4Ckt2blPcO 9TFQlCVFw/XtO/8d7ICqRHJyOnL8JrnwKWC/mbUxNpt+UkeHW631iFiX6SjtQZr2TAUrWxDJ14jk CrLyT7TxQSpn9C27C8nFl9HKE8RyF9p4M1o5GTnsCCA81MdAUZYUDddlEa7zHw8vqEp08S/k5BLi +CNi+TxR+HCWxUyrEpW2w5iiamzcGFG+iFbOIxuvJ5a7iOXZZXoxcXwBOT6ANt5MJJegjccgyjZN 9jDUx0BRlhQN12USrq9flejkCnTyA+KwB2Io0jQYRK1KVNqIej2fnFF4L2LYBUiOQ5Kzyg7QeHc5 epWXiGUWlZOQ/rvIBfG6FwuyvEpczgqk8h3rA2TlJrRyHqKcBCSfRwzv76JQH+pjoChLiobrsg/a haoSndxOTs5GK98AKx8hihsBeL8gYPOxiVYlKsOZSiUfD9DNWeY3zDD/pMHwVbRyMpJcTjbeTSwP le9g4ysDl+m8Qbi+2rrBzEGOzyHL4+XOGHIt2vArg/4bBv2nAYotGthTdHV1rzHUx0BRlhQN18EI 14WrEqlVlUgsx4GLB4CVjywI2Lh6axQ7ZqjPBUVZPETjphhTrRnnamn3OlmW72goHEwUziArN5CV fxLLo60ZvvPwDdbBLrKOdRZaeYJsvIes3FaOWMMxGea7NkzPBnXjQr3OXdVqddWhPgSKsqRouC77 cH1NVaKT+4nlr8hyGdl4Irh4ALWqErMs79SqRGW4MyZJkpWSyZMnJOPHV6Y23JpNU+wEJMdZGy8k G68nG+9tvYOd+0brYMsLpH8da3yl9Sj4r0RyOaKcBBD2b5ieDVadMqWaTJw4KUmSVRK9OJQ2RMN1 0F20KvEyYjkOrHwEMRRZFrNm009qLdNRlGHJckmSrJgkycrJ5MkTKnWkLPMbAvjdEOUQIvk2WjkJ WE4jJ+ciy3nIcn5rTdoiyvmtf34esvwaOZxCJN9FlK8DyF4AxRadTepNJk2amJQj1rGJPtZR2pD+ cAXrL0HrZ6INszVcl52LqUr8a1mVKN8gDnsQhQ9bG6NWJSrDmeWScmLA2CRJVp4yxVSzzHcbE9Yn 8lsRyQ5o465gZS+08jm0YT+0YT9wYX9wcWFt2L//nxPHfYBkd7Dx42DDtojh/VmWx3qdu5JyxDou KS8GnZCgtB3GFMG0whU0XAchXBepSiwfEd9ITs4uZxHL57UqUWkHlkvKEeQK9Xp95WbTT2o0XC1N gwHosaktehBDYTiXhe1bxAH/zBShSXkvgDBRgV0U6rUad7Tesa6Q6Ew/pY1ZXLiihuuyDNeF61LL 7eoeQie3o5MriOOPyIVPIcZ1jOlJifoq1WrQ+RuKoijtTH+4mla4gobrYLtQVSI5uUSrEhVFUUYY Gq7vrK+pSiybnLQqUVEUZSSh4fpOh+vCVYnlI2KtSlQURRlRaLi+4+G6aFXiS1qVqCiKMsIwpgiG /D5luIZXNFzf2aAlJ3Nevyqxb8OyyQmnENG4pFxqqBMoFUVRhjsLwjX8EaxouL7D4brwOthFqxLD /mXZRE/RSVQBgIlalagoitIGLAhXaYWrzNJwfSfD9Y2qEsOJ4ML+xvZsYIxJjTHVSqUyPtGSCUVR lOFNGa6xFa6xFa5Rw3VoXKQqMVyGHI5F7tm6SdQLAM0sy1ZPysfDiqIoynBFw3X4uGhVIjq5Fdmf jdYfaqh3J+De/wHosZVKPn6ozxtFURTlDdBwHT6+piqRw73E4Spk/wu0+TfA9u4GkK9Vr+eTh/q8 URRFUd4ADdfh42uqElmeQg7/Rg7XgPXnAPmvGVtsnGV5Z6IzhhVFUYYvi4Try8AarsNFZHmFODyL 7B9C629D8qcg5js2GgUmCfVvGKIzhxVFUYYbrxOuczRch4Ess4jDDOTwFHL4N1l/hqGwR5blsaur e43y3SuNG+pzSFEURVkEY4pgWMN1mDoXWWa2AvZh5PBboHCAMWF9Y3rSAbtzKYqiKMMJAO8Nx30M y8Xzw9VpuA4HB76DRY7PI8sVxOFworClMUUAyPuX5gwrxiRJskKS5GPr9frKHc6tVq/nk40pqo2G q3VRqCMWDWN60n6zrDtTVbW97b+eAfJmF4V6vS5dWZZ31mrckWVx9Vpt2ioJ0bjWll8j/n3WQuHq NFyHrzIDWa4GDkcRFTsYk7+7yR66urrXGOpzaBGmrVithlUnNv2kjnTa1DpEm9kYjfUbGJJNwMbN M/JbgQ3bGgrbGfLbG/Lbkyt2UFW1/ey/hsvrOWyH6LcGK1sghk0R5X0Aca0m9fV2UajXmDsmE00o Q3Zkz8rUcG0X5UV0ch26cAxxsbPh3vWNcY6IKkN9Di1Mlq3UH6xdIJzZ8J4Mw6aGZGeg8FmgeACQ fAWtHAoUDgMOhwGHw4n9Eaqqtp/A4XDgcDhQOAxIvgYkBwHJFxBlX7CyW4Zx64ziRk3q661B3uyk vkqtNm2VZISPXjVc20V5kVhuIBu+R67YHV3+fqLe3JiiOtTn0EJUq2HVKaaoVtnDVHzXtJTjZpmN u6KVQ5DkWLDxRLDyM7DhTGT5NbKcDTacQy6cq6pq+wk2nIMsZ7eu51+jDb9AKyejjd9HK183FPcx FLfvor61a+y7uyjUJxNNSDRc1WGhvEQsNxH7E6wr9kKXb2qcC2lPz9ShPH+WS5J8bFdX9xq1WtEw JrgU4zpg4+aGZKeU5QvAcoSx8gOy8Qzk+FtkuRhZLgOWq5Hl2pbXlcNyVVXbTp5v//V8BVr5I1n5 PXL8NXL8Mdj4HWPjlw3HPQ2F7Yz1GwB4nzpniKhSrYZVy/vJyHlUDOA9cNi7DFd5CVlmopM5rSKD YRAq6sBwRZYTwBZ7ZZhvakwRGg1XG6pzZ7kkScZUq2HVZtMDQLGmMbIJYtwVbTzQ2HgMsJwGLOej lT8ix+uQ4y3I8e/I8k9k+Rey/Bud3K2q6ojw38jyb+R4B7LcTiy3tbb5uhxYLgCOZ4KNJwKHw5H9 nuT8VsD5egDdzMwdSTmSHTEB2x+uyOEidOFFZHkFy/o9Dddh5cBwlb1S9B8yJpehCtflkvJCWL7Z 9JPSVPoA4ubGxD2B4lFo4y/AyqXI8Q508W508X508TFkeZI4Pk0uPoNOpiPLc6qqjiCdTCcnzxLH p4njU+jkcWR5CFn+Ayx3IcsNyOE85HAssf88cvFRa3vfg1g0knKz6v6AbXsGhOuF6MIMZHmFNFyH ofISsNxkSH6YQfhsmvoPdQ1RuC6XJPnYjo5yiQ1iTgCyhUHZF1GOBSvno5Ub0MYHqdzmZx6yvIos /x36g6iq6jspzl9PWBant75U/5M4XGDZ/xht8VWifDtwxZrd3d1rENGEer2+cjIC3scihgKs7EUu /B5dmE7l6HUmuTh3qP9c1IV8CTjeZCj+MIO+z9bTvg91mT5pNPre8XBdPsvi6mkaTLnY1n/AoOyL Nh6DFM9GjtdR+Q31qQHBquGqqqPQVrguKE1neRGdPFBOIAkXEYdTkIsvEoXtiHr7EHMypqgmeT72 nb6xLWuIenNkv2drpP54a1T/EjmZM9R/LupCDpdwnbZio9FXA4hrAcTNDIU90MZjkOPZZOUm5Hgv sjxOLDMGBquGq6qOPgeEa/8Idia5+Ayx3EdO/kFOLkH2xyMXXyTXuxVisQ5iTrVabZV3+Ma2zGlS 3gskuyPJWcjyALI8RRxfIJbZQ/3noi7k8AhXIhpnTHDGhC2Nkc+1HgX/vpyoFJ8jJ7NpwePggReW hquqjjIXvQfggH01qZw9+wA5uYTYn4K2+BJR7/aG83cDwMR39MY2CGSZ70YMuyDFX5KVu8jKI8Ty bOsLxpD/2ajzHdJwnV9p2Gz6ScbIu40JewDJtwHlV2jj9cjxfmKZNQwOlKqq7eMz5MItxOECtMUP kP2+iPmmDedq7V6ViJiTIb89kpyAJNeijXcSy6Pk5MVhcNzVBQ5puK5Yq9VWmQQwsQZ5MyP5oMH4 VSA5HSheBVbuQpYnyUV9l6Cq6lu3fEx6T7kUIpyHLhwJ5D+Rse+e2PSTyq2/8rFJG84gzrLuDGyx OZA/Amw4F224Hp3cjSzPDflxVwc6hOE6oNKwborQJNkZrJxkKF4PVh5Cjs8Qy0s6xVxV1SWSZRY6 mU4sjyKHvyPLqcaGL6XUt3a7VyU2Gq5WdsXQXUAAACAASURBVKr7fTL230UbfodObm0NRIb+2Kv9 Dl24Dqw0rGFcJ7NhP7ByPlh5CGycB1YnLamquuQOnEmMTqYDx0uB5VsNkg+2e1ViFXFKA4o1M5t/ LHP+K4bDL4HlGnLy6FAfd3Uhhy5c6/V8crm7TXhPk+L2xsrXwcolwPGxVrBquKqqusTiwvtqvoAc rwUrJ2c27ppR3KhuijClLFBfYdBvdMuYSQAT65hTw/oNUptvCxwOBxfOaLUBPYFOpqOLL6N2DQ+1 QxeuWZZ3ZjbGDMOmQHFvY+UHrW7gpwYGq4arqqpL4sKziOVF5HgL2HiGsfFLhvq2A5D1APJm671r W1Gr1VYxpqhm7LsN5+9G9p9GlmPJye+pbK97kJw8q6/ThtyhC1fEooEY1wXb9zGgeBhy/CVy/Etr Wrkut1FVdalc6P7h4svI8Z9g5ffA8m2wshdA3AwgWir3f203VqhWw6pd3d1rpD09U8HGzdGGLxHL /yHLNcjyT3LxUdKJoEPt0IVrgwo0JJsAhc8iyQnI8bfo5B/I8flhcGBUVR0BIstM5HgPslyBFE8h jgcjykeJJM+ybKVBv9ENDvN72Imkj1zcnjgcjCw/R5Y/lE1V8jByfJLmd67HF5DjC62Z1DPILTNf HO62HpPPbBVtvFP1uUMXrgA9FsBvBjbsjxR/ghwvJJa7iOMLQ31Bqqo6QmSZRSz/KUd18ZfAcoQh 2cmYIrT6htuR/l1+xhAVaDisjywfbY1gv12OYuOFaOOV6OL1yHJbuatQvLNVI/tvdIv17tamKAN8 k12LWO4pjfcgx3toMeJiDfcu3ngvvWXlPwPFAc7//538B1keQiePE8uzxPEl5PgKcRzszQ6GLlyN Cc5Q2BJt+DKynIoc/4RO7i6/DQ2Di1JV1RGgzEIXHyh3zpGzwMp3wMpumY2xjcM1SVoBS9RXKTc6 KdZE9h8ikp2B4gHE8m3g+CPk+AtgOR+cXAIc/4Qsl6OVK4nDVa81LiSWc2AWKyzwGigfR7+Z16Jr yW/oda/RhesXb1xYKzfMl+UG4tBSbkOWf6GNDyLHZ5DjC+jiyzS4mx0MXbimtugBG7ZFK4eCDecC y9WtbxraNKKq6jJSZiPLw2jlVrThd8b648v3rsWaI6FrOEmS5ZMkH5tl2UpdXd1rAAhnWXhvRnEr xLgrkHw+43gUuHii4XAKWP9TtOEXyOHU1yqnIsupwPG01r7ZpVZOfz0zG86AlmTDGWTjQqKNZ6KN ZyLHM4HjmcDhV/O1C4s2/AopnFUqZyHLWcjy6zfw7NJ4NnI8G2w8B2w8x9h4DthwDrlwLrlwLrpw USu4b0cbH0Ybn2o9Ih/MPuahC9cm5b2GwnZA4TBgOR9Zrm0Vb7809BekqqojQ5mNLI8gy21g5Q/A 8kOg8NkRFK7zIaJxiGEKQLRZFt5jjGxiKGxnOH7a2PBlYDnIcDgYrT8EyH9tYeVrwOGw0tgyHP6G UjgcyB9RKkcQyRGI8vXXaEuNk68bJ98w1i9WnG84ciE5fPONBI5HAcejgEozikcB+28B+28R+2+R Cye2gvgKsHJXawT79CD3MQ91uPrtgcNhyPKb1jeL+zVcVVVddspsYnkEWP6KLH8ADj8CCnsD5GuN tHBNkmRFAJiYpj1TyxFsjCnGdTKSD6Ys24AN2xoK2xEVOyAWH11ILj6KLB9FDju+FcGGj2U2fCyD 8DFYSP/xhbQD7B7w9+Q/8VY0VOxkqNjJuMUpCyTZyZDsPFBi2Zm42JnYfwFYjmu9FrgZyvfOj7Qe DQ/WuTcswvVw5PDb8tm6hquqqsvSMlyJ5a/I4ULg8CPDfh/gERmuY5IkH1uthlWbTT+pk/oqjYar GdOT1jGnOuZUTiTt5tYuZIvXvYlv8O9mme9erPz2TG3Rs7QC+w+Alb2Qw7Fg5RJkubk1cWowJ88O XbgS9ebkih2I/RGtfkwNV1VVl7Eym1geJZa/IYeLyIYTaeSGq7IY+jc7QOsPbL2H/TOx3DHImx1o uKrDw3JavMxGJy8ThxnE8jSyPIQc70Eb7yCOf0OOt5SzPuN1rdcI17RmL16DHK9DKzcQy01o5TZk ub31+Oc/5Tu3+Aw6mYEuPIMsDyOHe4nDneWewXJb69vs34HlvlZL2BwasIfwUB8fdWnVcB3taLhq uI5yZQ46eRldmI4cnkAr9yCHW9DKlWDjH8qZgHI6UvwJWjmZbDwRWU5AJz8Alh+ilZOQ4ilA8jOw 8isg+Y0huRisXANW/mo4/Ac4PIkc7kUXbgUOVyGHi5DDeWjDmcaGX4CV81q//m6w8gqWewnP1Z7W dlbDdbSj4arhOrplmYUszyP7x4j9fcjhFrDhQkNymkE5IYN4lEE5BCDsDxT2RiufIQp7WOt3Q/R7 AoW9DcrnjJEvAsgRBuXYDOUkQ/JrY+USw+E248L94MKtxvmLwfkzwBUngvXfAQqHGQxfBpTvGJJf g5WbwIYZYOVlZBnsxebqoKrhOtrRcNVwHfEu0hc9t5wKLzPKonF5mDjcRRxuRPaXIYWzAMP3Dcoh qYn7GCM7pyAfAfAfyDK/IYCsRxTeC5CvReTXNsZvkKbh/VkWNs0y+WhqwqeyLOyfonzdkPzQ2HBO xuFy4/yvDRfHAxeHoe3dD22+q6FihzQtNk9N2MOAHAc2XAgUngCW6WDlZdKe1jZWw3W0o+Gq4Tri xflbgck8sPIyuvA4Orm71YV6KbKcTTacCFwcBeQPytB/JoPwsSbIFmka3p+mcZ0sixHA+2azN88y 3w3QzWla9DQaoTAml0ajWLNh/AaNTD6YZX6rJsnOKYW9Uw4HZ+y/lXHxv5kr9oLu/OPG5VsaW2xs TFi/AflaKco2BuNXAcOZQHIPWnkErTzXejw85MdPXRo1XEc7Gq4ariNeZHkVrMxDDnOAw3Tg8C/g cBW4cAa68AN0/lDisAdysU2G+abG+A0akK9VN0XIMt/daBRYqxWNel260rRnapblnYhhSpblnY2G q3V1hfrUqT1pvR5ts5n3GpNL2VbjN0zRfyjlYpvMhU2N9RsYzt9tOJfUFj11zCnLujNj/AYAYW+g eCKS3Iokd6OVJwd5PZw6qGq4jnY0XDVcR7zlqDXMAetnGesfAw7XAvvTgP1BhvNdjC02BujmyUQT KpV8fK1WW6Ver6+cEI0r996ctmJSbnA90OUX+d8rlr+WxhHRuHq9vnKtVlulUsnHdzi32sD/LhGN S/J8bGtfzxXLtXpxe0T5BqJcjiS3opWHyl1Ehv74qUujhutoR8NVw3XEiQvvy/sqsrwILI+B9fcC FdeC9acbWxwJzn8CuOcDhnPpJKos4anUv0PI26bZ9IAo2wCFw4DkErTxZuT4gO7U1M5quI52NFw1 XEecA0L1VWSZhy48jhxuMewvNuRPAfJfM1R8KqNiI8O5ZN3d2WSiCW/xFJq/p2Xrr287YJtNDxnG rYHka0jyR7ByE3J8ADVc21gN19GOhquG64izP1zJyVxyYQ5xuAtccS5Y/x1D+R4Z9W6Vkl/bmJ60 xtwxmWhC+Zj2LdEfrP2Pit92wDbZQ4Z+a2Pl0NYa2ZuA5X4N13ZWw3W0o+Gq4Tri7B+xkgtzyIXZ 6PxfkIvjDed7pNS9dmptT5blnUkZjkvCcsmCYB3X+mv/CHapabKHjPxWxsqhwPEiYLlRw7Xd1XAd 7Wi4ariOOJFlJjqZjhweQhf+jex/Q1wcjOy3blJvDpA36/V8clIG4yLkYzs63GpdXd1rNBquRlQg lf/OWikW6xjTu36K+fuMKTZuQu//pJi/LyO/oTFhfWPyd6fU20fUm6dpMMYU1Wo1rJq8yeh2QLge AhwuRJYbyjpEDdf2VcN1tKPhquE64kSW54nDvcjhWrT+d+iKY4iLnTPqeW+a9kyt1/PJrRvcawKv o8OtBpA3EXsKxGIdRL81ULE7kD+otZ/kUcD+OLRyPNrwfSD5LpA/jsh/myj8L1r5HFi/G9hic4B8 rfKk3qh/dvFiAzZ1wWTOb2WsPwRY/qDhOhLUcB3taLhquI48WZ4iltvIhXPRFj8AW+xvqNgEoMfW arVViGhc8jqPhLu6utdA7CmIio2IerdHW3yJ2H8XrT8frL8EbfhzWT4R/0Yst7V6iG9G8tch+d+Q 9T8D8schyr6GwocBoi2X3Gz0uu9nUxeMcWFL4/rDNdwATsO1vdVwHe1ouGq4tr0LL7uJ89DFB5HD ZWT994jyvRF7tjamCLUadyzmlBiTJMkKWZatVK2GVQF6LFGxCVq/K9rwVbL+p2T9JWj9Pcjh8fJx s8xs/dxXiWUu2TCHbHiJbLgXrdyMHC5GK8cjyr4Asl4Vw5Rm00+q19deOVlMqC8I1/BVYLkAXbi+ Fa7PD/WxVZdWDdfRjoarhmvbWwZrnEcc5yDLTGK5C62cBywHEeVbIhbrNNkDLXa5TT528mSakKY9 U9M0mIyKjZD9p5HCN5HDL8nKJWjDrcTyKHKYTiwvkpPZrZ/7KlqZRyxz0YaZyPIYsvwbOdyCLGcj xW9mGHZsQN+aNRNcFcOUer2+8qKfYH64cjgYnPy+dU7+R8O1ndVwHe1ouGq4tr3lCDLOQY6vEMsM snIrWfkZkOxOFN4F0GMRcbHBVqvVVsmyvDNNi556Ft4DNn4cKB6FLL8mF64nljvQhQfLC0Je6t8O rvVz54+WiWVOubuOPIEsDyDL1Wjjzw3GL6Uo2zRMWL/RKHASwMRFP0PqgjEUPrxQuLKGa3ur4Tra 0XDVcG17WxuLzyyDNT6DVq5GG482JJsATJtYztjNxyaLWTIzCWBivZ5Tw/gNUgjbGoxfBSvnE8c7 0cWXiWUWOZnT+hn9xRT/LX/uQk1Q/21tETeXnMxGjg+gjX8GlJMyjAdmGHZsop9WxTBl0c/QH67A 4X/Rxd+hk2uR470aru2shutoR8NVw3UkOAc5voAsj6ON94KV36OVQxHjum82maizkyppKn1NE7bL IBxgSH6INv4ZWR55O58JOT6FVm4zFM/JIH6v3L7Ob1CvS9ein2H+Y2Ebvwosf0AXr2/NFtZwbVs1 XEc7Gq4arm0vssxElifRyt1g5UZjwy+A4gEAxZpvtgymXueujPyGBv2+gOH7YMM5yHIbsjz1tj6T k+nA8i+wchlgPNOgHJqi/5AxPemin6HJHpDj1sDyNXTyR2C5CV3UEom2VsN1tKPhquE6ApSXwMl9 wHITsJxvbDg6s37XJkmevIUCB0S/NVj/HWR/MXC4CZdFOxLLi2jjo0ByO6BcY1BOMCQ71KHHLvp5 GlQgWPkIdcsR6ORydHIrsjxUbug+1MdWXcpzUsN1lKPhquHa9qKLL6CLd4ILl5nucErG/qDUhm1b QfbGFwD7buR8F+Til8T+LrT+QeLwbP9ym6X+TCyz0MpzaOURpHgPkJyO6HdtNvPeZJEddRBzMi5s hy4cSd3xKnLxb+TkYXLy4lAfW3Vp1XAd7Wi4ari2vcjxOeD4d2C5wLA/zrDfN7XF5qkL5nVOg/nl +8YUAdnviezPRusfRA5PEMsL/cttllqOs1uj16fKgJWLgcLhhsJ2TfTTUurty2wejSsCWNkCXfgy Ofkpufg35HgvufgUcnxlqI+turRquI52NFw1XEeA8ixyvNmwnGWsHGIw7JKivK+LQn0xp8BySZKs QETjqtXqqobzd6MN+yGHC4nDs8TyQmvUOvftfKbW7OJZZcDKc2Dlr0hyFqJ8B8h/Hm3Yj8jvAxQ+ CxwOIyc/QyeXlyPW+FRr1Pr2Al4dynNSw3WUo+Gq4dr+cnwaOV4HVn6eQdg/BflImvq107Rn6mJO gTFJkoytVqurZlm2OnC+Hlp/ILJcUYaqzCYX55Zb1i39Z1qw/jXORpZZyPIwWbmRrFyAFE4lKz9D Dj9BG05Cll+hkyuJ453k5MXWiHV2a2nP0B9fdSnUcB3taLhquLa95bKXck2pMeFTWRY2TdPwrmr1 tWtKkyQZk2XZSpMn04RqFacA9P4PWn8IOrluUD8nywy08hBauQMp/AVtuB45XINWriSWm9DJ3fQ2 Zyirw0kN19GOhquGa9uLLE8iy+XGyg9SiJ9IU3lfve7963QJr1CpVMbXatxRq0EzRf8hYH8Estww uJ8xvkIcn0ErD6ON9yLLv4nDXcjyT2S5B118jHTpzQhSw3W0o+Gq4dr2IssTYOOlQHJc0/Rt12zG daemRU9rz9ZFWWHyZJpQqeSdlUpOWea3QgrfJJYbB/dzSjnBiWU6sjyFLE+gk8fLzmJ5Ejk+rxOY RpIarqMdDVcN17YXnTyOLBcDybebIFtMbfStWa/ntHoWV3/tGTBtxYkT/aRarWhUq6FoGtnBYDga Of5lUD/jwB7icrJUv3PIxbn99YpDfSzVZaWG62hHw1XDte3tD9eM5Ftdadx8atNPm9IocBJMe01J fpLkYydMyCfXanmzWvW+kclHDcZjBjtc1dGmhutoR8NVw7Xt1XBVh58arqMdDVcN17ZXw1Udfmq4 jnY0XDVc214NV3X4qeE62tFw1XBte9HJ42DlEmPj0Y0sbt2Vhfd2dQlPbPpJizkFVpw0CSZ2dLha rRZcmspHgORbxHLTUP8+1JGkhutoR8NVw7XtRZYngOWyjML3Gpl8tNHwG3Q2Je/q6l5jMafACpVK Pr6zkypTp/akKRSbGytfH+x1rupoU8N1tKPhquHa9rZKJK4wJCc0jezc1Qz/U68X4XVKJJav1Wqr ZFm2epqmU40tNgaSr6GL1w/170MdSWq4jnY0XDVc217k+BTYeBWgnJyasEc99R+qvUH9IRGNq1Qq 47u6utbIqNiIOByMLFf3rzVt+d+h/n2p7ayG62hHw1XDdST4DLLcYFhOTTF8qYHy0SbIeq9zQi2X JMmKWZatVKlUxmfU815w4QB08SLk+Fy5G43M0tJ89e2p4Tra0XDVcG170cl0dPEWY+M5GcsRKcnu TQ7/U4O8uZhTYLmktZcrEY1LqbcPnOyFLOeRi4+Qi0+3tnubM9S/L7Wd1XAd7Wi4ari2vcjxOXDx 78DxAsN9xzWtfC618Y02S1+u5Rii3hys7EZOTkcX7yYnD6OT6eRk1lD/vtR2VsN1tKPhquE6ApQZ 6OLdwPEq4+TUjONhGYcdjQvuzc6HBhUIVj4CLMehk8vRya3I8hA5mbEsP2PrMfPs1kbsL6GT6cjy JDl5hJw8SixPtUK9tZ+rzNFH0+2shutoR8NVw7XtRRdfRhcfRJbbgONFmYvfNxz3qIP3STlCfV0Q iwaw/wA6fyA5/1PkcCGy/JNcfGYZf87ZZWDLs+jiY+jkX60gvxqdXEsstyGHfxHLI8TSejQt+mi6 bdVwHe1ouGq4tr3oZBa6+DQ4uc+w3Ja5eIZh+WID+tZMkmRM8gYBi4hTELunIec7oiu+jM6fjByu JiePLtvPGF9Gjk+iiw8gx38iy2XI8mtw4URk/2Ny4RzkcBlxuJ04/IdYntYt6NpZDdfRjoarhutI cC6Wj1OfBhcfBI4XZRwPSzGukyTbL5+8QcBmWbY6QI8l6t6IXO8OxMXhyOHC8pxYlp9RZiDLQ8jx TnTxeuB4JrA/znDxRWB/EFn/PbT+TMvhmjJg5ZHWxKqhPrbq0v15a7iOcjRcNVzb3nJ9anwFOT4P LE8Cx6uA5buG+rass3TVeFpHpZKPT5JpKy56PlQqlfFdRPXM2kjUvRGy/zRw+BGxXIpO/tUKxKeI 5SVkmUkcZ/e/C12wR6u8Sk7mIsdXiGVGOXtZHkcn9xPHO4nlr8hyNdr4O+B4GnD8ITo5FFz4rHHF DoaLnYn9F4j9t4n9aWTlUuJwJzl5dqiPrbq0ariOdjRcNVzb3tYm47PLgJUZwPJX5PhLsLJX2h3X aWAo0rRnarUaVl3MCTEuy7LVu4jqAD3W2GJjw7IvshyLLGchyxVg49/AxseQZTqxvEgcZ/f/XGSZ hyxz0YZZyOEZtPIwWrmbWG4iK5eQldOB5YfI4ZuG5YuGwx7GyQ6ZC5saDuunFN6FLl+XyG9FFD6F NnyVOPwfsVyHLj421MdWXVo1XEc7Gq4arm1vOYKM86h8PDwbXbwbXfwtOjkEusO2xvoN6pgTACxm l5xk+aTV2JRl2erNcmnOFpmVzxgrXzckp4KNf0KK9yDJ48gyvTXjtz9c5yKH2WDDy2jDI2TDnWTl JrLxd2jlx2j9Icj5nsb57dHl708pvAsgWmN60oZztU6iSpZ1Z4h+mrXFxkTxE9aGI4nlYnTxgaE+ turSquE62tFw1XAdebI8jE6uRJbj0YX9oDtsm1J4lzFFNVnw/nWx72CrGKakJH0ZyQczjp80Nhxp KP4SKV6HJP9AG+9Fjo8hx+eI5Vnk8DRY/yRY/zBY/zek8Gei+Dui8COicDByvqPh3vWNc6HO3FWt Vl8zeu5wbjVjelIi6UMMm6KNByLLb4jjvUN+LNWlVMN1tKPhquE6En0GnfyDWC5ADqcAy0GGwpZN knz11bPVy8fD+dhkMQE7mWhCmgZjuE8y6tsww7CjobgPonwDSI5DkhOQ40+Q4y+R5edg/U+Bwv+B 9ScbG44BCoejjQcShU8hFtsg5uum1vYA5M16PZ9MROMW/ZnNpp+U2qIno2Ijw2EX4HAUOvmjjlzb WQ3X0Y6Gq4brCLR/Zm64DV24Amw40VDYowmyXkeHq622WvcarfevrwnXLMtW6urqXqOLQr0LhAGK NTOKG2XktzLktwcbPoYcPkkufAqs7IYcPmkw3wXIfwJs2NZQ+DCRfBAxrptSb1+DCsyyvLNezye3 bqorLPoza8wdmc1j0xZbZLbY37A/AV34M7I8MvTHUl3Kc1DDdZSj4arhOgKV2cRhBnJ4Ap1/EGy4 wFA4uGnChyuVHtvR4Wqrr56tnpSPiBdlTJLkY+v1+sqVSj6+2fSTOqmv0mi4GmLRMKYnbbKHcvlO gU32kGXdmTE9aReFeqPhasYU1a6u7jWyrBwlZ1m2UmukvHyy2EDPOzPqeW/G+Y4Z50cY9r9ADjeg k8eH/liqS38OariOZjRcNVxHnK2lMXOQw0x04WW04VZD4ZQU5AvNZrFFLS3WmZoWPbUad1Qq+fgy /JLl3+IpNKb1a1do/fUNSyoGsNyAf3fFjg63WldX9xpp2jO14Yo1jfPbZ84fmLH/uXHhYmS5Q5fi tLMarqMdDVcN1xFnOYs3ziMns5HDLLRyD1C4yKD8OAM5KEO/a5aFTZvNvt5arWjUatxRr9dXfoun 0MCQfMPJUYswJkmSFZMkWSnp6FhtqjFpHbp9E/N1Mxs+ljn/FbDhROBwObhwK7I8hMu431h9J9Vw He1ouGq4jjgXlDvEeWW5gzwJLLcbG64yJKcbDN/MUD7Tlcr76qYInVnMJk+mCUtwGi2XvPVQ7Wf5 JElWSiqV8eM7OytdmY0NKjYxrtjJOH+oYfkxcLgIndyNLA8jy3PIujNP+6rhOtrRcNVwHQ3OBSuv gA0zwMo9xsofMpLvNo3s3Gz2faDL9ElnZ19lkE+9FZNKZXwyYcLk1adOTRtZ9webtvczGeffQufP RifXkpP7hsGxUpeJGq6jHQ1XDdcRb1mPKLPAystg5RFj5QZDcnZG8aiM4gGGZGdDsgminwbgvTHB pS4YolBP056piGFKvZ5Pbjb9pLKLGCYS0QQAmNhs+kld3d1rEFHFmKKapj1T63XpKtetFpimRQ+A 9wD5WhkVG9Wx90NN6t0htcWXDIdjwfnT0cmV6OQf2sg0ktRwHe1ouGq4jnhb9YhzkWU2WnkOWO5D K7eilT8alrPAyknGyjcMyxfRymeQ5aNg4+ZEcSOi8F4i6Utt0QPQzYg5NZvlDGGiAjPmbqLe3HAu APlaRH5tY8L6reU4WxPJTohxTyL5ApA/Asgf9//Zu/MwOaqqf+CVPZA9mckkPd1ddc8599zuqap7 7iSAoGFRiAKyb4qKQURfFhVZXlFRVAQVFAVZfGWJyovbq+LCJqC4ALIom8iLr8gi+yo7hAT4/f6o HrIQkgCZ7pnU+TzP9y99gDPdXd+u6qp7DfnTwPqfAftLgOUadPIPcnIvcni8038rzdqKlmvZablq ua7zWfY3WGRZhByeQJal278Vu9ScV+xUE04GliPRykeJZS9k2Rmd3xpY5iXWvwkg2yCmvn5jMo/Y mIvYeDNRY3Njm/PBZtuBTXcF8Hsihg8j+sOI/DFEchKRnIXWn48slwP7G9HJP1p70D5QfNjkaXL6 G+u6Ey3XstNy1XItdVq76TyEHG4FDjcAh0uQ5SxiOR5tOAKt/xg5/0Fy+e7I+U5gs+0Q/dbGZPPB Zu8Em+4KNt0TOV0ANtsPrD8IKD+cyH+JKJxKJD8mkovQyjXEcjuy/JtcWNIq+heR5aVO/w00gxEt 17LTctVyLXnkeeTwRLFFXLgDWf5KHP5QLJ0oPyQnC9HJt4jleHT+OGL5CrI/Bq18kTj/MrL/Gjp/ AhU735yGVr5DVs5GK+cUu+KEP5ENN5ANtyLLg8XWdUuLVct1XY2Wa9lpuWq5lj1LBvaCJRceQQ73 oAv/hy7ciByuQSdXkAu/Rw6XkJOL0MmFyOECZDkPWS4klouR/W+o2Cjgj8hyBbFcRSzXEYebicM/ ieVuKor1yeKy9NJi1XJdV6PlWnZarlqupc7S52HDYnKyCDk8W6xNHB5rrZD0MHF4CFkeaG2Afj+6 cF8Rub/1m+kDRXmGh4jDw1RsHPBv4vAEOXkKXXiGim3qFrfOWl/Scl3Xo+VadqUr1zqlfYby3YH9 55H9L5C1XDUazdqOPE8s9xDL9cj+fLD+VKPlWiolL1f5ObJcgazlqtFo1mZWKFf2pwD5AwC0XMui pOXqdwPyn2uV6+VarhqNZu2mKFdguR5YzgOWk7Vcy6XE5SpHgpVzkOUyYrldy1Wj0ay9yPPIcg+y XAdWzkWSk4D8/gDZBlqu5VC6ck2SwItO2AAAIABJREFUvIGY7wQknwTrf4AslyKHW8nJU53/QGo0 mnUj8jy68C9iuRqs/BRJvmbI7xuTn6PlWg6lK1cAYbCyHZAcAlYWopVfI8vfiXV7L41Gs5bCsqhY NCRcAdZ/H8kfg+wXGE7lNWxvqIax0pVrjTJMSN4BFA4ADqegDb9EDn/TdV01Gs3aCrI8hxxuRRt+ ByxnoJXPIPt3I/osSZLxg36gUx1XunJNkpAgylvBygfQhuOQw4+Jww3I4TF9/lCj0bzeLH/8CM8S yy1o+3+NVk4EkkMQZeckyRtaruVQunKN4+bsOuZzwcp2YMNBwOEU5HB5sb6srpyj0WheX5Y5drxI Tp5GluuQ5UfA4VNg+/dMqH9zY/rjKErHDvqBTnVc6cq1t7cxwxjv6hjeEtvwHuRwDHC4BF24T9d8 1Wg0rzdLd1+SF4v1qsOfkMPphsOH6jbMj0n6kySdFUXR6EE/0KmOK125Tiea3Eu+Wqf+vroN840N /wlOfoUsd1Ox5+eLuluJRqN5rVlha8PHkOVSYPl6zLJzhfycGmVYr+fToigaNegHOtVxpSvXarW6 XrWaTu8lX62Q9CdWPgBWzkQOf0ErDyCHx4uF3OXFTn9YNRrNcIosJg5PEMvDyPL34pKw/1SN/aaz kpDMNFlPT4+fEEXRyEE/0KmOK125RlE6trs7ndjb25hRxTmUYNgJKHwJbfglWrkOOdxBLI+SC0s6 /2HVaDTDJ/I0sdxFLH9D9r9B608wnH+ol1PpQT9zahKmRsXNTCPacKBTHVbCco1GRUTjKpW563cn 6Sxj880A/EFA4VSwch5YuZ5Y7iEnz3f+w6rRaIZLip2Q5G/E/lLk/DvA+SfBZrvEzpvu7nRiq1j1 99aSKGO5LjN8Mj6OsyaA39UYfxiAnAw2XNy6pPNcpz+sGo1m+ASd3E/s/0Dsz0KbHWFt+h6ifJMk Saa29cCmhoRSl2sUpWONacZJkm+O6N+N6A9D8qeRlYuQ5e+t/Tofa/0Gq8/AajQlzkqOAYvRyZPI 8iC68C9guQrZn4Uu/yJxthdwvhVRX9rdnU5s84FNDQElL9do9KxZ/d31uqQAMs+Q3w2tPwLZn0ZO LiKWG9DJHejk38veRazlqtGUL8s+x4osL6ILz4AL94GTm8CFy5Hlx+jkKHL+g0TZFoZTQcxqumhE OZW9XEcM3D0cx83ZiD4j8rshZ4cS5ycR+3OR/Z+XPqaz9DnYTn/QNRpNe7PCc6wvIMtjwHKLcfLr hMN3YydHgQvvBZZ5zNzbaDRmtM5a9dGbEip7uUZRcefeyCiKRjcajRlEzY3JZXugzQ5Dl/8XspyH 7G8szl7DE+TkqdZl4ueIZRE5WVTc/KTRaNbJFIvwL0IOz5ILTyPLk61ivQNY/pi4sDC2clTMYd8q 9W9e5xyi4salUZE+dlNaWq5Ly3UUEU22NmsS5ZsT9e1OnB+Czh+HLGcBy29ayyT+hTjcjBxuJZbb 0YU7keVuYrlnmdyr0WiGZV7+HCPLPa1t424nDv8klluIww3Fb6tyKbCcAzacmrB8smbD3jH3b1N1 mY/j5uxoabHqYzclpeVaGBFF0QgiGoeIM5lzMC7zwH5L47I9Eiv7JSxHIsvXkMPpyPIzZLkQWX6L LH9EliuJ5WpkuaaI/7NGoxmOKT7DxHI1FJ/py5HlUrLhomIHLTkLOJxsrByVsByccFiQoN+6xmHD CueNOG7O7nJu0sAxpVMHNNV5Wq7LG0lE43p6/AQAmFKBtF5Dn8XUv0ndynaJDXsbGw5Dkq8hhdOA 5b+R5X/Q+l+ClfOQ/fmtXKDRaIZtzgeW88DKuWDlp2D996nY+/lEoP4jgcIBMcvOVQpbxOTnxM6b 3kZjRpdzkxJ9llW1aLmuwrJLJc62c5p1kHmG+ndADB8CkoMN+08D+88D518GK8ei9ceh9V9Fp9Fo hm2sP85YfxxYOdZYOQptOAJt+E+g/v0TlHcZG+ZX3RyvSxqqVdFyXaWlSyVWMKvFdk7TsGxkSN5u yO9gyO8G1u9pSPZC9guQ/QK0+d4ajWaYh/2ChP0CsPl7DIXdEWVnxP5tAGReYkOYlYRElzRUq6Ll umovL5U4NQlTZ5qsByCtAwgTSWpMKjFJP0C2AUC6IUC6IbBGoxn2gXRDgGyDmPwcw6kA5HmS5I04 9qZW66/U6/k0XdJQrYqWq1JKKbWWabkqpZRSa5mWq1JKKbWWabkqpZRSa5mWq1JKKbWWabkqpZRS a5mWq1JKKbWWabkqpZRSa5mWq1JKKbWWabkqpZRSa5mWq1JKKbWWabkqpZRSa5mWq1JKKbWWabkq pZRSa5mWq1JKKbWWabmqMhsRRdGoKJo7JkmS8T09fkJ3dzqxy7lJRDQZAKYsn7krZPn/fTrR5O7u dGJPj59QrVbXi6J0bPHPj0ZEupm2UqWi5arKaGRUbHA9dmqSTO3t9VVEnxH5jY3NNwPOtwLOtzXk dyDyO5DLdywSVki+Izm/gyG/gyG/vSF5O1HYAjG8xZhU6vUcensbM6IoGhdF0ZhoadEqpdZxWq6q bEZERdGNj7q6Js1KGkkc55sg+ncTycFo5TNo5VhgORmsnElWziQnC5HlO8hhuZCTheTkTLByJrI/ DUm+RixfQBs+gejfb0w2v2Kci6ZPnxxF0fpRFI2NimJXSq3jtFxV2YyMomhc1N09MZo8efrMqvNJ ku+E6I8gkoVo5Wdkw++J5QbkcCty+Cex3EZObkcX7lg2xHI7sdzW+v/cgiyXow3now0/QPRHA+Qf qBreKJo0qSuaNm1KFEXjo+LsVSm1jtNyVWUzZurUZGpXrVaZUUkaNdN4uzH5gYjybSK5lKxcixzu RJbHyYUlyOEFZHkRWV5a8Y2MLC8V/1t4AVmeI5Z7yIabicIVSHIWYv7ZWtK346w69c2alSSTq9Xp UZSM7/QfQCk1+LRcVan09PgJ9XoOcZxvYky2B1B+CKI/EUkuJBtuRpY7iMPD6MIzyxbrqstVXiQn i4nl0VbB/gNZLkXrv2vIf7pusvfVTTY/SfJGvZ5P6/TfQCk1+LRcVakkSZgax9IPILsg+iOA/KlI 8nOych2y3E8sj5KTp4nl+WWLdRXluvTstSjkx4nDQ2TlZrTyGyB/BqJ8EUD2iSnfJEnSWZ3+Gyil Bp+WqyoVov5uorAFUTgAMXyXrFzUuhR8H7mweMVLwWtYrsuVLLmwmDg8TCy3EMmlROEnROHzAGHb JAlJp/8GSqnBp+WqSiVJ0lkA+bZo5TNk5WK04cbWpeDH1+6bXJ5GDveRlb+RDX8ikpOJZA+Apu30 30ApNfi0XFWpVFl6kWVnYvkyslyDLHcgy4PowjNr803eusHpUbThX8jyd2Q5C9m/P+G80em/gVJq 8Gm5qlJBzGpg/Z7AcnJRrOGJVrEuXstv8iXI8hyyPEksj4KVX4GV/RB91um/gVJq8Gm5qlIxphkj +/cXCz+Eh2npb6yv+E31DZ65Lvsb7BJk+Q1a+ajhVDr9N1BKDT4tV1UqA+VKVs4kDo+s6jnWtVWu rX/Hb9H6j2m5KlUOWq6qVFrluqC1dOGjq3qOdS2U68vPwbaee9VyVaoktFxVqQyUK7J8B538e1WP 2qylci3i5FJw/iAtV6XKQctVlYox/TFyWNBafH8w3+Qr5nfgwkGG+7VclSoBLVdVKlquSql20HJV paLlqpRqBy1XVSparkqpdtByVaWi5aqUagctV1UqWq5KqXbQclWlouWqlGoHLVdVKlquSql20HJV paLlqpRqBy1XVSparkqpdtByVaWi5aqUagctV1UqWq5KqXbQclWlouWqlGoHLVdVKlquSql20HJV paLlqpRqBy1XVSparkqpdtByVaWi5aqUagctV1UqWq5KqXbQclWlouWqlGoHLVdVKlquSql20HJV paLlqpRqBy1XVSparkqpdtByVaWi5aqUagctV1UqWq5KqXbQclWlouWqlGoHLVdVKlquSql20HJV paLlqpRqBy1XVSparkqpdtByVaWi5aqUagctV1UqWq5KqXbQclWlouWqlGoHLVdVKlquSql20HJV paLlqpRqBy1XVSparkqpdtByVaWi5aqUagctV1UqWq5KqXbQclWlouWqlGoHLVdVKlquSql20HJV paLlqpRqBy1XVSparkqpdtByVaWi5aqUagctV1UqWq5KqXbQclWlouWqlGoHLVdVKlquSql20HJV paLlqpRqBy1XVSparkqpdtByVaWi5aqUagctV1UqWq5KqXbQclWlouWqlGoHLVdVKlquSql20HJV paLlqpRqBy1XVSparkqpdtByVaWi5aqUagctV1UqWq5KqXbQclWlouWqlGoHLVdVKlquSql20HJV paLlqpRqBy1XVSparkqpdtByVaWi5aqUagctV1UqWq5KqXbQclWlouWqlGoHLVdVKlquSql20HJV paLlqpRqBy1XVSparkqpdtByVaWi5aqUagctV1UqWq5KqXbQclWlouWqlGoHLVdVKlquSql20HJV paLlqpRqBy1XVSparkqpdtByVaWi5aqUagctV1UqWq5KqXbQclWlouWqlGoHLVdVKlquSql20HJV paLlqpRqBy1XVSparkqpdtByVaWi5aqUagctV1UqWq5KqXbQclWlouWqlGoHLVdVKlquSql20HJV paLlqpRqBy1XVSparkqpdtByVaWi5aqUagctV1UqWq5KqXbQclWlouWqlGoHLVdVKlquSql20HJV paLlqpRqBy1XVSparkqpdtByVaWi5aqUagctV1UqWq5KqXbQclWlouWqlGoHLVdVKlquSql20HJV paLlqpRqBy1XVSparkqpdtByVaWi5aqUagctV1UqWq5KqXbQclWlouWqlGoHLVdVKlquSql20HJV paLlqpRqBy1XVSparkqpdtByVaWi5aqUagctV1UqWq5KqXbQclWlouWqlGoHLVdVKlquSql20HJV paLlqpRqBy1XVSparkqpdtByVaWi5aqUagctV1UqWq5KqXbQclWlouWqlGoHLVdVKlquSql20HJV paLlqpRqBy1XVSparkqpdtByVaWi5aqUagctV1UqWq5KqXbQclWlouWqlGoHLVdVKlquSql20HJV paLlqpRqBy1XVSparkqpdtByVaWi5aqUagctV1UqWq5KqXbQclWlouWqlGoHLVdVKsOoXEe0Mioi GtfT4ydMJ5pcr+fTqtV0em+jMYOov5uIBj2zlkmFuau3tzEjScLU6USTu7vTidVqdb0oSsdGUTTy db4sA7OOTpJkfE+PnzANYMrArBXmrnbMSSvMWWHuqlbT6QOz9vT4CUmSjI+iaEzrv/f1zjoyiqLR 1Wp1ve7udGKShKn1ej6tt7cxo9OzAsCULucmVSqV9YloXBRFo1/nnEtnTdOxlUpl/S7nJiVJmFqt ptM7OmuFu+r1fNrArNVqdb0oTcdGUTTqDcz6ClquqlSGSbkWpRpFY6rV6no96GfGzps6SVrHfG5i /ZvQhbcQ9W9OlG9OlG0xmEko2yKhfPOE8s2NzTeLMbw5Jj+nhj6rYkpVlt5qNZ0eFQfj12pkVBzA x3R3pxPjuDm7RhlWXeZrrn+DhPzGwDKvmLN9sxqbb2Zsvlli/Ztikv46pX2x8yZJ0lkAMCV6faUz Moqi0WmajiWiyVWW3l4Qjkn6axw2jCnfxLDftB1zrmxWY2Qjw6kknDeMacaIfmaXc5Oi1/6laeAL xJg0Tcf2NhozKpDWY5s1Y/JzDMtGMYY3G5tv1r5Zl75/AWReDbINAPLcOO8qmNWKLxfV9V7Ha/qq tFxVqQyTch2ZpunYarW6HgBMqUKwVevfVOV8m7qTPYyT94GTfYjDAcS+lfzAwYrh/EAgfwCQ3z+x sh+Q7GPI7xZzvg2wzINGngOk9Z4eP+F1vCSjiGhctVpdr8LcVae0r+7CW+rkt09Y3mXYv9+w37cd cy43q5X9Eiv/YUjeF7PsbEjenpDfOLZZs+ZcpXUG+1qMiKJoNBGNq1Qq6ydJOqvqMl+lsEXMsnNi /Z4JhwVo5T/aNStw8ZoOzBrb/D0J5TsC51uByzYACBbRz4xe+xeJkdHLVyF6JsTOm5j8nDr3b1Wn /t1iCu8FKx8AJ/u1bdZl3r8G8w8lKO8CK9vFTt6a2BDqnEPrS9Nao+WqSmWYlOvoarW6nnNukjFZ T3FQ97vWrXw0YfmCceE4ZDmpmEG+g+y/28r3BinfBSvfAStnGpIzDMlJCcmRifUfg0b+HmC/JTTy vF7Pp73Gl2NEFEVjWpcgJwOk9YTyzRPr94xtOCx2/V80LMeDDacWc74862DNucKs4XRjw1cN+08D +wOM87sZm29mnHfd3enE1zjryDRNx/b09EwAgCmIKdVtmF+zYe+Yw6cTDl8CG76BHE5r02s6MOtC oGLWhOTLiQ2fMBw+bJzfISG/cZ1zaF3yfy1GEdG4NE0nJkkyNSbpr1vZrs7hw3UOn0tYvmKcnEhO zmzbrMVrutCQnAEo3zJWvggsh4CTfWLOt6ljPteYrOc1zrlKWq6qVIZDuQ4UDWIzA07ngcvfa6w/ zLAcn3D4rmH5EXL4BblwEbFcTCwXI/tLBjNg5WK08mvDciGQ/BysnAnWfwOdfNaw3xds9s4aNrOZ xvTU6/VprUtsq/sNa3S9nk+rcw6GU0Hn35Y4+UDM4dMx959kWM5CF/4HnPxqYM7BnpVYLgYrF6GV XwOFCwzJjwz705Dla+DkcMP+/cZm86vQtD09OHMawJTW5fBV/gZLROOYuQugaYmacxLnt06c7Jew fCHmcJpx4Wxw8lPkcH7bXtOBWVkuBAoXgJWzwYZTgeUrwHJwwv7dxuabzTbNuFLhrunTafKaFO3A mXnCecNwupFx+e6J9R9LWL6cuLAQOPwAWM5BJxe2c9aX379WzjUcvocsJ6HzRwP7A5Bl55j8nDhu zq5W0+k9PT0Tojf2e7OWqyqXIV6uI6IoGlll7sVG9maw6a6G8wMN+2MM+9OA5Rxg+S2w/BFYriIO 1xPLQG4YzADL9WjlOrRyLVi5Cjhcgi78klz4Pjp/HFh/kKF0+xqkG1aMc7NmUXcUvepvsCOiKBqR JMn42HmTULYFWL8nOP9x4/xxwPId4HAeuHApunA5cbh6mTkHe9brW7Nei1auBZbLwMlFyPJzcrIQ rXwRrOxnKHt7HDfn1GoZts7YX+2LxIgoikYQ0WTjvEsofQfafG/j/H+C898AJ2cbFy5CF36PLlyB LvylnbMiF68pcvgL2vB75HABOfkpOvkvtPJZsPkHkqSxRdU4PytpJEXBrvr9W2HuMi7zhtLtDecf BvafB/anGJYfA4dLgMMf0IU/oZNr2/r+bc0KLNcgy6XAch668D/o5ES0+ScM+d3iuLFJvd6XxnFz dqVSWX91x5NV0XJVpTKEy3XgJpBRRH2p4Wwv47Kjgf0PwMlFwHI1OPk7uvAv5HAPunAfcXiQWB4k locGM1jkwVYeQA73tf47/klObin++/wZCeWHx9D33jr0bVnFlFZx6XREFEWjnHOTgNMNE5v/B3D+ dcP5/wD736ILf0EO/0SWu8iFe9DJ/a05OzCr3IMu3IkcbiUO14OVXxn2pySQfrxu+navmb5NK5DW X+WM7uXXtLi8n28OnB8MLv8v4PwcYP8H4HBD8c+Xu8mFe5HlgTbO+uAKs95NLLejC/8AlqvA+p8Y yo9PINu/lvTtWDXpRkmSzlrd+zd23sScb2OsP8KwPwvYnw9OrkCWvxXvG7kbXbgPl87Z3lmd3I8s dxHLbejk/4DDH4DlvxPKPpdA3wdi7NumXk/7qtV0+ms4tLyClqsqlSFcriOjKBo1d+7cMcUdsvkn jfM/Bc5vRvZ3o5N/k5Pn2/jfu8ZBljvQ+t8nmH47gb5PJZDumSRpSJJk6krmfPlRlHo9n2ZsNt+w P8a4/CJg/3dwch+yPIEcXuj0XCuZ8zlgf4ux/tcJZicmkB4cY3PnJOHGq9zg9PKsAGkdbLaL4fyb xuV/As5vRZYHycnTnZ7rVWZ9DFhuMJT/IsH02ASa+8fYt02SNJJXef8O3OE+mqgvTdgvAM6/A87f BE7uRJaHkcOznZ5rpbM6uR+sv8pQ9r0Y06MS6PtAkjQ3XsUXiTWi5apKZYiW66hqtboeEU1mntuV kLwD2R9jnP81OH8nsjyETp4kFxZ3+kD0Kgfi+9D664Dyn8eYnxRj/pE6pm/p7W3MeOWoc8dUKnPX T5IwNXbegPW7Gs6/CewvB/Z3ofOPkJOnh2K5EssiZLmzOBDnP04wPzaGbJ847utfyWMcI4obmPyE ajWdDo08R5vvXVzy9jci+3vQyb+HauEQy5No5R9g/R8N5cVZHabvNsa5lbx/Rw7cwNRoNGYgZm82 nH8EnP8JsL8d2D+ALI+jk0Udn2uls4ZH0MrfwObnJ5SdmWD6iTrkW1Uwq72RY42WqyqVoViuRDSu Xs+nMUsvc94A6/cE609F9lei84+gkyeR5bkhWTju5bOcO4D8nw35cw3KFxOSd6zs7stKpbI+M3cl SUgAsg2Q8w8hy1no5CYozs6fRieLkOXFTs+1kixBlofByq2G/JWJ9T9MKD+8julbVvIY0sju7nQi op9JlCFR2AJYDkaWc8DJHcjyGDp5hpwM1S9MzwHL/WD9Lcb6ywz50w3lBxqTruzL4RgAmBLHzdkA wRL57dHJZ4Hl4uKMVZ5ofYlY0um5XmXWp9DK3cbK9Yby3yXkvxFbv2uNMnwjxxotV1UqQ7FcizO5 dBaAMJHfuHjWUf4bndyELM+1LgcvGaKF8/+Qw7PA8ihYuQtIrk3InxqD7FKtSu+KsxLRZCJfBchz 4HwrZDm0dbPQ7a1ZFyOHF5DlpU7PtZI5X2gdiB8yVu4wJL8DlGMB8q26utykFUYdVa/n04zpj4mk HzHsRBw+hxwuaf2uu4hcWDxUvzC1/tueACsPGCu3GZJfGfRHGCMbreQ1HVesFpYhQP8GROG96MJX keVK5PAsDvn3rywCK4+BlXuA5FZDcnaCfkEcZ803cqzRclWlMhTLtavLTQJI60kSApG8HW04DFnO IQ7/7PSBZw2zBFkWAcvTYOUusOEHYMN7ANL6irPW6/m04kzOb4woOxOHz5ELF6GT+4fAHKsMsryE HBYjy3Ng5SmwchNY+RbY8M6VLEAwmqi/2xjvjPGbEsleaMNXkcMV5OSpTs+yBrO+iBwWgw3PgpUn geRyIPkKgMxb8TVNkmR8rdZfIZIUUd4KVvYjG04lDjd0eo41mzW8gCzPgw3PgA1PgA3nA/n9AfL8 jRxrtFxVqQzVck2SkMTk5wCEbYHkcOTwc2K5rdMHnjU/OIXFYOU54HAfsvzIkLxvZeVarF8bLIDM MxR2RytHtc7mHuj0HKufU15a5kD8LNrwv8bKt8HKdisrV2OynjjOmgmFLRDD3sByPLrwp+FSrlR8 aWrNKlca648z7Dd95WtaXa9alV5jMm9MmG8oHIhWvo0cbuz0HGs669IvTeEZtPJrQ+FAYzL/Ro41 Wq6qVIZiuU6fTpPr9RxqEDY0xu9gKHwabfjl8ClXeXGgYJHlQbDhJ4ZlL2Oa8Yqz9vY2ZhjjXZL0 b56A3xMpHIMsvxk+5TpQOmEx2vAP5HC6Ib/9yso1SdJZ9bqkdejfylDYF2w4AVmuHCbl+lLrkvUS ZHkeOVyDLF8zNt9sxde0Wq2uV6lktSQJIY7zbRIIByGH05Hlr52e43W8f58HDpeglY8ap+Wq1Bob iuU6DWBKtZpSb5xvEsd+1wTkSLByLrHc3ukDzxoenF56OU7+jSznIPsFKyvXSoW74jhr1ut+y7qR vYDkK8hyafFYSudnWeM5WV4qXh9ZSC7fcSXlOiaOm7OrJvPVxG+dgOxnSE4ClquH6uM3q5n1OmL5 ekL55q98TSvrzzbNuF7P59aN3z5GORSsLEQrf+v0HK9nVnRyKVh/kOGV3ry1xrRcVakMzXKdO6Va nUO9cf8mddO/W0L9R4IN5xGHYVGuyx+owmPI4efIYYEx/a8o11mz+rvr9f6+er1/q7rpfz9gOBY5 XIochny5vmJWF+5ADt8hF3YEmLtCuc4dU6v1V3pNv1Tj/m0S6N/fUDgZOFxNLgz5cn1FOFxPNnyD qH8l5Tp3/dmmP67V+jeomf4dYgyHgQ0LkcOwKNeVZK3svazlqkpFy3Vwo+U6QMtVy1XLVZWIluvg Rst1gJarlquWqyoRLdfBjZbrAC1XLVctV1UiQ7NcYUoVU4rjfJMY/K4JyZFg5bzhckPTslldub58 QxPkWxn07wcrxw6XG5peMesqyzUaU6u5Sq9JJcZ8mwT8/khyEg2TG5pekVWWa3FDUw2yDWrG72AG bmji4XFD00qi5arUazUUyxUGypXyTcCmuwLJkcTD527hZbPacmXuim3WBPBbGkzX+XI1JvMx5tuA lf2Q191yNa1yNZTuYFgOJS1XLVdVLkO1XBFTiqlRlCvnRbm6dbhcuW9L4mwv4vwr6NbNco3j5mzj Mo8u3Rpsth9yvk6XK2JjrqF0e+TsUHJarlquqlSGarkSEVrb9ybk5k7o8s+Q878aLuU6sLhCa4GF R5DlZ8j+/St9zpW5K2FuoEvfSq7vvcT5l9HJb4dDuS7zLOSLyOGFYpEPOZOc3+HVnnOFRiOnRuPt yOmHkfNvEstVw6FcV5y1tbH5qz7nCpDWiZpzwDbfSZwfTM6fgU5u6vQcr/X921qB67do/cf0OVel XoOhWK5drlhb2HAq1mbzW4vZ/2yYrS38HDp5Cp3/Fzj/fbD5q64tzJwDUXNj5GxnYv85cjJs1hZu bSzwLDp5Ep38Faw/FWz2KmsLU7dxzgGn88hl70Pnv4pOhs3awuTkeWR5ttjVRi4Dli8Dv8raws5V iPpSdOlbwWX7kfPDa21hJ4uydpH6AAAfG0lEQVSKrQ7lcWQ5D5yuLazUazIUy7Wnx0+oOVexNmsC p/PQykeJ5cfowj86feBZo4OTk+fRyVPI8jA4/3dwstC4bI9e8tUVZwWAKcVZTl8/Or81sf8UcrgA Xbiv03Osds7i7Oa5Vtk8BCzXgPMnJM5vPZ1o8gqjjqpW0+l1zgFctgGR343YH4Msf6Rib96Oz7Pq WcMLrWJ9HNg/AOwvMTY/KqZ8kxVfUyIah+hnAjRtsatTvjc6OZFYruv0HGsWWUxOngbnHwXn7wf2 PzOcf6hOfekbOdZouapSGYrlWmyU3t/tnDdE0k/s9yUXzkYnf+/8gWf1QZZnwflHgf1d4Py1rbO5 XarMr9hyrrs7nZgk6awkyRvW5psRy8Hkwi/JhXs7Pcfq5wwvtL5EPATO32Fc/juw+bHA+VZd7pVb zgHAFGbpJZIUOGxLLEeSk0uHQ7kWZ+jyBLB/wLC/zTj/K2P9EYbTV2w5F0Xp2GJDhrRuTOaR5V3o wlfRhT93fo41ev8uQpbHkP09wPmt4PKzE/YLYqtbzim1xoZiuRLRuCQJU2u1/gqAMLK8i1hORpYr iOVh4vAEDqHN0l/x26PzjyL724D91cblvzQ2P8pQ9vaVbZZerVbXKxbvb8ZEfg6R/yBy+C5yuJE4 PEIsTxEPnc3Sl/s9rtjE/UFw/v/A5VeAy7+fuPwTdbfyzdJ7evwEov7uOPbG2nwzsP4gcvLT1m+1 jxa/vcrznZ5xZbO2LpHei5zfDJz/wXD+beD0gFf5HXI0EU02JushyhA4bIs2HEFOLiKWh5DD4+jC MzRENktf/v0rLyLL462fM64Fzn8LnB8PNttFN0tX6jUYiuUaRdHonh4/oVpNp7f2xXwHkf8cWf9T ZH8jstzZKp5FnT4wLT04hRfIyRJyshid/xewvxpd/j/A+dfBZfvFlG/S29uY8cpR07FdXW4SUX83 QLBgZRe0/jhkfyFa+Rux3N06+AyVA/GLy8z6NLLciuwvA5efjZwdk3C6wHAq1Wp1vRUGHZEkyfiB 0rE2BCLZi9ifguz/SOxvQZb7iIfOWezys/pHkfObkf1vwGULjc2OMC7fHaDBK3n/jqpWq+slSZia JOksAJlXPHrkv0fWX0cstyHLg62CHQpztnY3evn9ez+wvx5d/gtw2X8B54egS9+2sp81XgstV1Uq Q7RcR0ZRNCZJkvE9PX4CYj4XMf8QUH48Uv4LZLkGWe4YKneZDhyYkH1xw4vzN6HLf4EuO9q45gfR pVsb59xKLpW2Zp07ZuBSuDF+U7D+IET/LbT5+WTlemK5Z6ic0bXKZjGyX9QqnGuQsx+iy44wru99 6NK3xc6ZKE3HrmTWUVGUjh14VIUofQdR9imk7Htk84vJys3E8lCnZ1zprOzvJc7/QC5fCJweYlzf HujSt9ScW9lBekRUnL2O6+nxE2KbNRGzndHmXyTKf4IsV6CVfwxyqbyW9+9LrWJ9Htk/h5z/E1x+ EXB6PHB6ALm+HY1zvrexsi+Ha07LVZXKEC3X5RBliJjvhJgdRpSdSja/qDgQhyc6fWBqHZxebB2E nyPnnybOryKXnYGcfogajS0Ms8TN5uwkScavas4kScYjNjOAdE/E9LNE2Zlk/e+J/T+Hzll6eGHp XbP5g8j5b9FlJ9pG+h5gnkdEKRF1R1E0elWz1uv5NIB0Q4BsH4DsS0T52WT9lcRyd6dnXBpZguwX IftnifPbyWW/Is6+RK5vRyLaGBoNrtfr01b3/i0Wz2huRpQeSJR/g8j/qnUGOyS+SCy969svQuef QZffhJz9kFz6cdtszsdGYy4A1LvTdOLqZl31+1vLVZXIcCjXWs1VANJ5iNm7gNKDyfpvIPsfkpPf oQt/IZbr0IUbieVvuFzCIEX+hk5uGgix3EDsr0b2lyHnv0HOTwPOP0mNdHtrbSAi7G00ZrzK2dwy 0rFx7AxA35ZE2V5A+eHFZVP5GbpwBRXPVl6PLtyIHZoVnb+W2F/ZupR7LrrsRHDZQcDNraDRyJNG I0mSZGoURaNWNWlXl5uUJHkDsW8bonRftPlnkf3pxHJuceOPXEssN6CTv3Zw1j+j839Cl/8ebP4T tPmxaPv+o/Ulog8Ra2tSOJUKdxmTecR8J6L0QLT5scj+e8UjV8X7lzjcgE5uas+cYcU5byyuBvnL 0ea/Q87OIs4+T65vd2w05kKjwYg4cyWX+l8TLVdVKsOhXAFgSq2WIVFzDkDflmDz9xSP54TPE8vx yPJNdP5b5PKF5GQh2IGEQYosBCtngs3PBPZnoPPfQue/ijY/Cig9HG26N3BzW+OcJ6IqM3f19PRM iFZTOFEUjSpubnLOmHQjovQdyH4BsRxCHI4h67/RurHr222flf0ZwP4M5PybaPNjgbPPA6cHA/W9 19jm/NjaZs25SjVNp7cOwiNWNSgRjStu+OlLEbM3g822I/L7Asnh6MJx6PwJxP4UYn86OVlItgOz Wn8CcP5loPxI5PQjhvp2T6ixORFhkiSzkiSZSkTjVvf+Le4f4F5jMl+cwWZ7gJX90IYjiOVr6ORE cv5Ucv6M5WcdrDmXnxU5/zZw/nV02dFosyOKBT6aO4FzGwBAHRFntn7SGLO6WVdFy1WVynAo1yhK x7ZWbeoungmVfqJ8cyK/A1F4LznZh9gfgJwdipwdalgONSiHxhgOG5zIoUByCFB+MFD6cXDZ/mDT 9xhKdygOvs05AMW3/e7u7omty8Gjo9UUTtS66SdJkqnGZD31eg4A2QbAfkuwsgux7EXs9yXODyzm zA412MZZXfpx47IPImfvAtt8J0A6zzBLjQh7exszenp6Jiwz6+qMqlQq61er6fQ4bs4eeCaUSN5B TvZA9guQ8w+Dyw5adtYY/SDNGQ4zKIcC5S/Pijbd21C6G2K6dUyNTRCbmTHNOEmSqZVKZf1Wsa7u C1MURdGYnh4/oVLhruIqTJ4DyDzgsC1YvyfafG9w2X7E+cHtef++POvBQP7jyPlHiLO9kLOdjW3O N5xuFFvbjOPm7O40ndj6sjQmKu6FeN20XFWpDI9yXc7IJAlTmaUXQJjIz8FG9mbgvi2pkW5vKN3B kN+hZvwONdM/SPE71I3fPobsncDNbYH7tiwKFWylUukCgCmVSmX9aM0OvKswd0xvb2MGQFq3NmsW RZvOs7Y5v62zQrYdvDwrzzPMEsfO9Pb2zpg+ffrk1sH3DR54k/GIfmYce4PoM+Z0I6J8c+S+bYiK WYs5B2/WuvHb1yHbDmzzncDNbYtCxQwA6tVqdXp3d/fEVqGu7kvSKjnnJiVJOosow+Kuab8xuvSt YJvvNMvNOliv6TKzcnNbQ423G+aNkoQb1Wq1N0mSqa0rLW/oTHVFWq6qVIZhuY4YeEwnjpuzY+eN cc4hNrPixotsg9pAav2DlGyDOuZzY2rOiamvH7GZxc6ZJElmdXV1TWoV69joDRZOFEWjurvTiczc VSy+kGHCecM45zs1a8LcKBalL87KW8U6NnqDhRNFc8cQ0WREPxMxqyGmRJT2EfX1Iy4za23wZq3X 87kx+TkDs7auPtQqFe5a5grEGy6cgcd0jMl6kiQkxVl7X0rUnIPYmDv4r2n/cq+pYRZEpGqVe6vV 6vSenp4Jr+GsfI1puapSGY7lGkXp2J4ePwEAplSYu4zJemrOVYxpxgOZbZrxbNM/SGnGFUjrFUjr iFmt5lylwtxFRJNbB+Cx0ZpdBl6dkUQ0rljFKUwlou4kSWcxc2+7ZwVI64hYS5JkVrWaTi+ezaVx UVE2o9bCrKOSJBnf1eUm1ev5NCLqjuPmbMSstvyc7ZsVEWfW6/Vp3d3dE6MoWnbWN2jg0Sua3Nvb mIHoZ9acqxQrOrXjNV06K2JW6yWqFu+t4nJ3tPT9+0a/HC5Hy1WVyjAs1ygqPvSjoigaE6Xp2GJF p2R8pVJZf/nMHaQs/XcUZyHJ+NadwAMHpJHRGy+bZWcd3TqzG5ckyfhqtbpeR2eNlpt1xFqadcRQ m3WZLw+DMeuo4p/biffv3OXmXGHWUdHaff++TMtVlYoxzRjZLyAnC8nJo63lz14qnn0b1HL9PbAc XMd8brT8wUsptQ6KY28M+e2B/aeQ/S+Q5TJiuQU5PD54xxl5GliuNiQnJSD7VRO/ddVkPo6bszv9 91DruFa5vh9sfiayPAxWXhgo2EEtVw5/MNb/Z2L73hRF0cDvdmvj8qJSagiqcw4J5TsaK58B689H K1cWK1UN5mIw8jSxXIVWTjQYPmyMvL0Kea7lqgadMc3YULYXkj8drH8Q2S9GliWDvVA8slwGlH2q Zvo2jaZOnRpF0dq6CUgpNQTVKMPYyi5A8gVj5Tdg5Vos1lkexPWk5SliuRJtOMGQ3xcg34pI0iRJ Z3X676HWcQBp3VD2PkP5aYby+8Hmi1oFO9jleoWx+Wd6Y/e2aOLE7mj69MlRFI2PtFyVWidVMaU6 9e9mKBxjbP8fjQ03Aoc7keWpwS5Xsv4bRLIPon8bUdq3sh2qlFqrELMaWL8nsD8F2N8J1j8JVp4t FvIe1HK9Bjj/SgzprjNi25xR5d6pxbJ5a/XZOqVURxU3qaXp2CrkecJhgbFyorHhBrDhVmC5Hzk8 O5jliiyXo/XHEcn7AGRe8Xw8dXf6D6PWcb3kq4ayPcD6Ewz7vwPLw8jyBA7yQvHI4Uaw/lsJZfv3 Yvq2GjazWs1VVre4vVJq2BgRpenYSmXu+tOJJifkNzYsHzE2fBes3AVWHkQOjyMP5o5P8iRx+AM6 fzSR3w0g2yCOvalW0+md/uOodVyVpRes39VY/1XD/kbDci+wPIoszw1yuf4vOPlvY/0RNc7eFWP2 5jrnsJJNtpVSw9OIarW6HsDcKbOovztphC3QhU+Ak5+2SvUpZHmu2GlpEMvVhd8Rh88T+e0B8hwx qyVJmNrpP45ax9VcfyXhsJPhcIxhucqw3AYsD5ALg7pXKnL4J7rwS3D+G4nzH4s539a4zNfr+bRo 7T5TqJTqjFEAc6fEzebsGmWYuLAjunA0OLmIXFiCHAblyYSBRwmLhMeR5TfE4dNE8nYA4SRJZ7mV 762s1NqTJOmsmPNtDPtPG5YLkeW64g6+wXz2LPw/dOE+YLkK2f8C2J8C5A9I0G8N0LRL1zZd3RZt SqkhZtnFQNavQrB1DG+JWXY27D+NLGcV29u9XKyDUa4vtv75i7H4mes8cOHjiOHNzNJbr+fT3uj2 eUqtFqKfCey3BOc/jiw/BpY/IsvN5MIjg3vmKo+hDbci+z+j9eej9UcTZe8DSDdk5t5qNZ3eWopN KTV8jIyiLUZHEY2bOjVMrSb+TYZkj8TmnwCWM4DlYmT5+7LFuvbLtShWsPIssNyHLOeAlf2sDaFa Taf39PgJ6Wr3VlbqDaowdxmbb4ZW/gPZn47sL0AX/oLFpeHBLNfniOVRtOE+tHIzWVlIlB9sbTYf oMG1mqsQ0eRO/32UUq/JqOKK0ybrTZzoZ1bjfJuY5BBD/jRguRQ43Igs9y5/6XatL1izBFkWIctT YP1dhuRHaPO9jfGuuGFy7lpaI1qpVajX82nA6Yatx3G+BFbORud/jyx3D265hheIZRHa8AxZeYis XEwkJ6PNPkqU70iUbZHYNFQwq9VqrmJM1lNh7qrX82kDSZJkqkaj6VyKK0zc1YM4M0nSWbNNM54d Z83e3hCqSf/mCfiDDPlTwPpLoDhjvQdZBvcnJ5bnkOVxYLkPrNwE7M8wJHsY04yjQVw7WanlAMAU YzIPVrZDlkOR5SRkOY9Ybh/kD8CLxGFxq2AfJyvXoZXzkOXbwHIk2uyjQPl7jc3mG5tvZjjdyHAq sc2axbZr3gE0WKPRtD/GOGecc3VK+4xhqWNjbpI0N66bbH6d8t1jkH0MyqFgw6lg5Vxgub4o1vAI ORnUmyWJ5UnkcB+w3ALW/wFYvp5QviORr0ZarKpdurvTicVD1dkWaPO90coXkeXH6OT/Brtci7PX sAQ5PEssd6OTm5DlcmT5GbJ8G8h/yWD2USDZx5DfLeZ829jJWxPKNy8Kt29TgHSeRqNpXwz3bToQ 4L4tY+zbJsHmTgmke8aUHmgwP8qQnAw2/ABZfgscbkCWu4szVnma3GA+1xr+Hzr5NxZPPbRumJQv JCTvaC15qMWq2qNara5XPPeVBsR8G7D+IGR/Ojr566B+u1y+aF9qLbe4hFxYjCwPAMtfwfpLwMp3 wPpvGOuPMBwOTNgvMJztBZS/F2y6J3L6bo1G096ATfcs0vcBQ+mBBpv/GWN6lKH8NLD5RcjyV3Th PnTyb3ThmdZnu13HkwfQyV+Rw/nI4TRgOdiw37TC3NXp460qESIah+hnFo/A+I2R/QJg+TqxXI1O nicniwdumx/scm09TL5k4Jsnsv+LYX8hWP8TYDkDXDgBWL6M7I9B549Gmx9FnH9Bo9G0L2jzo9Dm R6HLv0icfwVsdgLY7FuGsu+B9ecC+z8jy23kwiPk5MnBXyjiFceTu9CFPyHLWWj90WDlAwDZBq1n 6JVqm9FENDlJ0lmIKYGV7YD955D9pcjyBDh5Gp08P5gfjmXuGixuz3fhGeTwMLrwLyw2U74OnVyB Ti4FJxehk18jy4XI/gJkf75Go2lrLkD2F6DzFxDLxcj+UmD/R7D+KrT+JmS5Ezk8TE6ebq30Nugb gSx/PAm3IsuFaP1xYGU/sNl2sc2aXbpwhGqzkUQ0rqvLTertbcww7DcFzg8Bzs8H9g8D+8eRB3ch /5Xclr+49Tvsk60N3B9CF+5DlrvRhX+hC3cWkTs0Gk3HcmfrC/DdxHIvOrmfODyCxQ1Fz5ILi6l4 LGbw94de/nhyM1j/E6D88BiyXeqQzkuSRqLPzatOePnBb8OpGM4/ZDj/seH8DnD5/cjyBA7yTQga jUbzerLCz0qLkcNfwMpCQ+m+tVrfptVqI0+SdFaim4KoDhgRRdGoKNpiNIAw2GwX47LjDOcXAvur 0ckdyOGJTn+INBqN5pWRxa27kB8llnuR/YXE+VcM+R3iOGtWKmk9SXQ7S9UZA4vkjwRI68B+S+D8 EHDZt9Dlv0TnbyQnD3f+Q6TRaDTLp1jtzT9C7O8izm9G638AlB9uTN+mSZLOqlbT6a21hHVVJtU5 xmQ94LINwKZ7gksPR86/jSyXkZN7O/0h0mg0mldGniaWe4nz/yXOLifOTkHOP0zUlxaXgtOxUVGs +oyr6hwAmIKYUkL55salu6HLP4Ms5xCH/0UXnqFiE/Ul7bxBQaPRaAay4tMFxPIwsfwN2f+WOPse cf5J5HwngLTe6eOpUi/r6emZUHOugs1mhi59C3L+YWB/Blq5Eq08gCyPI4dn23lrvUaj0Qxk2RuY sPiifzeyv4xsfjba9LPE2V7GNjczJuvp9PFUqaXSdCwATKk5V2HOATnfCa0c23pu7J/Icj9yeKKd D4VrNBrNQFqboL+AxfOzi8DJP8D5X6HLjgOb7okufRtiM2vdxKTUkDIiiqJRW2yxxWjgsCGRHAIk ZyP5v5CV24jlIWrjcmYajUYzkNZPUkuQZRFweNawXA82PxPYH4DNZhY7ZxBxpj56o4aiEVGxe8So 2GZNAL8nkP88kj8LrfwO2f8vOXmytQD3Er1ErNFoBjPLLzIjS5DlMWC5A1j+Cs7/FDj/gnHZHrFz JkmSWa2zVt0QXQ1JI6IoGlks6p9tYUz2PoDsU0j+e2D9H5DlwWWWN9OzWI1GM2hZfhU3vwitvwtZ rkCWn4OVYw3nHyouB+PMJEmm9vT0TIiiaHSnD6JKvapp02BKT+xMby9Lvd6cbzD/DJL/UbHfqzxK Tp4a7C2kNBpNuTNQrGD9S2D9M8D+r2DzHxSbd2R7AfdtGdus2boUPDYqilUfvVFD2tiurq5Jkyb1 zujuRkow3xusPwGdXIsu3IEsD5CTpwZ2zllmfeCOfyA1Gs3wzIrrjSPLC8jyPFj/LFj/INr890jZ 18Bl+xA1Ni+eaU1ndfpgqdRrMTqKqut1dXVN6uqKZ9dNNj8hvz9QOAWsnIMslyHLbcTyJDp5hnhw d9DRaDTrflZ4lvUFdP7fyHIHWn8t2PxisNmpQNn+xmbzidI+RKzp3cFquBkZFWtyjps6NZnam6Qh xnybBPz+CYUvAfnvI/k/o5UH0cpj6KStGyNrNJp1L8sWa3EDk78b2f8Zrf8ZUH4y2uwwQ+n2xmU+ jpuz6/X6tNYSh0oNK627h2lcV81VZtXTvlrNb5okfgFA/mWg/CIk/y+0/gFieYJYf4PVaDSvPwOX goutLv3zyP7vyP5CoPx4xOyjYNNdiZpzjMl6Wr+zjol07WA1jI3s7k4nzprV3z17dn9cq+WbGeM/ aNCfiOQvRJIriOUW4nAvcXgCXXiGXHheH9XRaDSrysDCEOTCEmJ5nlieRJYH0cmdyPnNxP5ctPk3 wWb7IfZtY0y6EWJW07NVta4YEUXJ+OnTaXJPj59Zq/ksSeQdAH5/RH80kj8NOVyAHP5S3OwUHiye hw2LO/3h1Wg0QzfI8hKxPN+6b+MJtP4uYrke2f8Wrf8B2uw4tNnHwGbvRGzMBWjaSoW7WovyK7VO GB1Fyfju7nRireYq9bqkSRK2AJBdgMLHgcMpxOFcdHItsdxGHB5uLfbf8Q+wRqMZmmn9vvosWnkc rTyE7P+K5C9A8qcB5YejzfcGyLc1JvNEVGXmrtazrHopWK2TRhVnsm+a3Nu70YwYw5sNy0eAw8nI 4QLicB2y3NW6PNzxD7BGoxmaQQ4vEMuTaOVBJP8vJH8pkD8V0X8MQOYB5DlAWu/p8RM6fdBTqh1G RlE6tlKZu/706W+aXEOfIcvOYMNBaMNxyOF7xHIuWv8nZLkZWW5DJ/cjh8eKZ2OL1Z1WfKat0x90 jUaz9tO692JJ63G9Z5HlMWR5AJ3cSSy3kPVXkpWL0fqfIfoTgPKDAfyuAHn+/9u52xe7qiuO4ycm MWrQZMKYO9x7556911p77czcs9c608SnNq2gUB/iCx9KfYpJfCFFwYqtbcGipRoJjQTqi1opUkGL IkHBGCNYKtrWogmiiIgtom1j6YsWaTWaSBH64kyKIL7TTNv8PvD9E85e9+xz965ri8yG+4LhqLGo qqolVSXLhsMzju9zMx3VTyVtzxf1q6L6t1nsDkr2U0q2k9R+KeovcW7f6oas/4PVD2G4InRU9C9W Pyjq73H2d1j9j6z+iqg9K8l3idq9nOxOEbuZUrmaUnNBCHY60XjEbKuJaEVVrV260IsewJHyn0v+ ez1b3ledHKoPiNpUc/PFmpoNozi7MUj5Xkx2FyXbxdruY/XXSe2vpHaAkn1EyXC7E0L/1/mHov6e qP2d1d7mZC+y2pMi9jNOtpVT+QZzuVCknBGj5cNDtdez5d0b69ql82sNwFFtca/HqwcD0qlpPaWm NZcEKTdSsrtZfTer/5qTv0rJ9pPaO5z8n6z+rmQ/wLl9f37b6CCrH+Lsh6TrQ4TQf22HpNuJOtg9 v+0HktsD0t0//q5o+zdW38/J/yCpvMxS9ojYvcz2/ZTK1UR2tsh4djQqE1V3N/DiCvcDA3zCMStD WDkc6qDfz3k6zn65puZiTvbN7leq/ZiS30fJdpKUPaz2NKv/ltX3irYvs/qrpP46a/sGZX+zO+/m fxb1/aL+9sf6C0LoiPbx52///J8W/8S5fUu0fYOz/160fY2zv8K53ce5/R3n9pnumJ4/Qsl/wanc w2J3iJRvUSpXiIzPEZmdi3GmnpzMJ1bdYD2mwnAF+IRF1XB4/MQErZiakpPrOschlULk65ntXNbm oijNxsjlGkrNDSTlVk62ncTuZvH7o/rDMdljUf0pyvYrUnuWsz8nas+L2gui/gKr72W1fQihI5nv PZyoP8+5fY7Vf8O5fUa0fUrUH2f1R1jbBzn7PaS+Iya/Lab2JlK7jlPZQskuYbZzYypf6Yaq5e5o X5kQkWVVN1QxWAE+xeKqqpZWlSzr9XrLJ4hW9Ps6GcJ4img8ijFnojUlhNnTiJoNMTYbI/v1kf2W IGVbSHZXyOXnMZcHOJeHWcujkm2XqD3OWnaz2hOstgchdER7ost3S/ZdrP4opXYnqT/Eye8jtZ+I +g7OfjtluyFouzloe+FQ5s6cpmZdnZqZofoghPFUX3UyhLBycjKfiO+qAJ+NJf1+/4RVq1ad1L3Z NjMh2Okh+DkxNl8PXLYEsWvrZN+ptbmZtPkB52arrCnbOJcfcW62c7Y7EUIL0nbOtl3Ut3G2raT+ Q05+C6f2u5z8etZyjWTfyFrOG+X2S9NsTZ/GoymZOxlnVQE+X4urqjq23++fQEQrBgMZxphzXfvc iMbra7azai7n1dpcNBL7Guv4MsrlStbxJlbbxGqbOZUtCKEFSm0zq20iaa+kZJcH9kvnz7lviOJf FSlnMpe1dWpmDg/WVSInVTirCvC5WlTNbxuHEI4j6r7NDoc+qGuLQ5pJIZQ1Qyol6thrmZ0TsS9Q btZRbtaRjk9BCC1w1KxjLmtr8bmQ2paolDo1MzFaFml4IDbssa0ejcpEr2fL5wfrkgVeewAAAAAA AAAAAAAAAAAAAAAAAAAAAAAAAAAAAAAAAAAAAAAAAAAAAAAAAAAAAAAAAAAAAAAAAAAAAAAAAAAA AAAA4H/CvwFFb7L9twu8mgAAAABJRU5ErkJggg== "
       preserveAspectRatio="none"
       height="60"
       width="60" />
    <g
       id="g4321"
       transform="translate(519.71429,355.79077)">
      <path
         style="fill:#113ead;fill-opacity:1;stroke:none;stroke-linecap:round"
         d="m 54.998047,30.052734 c -3.636964,0.03727 -2.134649,7.430124 -6.587336,5.581202 -2.253147,-3.26081 -6.549983,-0.795668 -5.565008,2.473486 2.797422,2.995203 4.627508,5.964014 -3.214844,6.322266 1.279852,3.391748 1.869079,4.219513 4.092352,5.266748 1.156167,4.142924 0,4.6875 4.55218,3.909033 2.42713,-1.927517 2.01032,-2.971533 2.826171,-6.910157 -1.136602,-4.018327 3.268987,-6.626044 6.810547,-5.957031 1.805013,-3.286629 1.686415,-8.914464 -2,-10.642578 -0.301431,-0.05579 -0.633621,1.777073 -0.938897,1.788233 z"
         id="path4353"
         inkscape:connector-curvature="0"
         sodipodi:nodetypes="ccccccccccc" />
      <path
         style="fill:#113ead;fill-opacity:1;stroke:none;stroke-linecap:round"
         d="m 22.421875,1.1542969 c -2.27715,0.8178846 -7.993658,1.3488643 -4.521484,4.1875 3.574102,2.948956 -1.876023,8.3319391 -4.517579,4.2460937 -1.906947,-4.6147236 -7.201853,0.8543384 -6.5664058,4.3203124 -2.0445307,3.164057 2.6881962,4.026993 5.0318048,2.038233 2.431907,0.295075 3.013198,6.834198 6.173273,4.196142 0.687648,-2.671626 3.072842,-3.237795 5.429688,-2.191406 3.927773,-0.442127 -0.268825,-3.754719 0.584539,-5.754736 1.506536,-1.375368 2.8125,-1.875 4.118586,-5.3800298 C 26.141585,5.7150347 24.399455,6.0039284 24.035711,3.7589357 23.666175,3.0826997 23.137738,1.053348 22.421875,1.1542969 Z"
         id="path4355"
         inkscape:connector-curvature="0"
         sodipodi:nodetypes="ccccccccccc" />
      <path
         style="fill:#90a9e9;fill-opacity:1;stroke:none;stroke-linecap:round"
         d="M 40.886719,2.6425781 C 30.338238,4.2702245 26.459878,19.397457 34.640625,26.136719 41.7767,33.612032 56.377428,28.879157 57.386719,18.582031 54.735135,11.533878 48.306998,4.5503972 40.886719,2.6425781 Z m 3.353515,11.2890629 c 4.286438,0.752125 0.420477,7.639795 -2.15625,2.849609 -0.546165,-1.428173 0.589285,-3.059933 2.15625,-2.849609 z"
         id="path4357"
         inkscape:connector-curvature="0"
         sodipodi:nodetypes="ccccccc" />
      <path
         style="fill:#90a9e9;fill-opacity:1;stroke:none;stroke-linecap:round"
         d="M 18.550781,23.125 C 10.050251,23.140391 1.2423314,30.634263 1.6054688,39.388672 4.7484732,48.542128 12.694571,56.945285 22.441406,58.537109 34.660338,56.698535 41.05157,40.892657 33.826172,31 30.496718,25.991483 24.560733,22.93603 18.550781,23.125 Z M 19.433594,35 c 6.758385,0.0018 7.599505,10.988685 0.791015,11.910156 C 13.086508,48.831284 9.9919006,37.033545 17.21875,35.226562 17.936079,35.017469 18.689565,34.957413 19.433594,35 Z"
         id="path4343"
         inkscape:connector-curvature="0" />
      <path
         style="fill:#ffffff;fill-opacity:1;stroke:none;stroke-linecap:round"
         d="M 18.763672,33.087891 C 11.097408,32.917897 8.1426615,44.407639 15.068359,47.849609 21.467464,52.099387 29.929521,43.856024 25.996094,37.328125 24.639475,34.692031 21.736712,32.956259 18.763672,33.087891 Z m 0.677734,5.923828 c 3.846725,0.9969 -0.320107,6.39243 -2.25,2.921875 -0.754986,-1.464861 0.574962,-3.358527 2.25,-2.921875 z"
         id="path4359"
         inkscape:connector-curvature="0" />
      <g
         transform="translate(-0.84656721,-0.19952654)"
         id="g13" />
      <g
         transform="translate(-0.84656721,-0.19952654)"
         id="g15" />
      <g
         transform="translate(-0.84656721,-0.19952654)"
         id="g17" />
      <g
         transform="translate(-0.84656721,-0.19952654)"
         id="g19" />
      <g
         transform="translate(-0.84656721,-0.19952654)"
         id="g21" />
      <g
         transform="translate(-0.84656721,-0.19952654)"
         id="g23" />
      <g
         transform="translate(-0.84656721,-0.19952654)"
         id="g25" />
      <g
         transform="translate(-0.84656721,-0.19952654)"
         id="g27" />
      <g
         transform="translate(-0.84656721,-0.19952654)"
         id="g29" />
      <g
         transform="translate(-0.84656721,-0.19952654)"
         id="g31" />
      <g
         transform="translate(-0.84656721,-0.19952654)"
         id="g33" />
      <g
         transform="translate(-0.84656721,-0.19952654)"
         id="g35" />
      <g
         transform="translate(-0.84656721,-0.19952654)"
         id="g37" />
      <g
         transform="translate(-0.84656721,-0.19952654)"
         id="g39" />
      <g
         transform="translate(-0.84656721,-0.19952654)"
         id="g41" />
      <g
         id="g4307">
        <g
           id="g4261">
          <path
             inkscape:connector-curvature="0"
             d="m 19,45 c 2.206,0 4,-1.794 4,-4 0,-2.206 -1.794,-4 -4,-4 -2.206,0 -4,1.794 -4,4 0,2.206 1.794,4 4,4 z m 0,-6 c 1.103,0 2,0.897 2,2 0,1.103 -0.897,2 -2,2 -1.103,0 -2,-0.897 -2,-2 0,-1.103 0.897,-2 2,-2 z"
             id="path4263" />
          <path
             inkscape:connector-curvature="0"
             d="m 44,12 c -2.206,0 -4,1.794 -4,4 0,2.206 1.794,4 4,4 2.206,0 4,-1.794 4,-4 0,-2.206 -1.794,-4 -4,-4 z m 0,6 c -1.103,0 -2,-0.897 -2,-2 0,-1.103 0.897,-2 2,-2 1.103,0 2,0.897 2,2 0,1.103 -0.897,2 -2,2 z"
             id="path4265" />
          <path
             inkscape:connector-curvature="0"
             d="m 19,49 c 4.411,0 8,-3.589 8,-8 0,-4.411 -3.589,-8 -8,-8 -4.411,0 -8,3.589 -8,8 0,4.411 3.589,8 8,8 z m 0,-14 c 3.309,0 6,2.691 6,6 0,3.309 -2.691,6 -6,6 -3.309,0 -6,-2.691 -6,-6 0,-3.309 2.691,-6 6,-6 z"
             id="path4267" />
          <path
             inkscape:connector-curvature="0"
             d="m 59.187,36.913 c 0.12,-0.507 0.227,-1.018 0.32,-1.534 0.005,-0.027 0.012,-0.053 0.017,-0.08 10e-4,-0.006 0,-0.012 10e-4,-0.018 C 59.831,33.564 60,31.802 60,30 60,25.874 59.162,21.941 57.649,18.36 57.643,18.344 57.643,18.326 57.636,18.31 56.475,15.57 54.897,13.026 52.993,10.759 51.873,9.423 50.639,8.187 49.307,7.064 47.023,5.135 44.457,3.536 41.69,2.365 41.675,2.358 41.658,2.358 41.642,2.353 38.061,0.838 34.126,0 30,0 c -1.738,0 -3.44,0.157 -5.098,0.442 -0.003,0 -0.006,0 -0.008,0 C 24.866,0.447 24.838,0.453 24.809,0.459 24.404,0.53 24.001,0.607 23.602,0.694 23.58,0.699 23.558,0.705 23.535,0.71 21.938,1.062 20.39,1.543 18.899,2.139 18.762,2.194 18.623,2.245 18.487,2.302 18.263,2.395 18.044,2.496 17.823,2.594 17.607,2.69 17.391,2.785 17.177,2.886 17.003,2.969 16.831,3.056 16.659,3.142 16.611,3.166 16.563,3.189 16.515,3.213 16.502,3.219 16.487,3.219 16.473,3.226 16.413,3.256 16.356,3.29 16.296,3.321 16.156,3.393 16.018,3.468 15.879,3.542 15.756,3.608 15.634,3.675 15.512,3.743 15.37,3.822 15.226,3.897 15.085,3.978 14.918,4.074 14.755,4.175 14.59,4.274 14.504,4.326 14.419,4.377 14.334,4.43 13.986,4.643 13.643,4.864 13.303,5.091 13.268,5.114 13.233,5.137 13.199,5.161 13.021,5.281 12.843,5.4 12.668,5.524 12.645,5.54 12.622,5.558 12.599,5.575 12.226,5.841 11.859,6.116 11.498,6.399 11.486,6.408 11.474,6.416 11.463,6.425 11.46,6.427 11.459,6.43 11.457,6.432 9.813,7.725 8.295,9.191 6.939,10.819 6.921,10.84 6.912,10.866 6.897,10.889 2.591,16.082 0,22.744 0,30 c 0,2.995 0.447,5.887 1.268,8.618 0.002,0.007 -0.001,0.015 10e-4,0.022 0.01,0.032 0.022,0.062 0.031,0.094 0.166,0.544 0.344,1.083 0.54,1.613 0.069,0.189 0.148,0.373 0.221,0.56 0.121,0.31 0.243,0.619 0.374,0.923 0.134,0.313 0.276,0.62 0.42,0.927 0.068,0.143 0.135,0.286 0.205,0.427 2.928,6.002 7.763,10.836 13.766,13.762 0.134,0.066 0.27,0.13 0.405,0.194 0.313,0.147 0.627,0.292 0.946,0.428 0.29,0.125 0.584,0.24 0.879,0.356 0.201,0.079 0.399,0.164 0.603,0.238 0.525,0.193 1.059,0.37 1.597,0.534 0.035,0.011 0.068,0.024 0.104,0.035 0.012,0.004 0.025,0.002 0.037,0.005 C 24.124,59.555 27.011,60 30,60 c 4.995,0 9.705,-1.234 13.852,-3.402 0.027,-0.011 0.055,-0.017 0.082,-0.031 0.073,-0.038 0.141,-0.082 0.214,-0.12 0.243,-0.131 0.481,-0.269 0.72,-0.406 0.224,-0.128 0.451,-0.252 0.671,-0.386 0.422,-0.256 0.837,-0.523 1.245,-0.8 0.175,-0.118 0.343,-0.245 0.515,-0.367 0.272,-0.193 0.543,-0.386 0.808,-0.588 0.149,-0.114 0.295,-0.231 0.442,-0.347 0.295,-0.232 0.585,-0.469 0.871,-0.712 0.107,-0.091 0.213,-0.183 0.318,-0.276 0.348,-0.304 0.688,-0.617 1.021,-0.937 0.039,-0.038 0.079,-0.074 0.118,-0.113 0.482,-0.468 0.952,-0.949 1.402,-1.448 0.015,-0.015 0.037,-0.021 0.051,-0.038 2.222,-2.475 3.994,-5.267 5.285,-8.31 0.047,-0.11 0.089,-0.222 0.134,-0.332 0.108,-0.262 0.218,-0.522 0.319,-0.788 0.004,-0.01 0.002,-0.021 0.005,-0.031 0.435,-1.152 0.799,-2.338 1.091,-3.552 0.008,-0.034 0.015,-0.069 0.023,-0.103 z M 49.04,50.505 c -0.25,0.233 -0.507,0.459 -0.766,0.683 -0.098,0.085 -0.195,0.172 -0.295,0.256 -0.203,0.172 -0.412,0.337 -0.621,0.502 -0.16,0.127 -0.318,0.255 -0.481,0.378 -0.16,0.121 -0.323,0.238 -0.486,0.356 -0.152,0.11 -0.304,0.219 -0.458,0.326 0.215,-0.959 0.125,-1.974 -0.283,-2.909 C 45,48.607 43.652,47.57 42.046,47.323 L 41,47.161 v -1.777 l 0.994,-0.19 c 1.597,-0.308 2.905,-1.395 3.499,-2.908 0.594,-1.513 0.375,-3.199 -0.587,-4.511 l -0.626,-0.853 1.257,-1.258 1.281,0.869 c 1.316,0.892 2.979,1.06 4.448,0.452 1.469,-0.608 2.526,-1.904 2.826,-3.466 L 54.384,32 h 1.777 l 0.161,1.046 c 0.141,0.915 0.53,1.739 1.137,2.414 -0.244,1.23 -0.577,2.436 -0.983,3.613 C 56.154,39.024 55.828,39 55.5,39 51.916,39 49,41.916 49,45.5 c 0,1.386 0.44,2.705 1.242,3.808 -0.355,0.373 -0.717,0.739 -1.093,1.092 -0.036,0.035 -0.072,0.071 -0.109,0.105 z m 6.286,-8.601 C 54.334,44.001 53.081,45.968 51.61,47.76 51.213,47.08 51,46.306 51,45.5 51,43.019 53.019,41 55.5,41 c 0.076,0 0.151,0.002 0.226,0.006 -0.113,0.262 -0.225,0.524 -0.345,0.782 -0.018,0.039 -0.037,0.077 -0.055,0.116 z M 44,28 C 37.383,28 32,22.617 32,16 32,10.474 35.843,5.622 41.184,4.338 c 1.948,0.852 3.782,1.917 5.47,3.169 0.033,0.025 0.067,0.048 0.1,0.073 0.275,0.206 0.542,0.42 0.809,0.636 0.086,0.069 0.175,0.136 0.26,0.206 0.2,0.166 0.394,0.339 0.589,0.51 0.142,0.124 0.287,0.244 0.427,0.372 0.074,0.068 0.145,0.14 0.219,0.208 0.508,0.473 0.998,0.963 1.47,1.472 0.055,0.059 0.112,0.115 0.167,0.175 0.132,0.145 0.258,0.297 0.387,0.445 0.166,0.19 0.335,0.377 0.496,0.572 0.073,0.088 0.142,0.18 0.214,0.27 0.213,0.264 0.425,0.528 0.628,0.799 0.028,0.037 0.054,0.076 0.082,0.114 1.25,1.685 2.311,3.516 3.162,5.46 C 54.377,24.158 49.526,28 44,28 Z M 23.228,2.834 c -0.157,0.745 -0.097,1.53 0.193,2.268 0.5,1.274 1.602,2.19 2.947,2.449 L 27,7.672 V 8.758 L 26.333,8.86 c -1.353,0.208 -2.488,1.081 -3.036,2.336 -0.548,1.256 -0.417,2.683 0.352,3.816 l 0.361,0.534 -0.768,0.767 -0.177,-0.13 c -1.129,-0.828 -2.575,-1.003 -3.869,-0.467 -1.293,0.536 -2.193,1.683 -2.405,3.065 L 16.757,19 H 15.672 L 15.55,18.368 C 15.292,17.022 14.376,15.921 13.101,15.42 11.826,14.92 10.406,15.106 9.302,15.914 L 8.758,16.313 7.99,15.547 8.351,15.013 c 0.677,-1 0.851,-2.209 0.509,-3.342 0.1,-0.115 0.198,-0.232 0.299,-0.345 C 9.414,11.041 9.677,10.764 9.943,10.491 10.218,10.208 10.5,9.932 10.786,9.661 10.919,9.536 11.055,9.414 11.19,9.292 11.764,11.42 13.693,13 16,13 18.757,13 21,10.757 21,8 21,6.473 20.307,5.096 19.193,4.173 19.805,3.917 20.428,3.685 21.058,3.473 21.123,3.451 21.187,3.429 21.252,3.407 21.903,3.193 22.561,3 23.228,2.834 Z M 13.01,7.772 C 13.091,7.71 13.168,7.645 13.25,7.584 13.652,7.284 14.067,7 14.485,6.72 14.687,6.585 14.886,6.445 15.091,6.316 15.117,6.299 15.143,6.282 15.169,6.266 15.592,6.001 16.027,5.757 16.463,5.516 16.654,5.41 16.841,5.296 17.034,5.195 18.208,5.623 19,6.73 19,8 c 0,1.654 -1.346,3 -3,3 -1.654,0 -3,-1.346 -3,-3 0,-0.075 0.004,-0.151 0.01,-0.228 z m 0.107,18.344 c 0.029,-0.009 0.059,-0.005 0.088,-0.017 0.035,-0.014 0.059,-0.042 0.092,-0.059 C 15.072,25.369 16.994,25 19,25 c 8.822,0 16,7.178 16,16 0,2.292 -0.488,4.472 -1.354,6.449 -0.009,0.017 -0.025,0.028 -0.033,0.046 -0.01,0.022 -0.007,0.046 -0.015,0.068 -2.117,4.732 -6.467,8.26 -11.881,9.186 -0.003,-0.001 -0.005,-0.001 -0.008,-0.002 -0.493,-0.152 -0.977,-0.322 -1.458,-0.5 C 20.026,56.164 19.805,56.072 19.583,55.983 19.353,55.891 19.124,55.797 18.897,55.7 18.6,55.571 18.304,55.438 18.012,55.299 17.905,55.248 17.799,55.195 17.692,55.143 12.122,52.405 7.589,47.872 4.853,42.302 4.802,42.198 4.751,42.094 4.701,41.989 4.561,41.696 4.428,41.399 4.298,41.1 4.2,40.873 4.107,40.644 4.015,40.414 3.926,40.193 3.835,39.972 3.752,39.748 3.574,39.266 3.404,38.78 3.251,38.286 3.251,38.284 3.25,38.283 3.25,38.281 4.22,32.612 8.044,28.108 13.117,26.116 Z m 12.605,31.557 c 4.076,-1.622 7.352,-4.644 9.3,-8.458 l 1.571,0.698 C 36.726,49.973 36.864,50 37,50 c 0.383,0 0.749,-0.222 0.915,-0.594 0.224,-0.505 -0.003,-1.096 -0.508,-1.32 L 35.843,47.391 C 36.591,45.402 37,43.247 37,41 37,39.052 36.679,37.179 36.104,35.421 l 1.258,-0.489 c 0.515,-0.2 0.77,-0.779 0.57,-1.294 -0.2,-0.515 -0.777,-0.772 -1.294,-0.569 l -1.267,0.492 C 33.687,29.871 30.8,26.85 27.206,24.999 l 0.708,-1.593 c 0.224,-0.505 -0.003,-1.096 -0.508,-1.32 -0.505,-0.223 -1.095,0.004 -1.32,0.508 l -0.709,1.595 C 23.392,23.433 21.248,23 19,23 c -1.948,0 -3.819,0.322 -5.581,0.891 l -0.487,-1.253 c -0.2,-0.515 -0.781,-0.771 -1.294,-0.569 -0.515,0.199 -0.77,0.779 -0.57,1.294 l 0.484,1.244 C 7.378,26.494 4.057,29.932 2.327,34.279 2.112,32.883 2,31.454 2,30 2,24.902 3.376,20.122 5.767,16 c 0.048,0.138 0.116,0.269 0.225,0.377 l 1.958,1.957 c 0.349,0.35 0.899,0.392 1.298,0.1 l 1.236,-0.906 c 0.557,-0.408 1.243,-0.498 1.886,-0.245 0.642,0.252 1.085,0.785 1.216,1.464 l 0.278,1.443 c 0.091,0.47 0.503,0.81 0.982,0.81 h 2.769 c 0.494,0 0.913,-0.36 0.988,-0.848 l 0.164,-1.065 c 0.105,-0.688 0.552,-1.256 1.194,-1.521 0.642,-0.269 1.36,-0.18 1.921,0.231 l 0.869,0.637 c 0.398,0.292 0.949,0.25 1.298,-0.1 l 1.958,-1.957 c 0.339,-0.339 0.39,-0.871 0.121,-1.268 l -0.825,-1.218 c -0.387,-0.572 -0.451,-1.263 -0.175,-1.896 0.276,-0.632 0.825,-1.055 1.507,-1.159 L 28.15,10.603 C 28.64,10.528 29,10.108 29,9.615 V 6.845 C 29,6.366 28.66,5.953 28.188,5.863 L 26.745,5.586 C 26.067,5.456 25.534,5.013 25.282,4.37 25.03,3.728 25.119,3.04 25.526,2.485 L 25.631,2.343 C 27.055,2.119 28.514,2 30,2 c 2.876,0 5.651,0.437 8.265,1.246 -1.25,0.565 -2.402,1.3 -3.419,2.185 L 34.101,4.686 c -0.391,-0.391 -1.023,-0.391 -1.414,0 -0.391,0.391 -0.391,1.023 0,1.414 l 0.752,0.752 c -1.938,2.24 -3.173,5.079 -3.395,8.147 H 29 c -0.552,0 -1,0.447 -1,1 0,0.553 0.448,1 1,1 h 1.051 c 0.221,3.108 1.455,5.934 3.381,8.154 l -0.745,0.745 c -0.391,0.391 -0.391,1.023 0,1.414 0.195,0.195 0.451,0.293 0.707,0.293 0.256,0 0.512,-0.098 0.707,-0.293 l 0.745,-0.745 c 2.22,1.926 5.047,3.16 8.154,3.381 V 31 c 0,0.553 0.448,1 1,1 0.552,0 1,-0.447 1,-1 v -1.044 c 3.068,-0.222 5.907,-1.457 8.147,-3.395 l 0.752,0.752 c 0.195,0.195 0.451,0.293 0.707,0.293 0.256,0 0.512,-0.098 0.707,-0.293 0.391,-0.391 0.391,-1.023 0,-1.414 l -0.745,-0.745 c 0.885,-1.017 1.62,-2.169 2.186,-3.419 C 57.563,24.349 58,27.124 58,30 58,30.258 57.987,30.513 57.98,30.77 57.873,30.325 57.484,30 57.019,30 h -3.461 c -0.479,0 -0.892,0.34 -0.982,0.812 l -0.448,2.331 c -0.176,0.912 -0.769,1.64 -1.627,1.995 -0.857,0.355 -1.792,0.262 -2.561,-0.261 l -1.965,-1.332 c -0.396,-0.269 -0.929,-0.217 -1.268,0.121 l -2.447,2.448 c -0.349,0.349 -0.391,0.9 -0.1,1.299 l 1.133,1.545 c 0.554,0.755 0.68,1.726 0.338,2.597 -0.342,0.871 -1.095,1.497 -2.014,1.674 l -1.805,0.347 C 39.34,43.666 39,44.078 39,44.558 v 3.462 c 0,0.493 0.36,0.913 0.848,0.988 l 1.894,0.291 c 0.925,0.143 1.701,0.739 2.076,1.598 0.374,0.857 0.284,1.833 -0.241,2.608 l -1.025,1.513 C 38.773,56.921 34.511,58 30,58 28.546,58 27.117,57.888 25.722,57.673 Z"
             id="path4269" />
        </g>
        <g
           id="g4271" />
        <g
           id="g4273" />
        <g
           id="g4275" />
        <g
           id="g4277" />
        <g
           id="g4279" />
        <g
           id="g4281" />
        <g
           id="g4283" />
        <g
           id="g4285" />
        <g
           id="g4287" />
        <g
           id="g4289" />
        <g
           id="g4291" />
        <g
           id="g4293" />
        <g
           id="g4295" />
        <g
           id="g4297" />
        <g
           id="g4299" />
      </g>
      <g
         id="g4938"
         transform="matrix(0.06584676,0,0,0.06584676,17.827717,86.997495)">
        <path
           id="path4900"
           d="M 213.333,0 C 95.518,0 0,95.514 0,213.333 c 0,117.819 95.518,213.333 213.333,213.333 117.828,0 213.333,-95.514 213.333,-213.333 C 426.666,95.514 331.157,0 213.333,0 Z m -39.134,322.918 -93.935,-93.931 31.309,-31.309 62.626,62.622 140.894,-140.898 31.309,31.309 z"
           style="fill:#6ac259"
           inkscape:connector-curvature="0" />
        <g
           id="g4902" />
        <g
           id="g4904" />
        <g
           id="g4906" />
        <g
           id="g4908" />
        <g
           id="g4910" />
        <g
           id="g4912" />
        <g
           id="g4914" />
        <g
           id="g4916" />
        <g
           id="g4918" />
        <g
           id="g4920" />
        <g
           id="g4922" />
        <g
           id="g4924" />
        <g
           id="g4926" />
        <g
           id="g4928" />
        <g
           id="g4930" />
      </g>
      <path
         style="fill:none;fill-rule:evenodd;stroke:#000000;stroke-width:1.10626197;stroke-linecap:round;stroke-linejoin:round;stroke-miterlimit:4;stroke-dasharray:none;stroke-opacity:1;marker-end:url(#TriangleOutL-8-3)"
         d="M 31.875027,61.136657 V 77.889298"
         id="path4386-2"
         inkscape:connector-curvature="0" />
      <path
         inkscape:connector-curvature="0"
         id="path12966-9"
         d="M 31.875027,61.062347 V 77.185818"
         style="fill:none;fill-rule:evenodd;stroke:#000000;stroke-width:3.90445328;stroke-linecap:round;stroke-linejoin:round;stroke-miterlimit:4;stroke-dasharray:none;stroke-opacity:1" />
    </g>
    <text
       xml:space="preserve"
       style="font-style:normal;font-variant:normal;font-weight:600;font-stretch:condensed;line-height:0%;font-family:'CMU Sans Serif Demi Condensed';-inkscape-font-specification:'CMU Sans Serif Demi Condensed, Semi-Bold Condensed';text-align:center;letter-spacing:0px;word-spacing:0px;writing-mode:lr-tb;text-anchor:middle;fill:#000000;fill-opacity:1;stroke:none;stroke-width:1px;stroke-linecap:butt;stroke-linejoin:miter;stroke-opacity:1"
       x="226.98836"
       y="300.4635"
       id="text4473"><tspan
         sodipodi:role="line"
         id="tspan4475"
         x="226.98836"
         y="300.4635"
         style="font-size:19.93504524px;line-height:1">Exécution</tspan><tspan
         sodipodi:role="line"
         x="226.98836"
         y="320.39856"
         id="tspan4477"
         style="font-size:19.93504524px;line-height:1">Symbolique</tspan></text>
    <path
       style="fill:none;fill-rule:evenodd;stroke:#000000;stroke-width:1.52766097;stroke-linecap:round;stroke-linejoin:round;stroke-miterlimit:4;stroke-dasharray:none;stroke-opacity:1;marker-end:url(#TriangleOutL-9)"
       d="m 151.56928,386.11652 27.90569,-0.38481"
       id="path4386-7"
       inkscape:connector-curvature="0" />
    <path
       inkscape:connector-curvature="0"
       id="path12966-6"
       d="m 150.52501,385.97596 26.85765,-0.37037"
       style="fill:none;fill-rule:evenodd;stroke:#000000;stroke-width:5.39174414;stroke-linecap:round;stroke-linejoin:round;stroke-miterlimit:4;stroke-dasharray:none;stroke-opacity:1" />
    <path
       style="fill:none;fill-rule:evenodd;stroke:#000000;stroke-width:1.608114;stroke-linecap:round;stroke-linejoin:round;stroke-miterlimit:4;stroke-dasharray:none;stroke-opacity:1;marker-end:url(#TriangleOutL-9-3)"
       d="m 468.21921,386.05256 40.37818,-0.2947"
       id="path4386-7-6"
       inkscape:connector-curvature="0" />
    <path
       inkscape:connector-curvature="0"
       id="path12966-6-2"
       d="m 466.7082,385.93258 38.86172,-0.28363"
       style="fill:none;fill-rule:evenodd;stroke:#000000;stroke-width:5.67569637;stroke-linecap:round;stroke-linejoin:round;stroke-miterlimit:4;stroke-dasharray:none;stroke-opacity:1" />
    <path
       style="fill:none;fill-rule:evenodd;stroke:#000000;stroke-width:1.53735471;stroke-linecap:round;stroke-linejoin:round;stroke-miterlimit:4;stroke-dasharray:none;stroke-opacity:1;marker-end:url(#TriangleOutL-9-9)"
       d="m 266.70161,386.0549 36.28079,-0.29974"
       id="path4386-7-2"
       inkscape:connector-curvature="0" />
    <path
       inkscape:connector-curvature="0"
       id="path12966-6-7"
       d="m 265.34392,385.93502 34.91822,-0.2885"
       style="fill:none;fill-rule:evenodd;stroke:#000000;stroke-width:5.4259572;stroke-linecap:round;stroke-linejoin:round;stroke-miterlimit:4;stroke-dasharray:none;stroke-opacity:1" />
    <path
       style="fill:none;fill-rule:evenodd;stroke:#000000;stroke-width:1.36537981;stroke-linecap:round;stroke-linejoin:round;stroke-miterlimit:4;stroke-dasharray:none;stroke-opacity:1;marker-end:url(#TriangleOutL)"
       d="M 227.14285,456.38409 V 430.86446"
       id="path4386"
       inkscape:connector-curvature="0" />
    <path
       inkscape:connector-curvature="0"
       id="path12966"
       d="m 227.14285,456.49728 v -24.5612"
       style="fill:none;fill-rule:evenodd;stroke:#000000;stroke-width:4.81898737;stroke-linecap:round;stroke-linejoin:round;stroke-miterlimit:4;stroke-dasharray:none;stroke-opacity:1" />
    <text
       xml:space="preserve"
       style="font-style:normal;font-variant:normal;font-weight:600;font-stretch:condensed;line-height:0%;font-family:'CMU Sans Serif Demi Condensed';-inkscape-font-specification:'CMU Sans Serif Demi Condensed, Semi-Bold Condensed';text-align:start;letter-spacing:0px;word-spacing:0px;writing-mode:lr-tb;text-anchor:start;fill:#000000;fill-opacity:1;stroke:none;stroke-width:1px;stroke-linecap:butt;stroke-linejoin:miter;stroke-opacity:1"
       x="523.75671"
       y="339.5051"
       id="text4968"
       sodipodi:linespacing="0%"><tspan
         sodipodi:role="line"
         id="tspan4970"
         x="523.75671"
         y="339.5051"
         style="font-size:20px;line-height:0">Solveur</tspan></text>
    <ellipse
       ry="18.651949"
       rx="18.651947"
       cy="307.28989"
       cx="389.28571"
       id="ellipse6453"
       style="opacity:1;fill:#ff5600;fill-opacity:1;stroke:none;stroke-width:4;stroke-linecap:round;stroke-linejoin:round;stroke-miterlimit:4;stroke-dasharray:none;stroke-dashoffset:2.79999995;stroke-opacity:0.77647059" />
  </g>
</svg>
